BANK BELVEB OJSC,29 Pobeditelei ave.,Entity,UKRAINE-EO13662,Non-SDN, ,Belarus
BELVNESHECONOMBANK OPEN JOINT STOCK COMPANY,29 Pobeditelei ave.,Entity,UKRAINE-EO13662,Non-SDN, ,Belarus
BELVESHECONOMBANK OAO,29 Pobeditelei ave.,Entity,UKRAINE-EO13662,Non-SDN, ,Belarus
BPS-SBERBANK,6 Mulyavin Boulevard,Entity,UKRAINE-EO13662,Non-SDN, ,Belarus
OJSC BPS-SBERBANK,6 Mulyavin Boulevard,Entity,UKRAINE-EO13662,Non-SDN, ,Belarus
BPS-SBERBANK OAO,6 Mulyavin Boulevard,Entity,UKRAINE-EO13662,Non-SDN, ,Belarus
CJSC VTB BANK (BELARUS),"14, Moskovskaya Street",Entity,UKRAINE-EO13662,Non-SDN, ,Belarus
VTB BANK (BELARUS) CLOSED JOINT STOCK COMPANY,"14, Moskovskaya Street",Entity,UKRAINE-EO13662,Non-SDN, ,Belarus
VTB BANK (BELARUS),"14, Moskovskaya Street",Entity,UKRAINE-EO13662,Non-SDN, ,Belarus
CJSC VTB BANK (BELARUS),"14, Moskovskaya Street",Entity,UKRAINE-EO13662,Non-SDN, ,Belarus
CJSC SLAVNEFTEBANK,"14, Moskovskaya Street",Entity,UKRAINE-EO13662,Non-SDN, ,Belarus
BANK TORGOVOY KAPITAL ZAO,65A Timiriazeva,Entity,"IFSR, IRAN, NPWMD, SDGT",SDN, ,Belarus
BANK TORGOVOY KAPITAL,65A Timiriazeva,Entity,"IFSR, IRAN, NPWMD, SDGT",SDN, ,Belarus
BANK TORGOVY KAPITAL,65A Timiriazeva,Entity,"IFSR, IRAN, NPWMD, SDGT",SDN, ,Belarus
TC BANK,65A Timiriazeva,Entity,"IFSR, IRAN, NPWMD, SDGT",SDN, ,Belarus
TK BANK,65A Timiriazeva,Entity,"IFSR, IRAN, NPWMD, SDGT",SDN, ,Belarus
TRADE CAPITAL BANK,65A Timiriazeva,Entity,"IFSR, IRAN, NPWMD, SDGT",SDN, ,Belarus
BELNEFTEKHIM,73 Dzerzhinskogo Avenue,Entity,BELARUS,SDN, ,Belarus
BELNEFTEKHIM CONCERN,73 Dzerzhinskogo Avenue,Entity,BELARUS,SDN, ,Belarus
CONCERN BELNEFTEKHIM,73 Dzerzhinskogo Avenue,Entity,BELARUS,SDN, ,Belarus
BELARUSIAN STATE PETROLEUM AND CHEMICALS CONCERN,73 Dzerzhinskogo Avenue,Entity,BELARUS,SDN, ,Belarus
BELARUSIAN STATE CONCERN FOR OIL AND CHEMISTRY,73 Dzerzhinskogo Avenue,Entity,BELARUS,SDN, ,Belarus
POLOTSK STEKLOVOLOKNO OAO,"Industrial Zone Ksty, Vitebsk Region",Entity,BELARUS,SDN, ,Belarus
POLOTZK STEKLOVOLOKNO OAO,"Industrial Zone Ksty, Vitebsk Region",Entity,BELARUS,SDN, ,Belarus
STEKLOVOLOKNO,"Industrial Zone Ksty, Vitebsk Region",Entity,BELARUS,SDN, ,Belarus
POLOTSKOE STEKLOVOLOKNO OAO,"Industrial Zone Ksty, Vitebsk Region",Entity,BELARUS,SDN, ,Belarus
POLOTSK-STEKLOVOLOKNO OPEN JOINT-STOCK COMPANY,"Industrial Zone Ksty, Vitebsk Region",Entity,BELARUS,SDN, ,Belarus
POLOTSK-STEKLOVOLOKNO,"Industrial Zone Ksty, Vitebsk Region",Entity,BELARUS,SDN, ,Belarus
POLOTSK-STEKLOVOLOKNO JSC SD STEKLOKOMPOZIT,"Industrial Zone Ksty, Vitebsk Region",Entity,BELARUS,SDN, ,Belarus
POLOTSK-STEKLOVOLOKNO JSC,"Industrial Zone Ksty, Vitebsk Region",Entity,BELARUS,SDN, ,Belarus
POLOTSK PRODUCTION ASSOCIATION STEKLOVOLOKNO,"Industrial Zone Ksty, Vitebsk Region",Entity,BELARUS,SDN, ,Belarus
LAKOKRASKA OAO,"71 Ignatova Street, Grodnenskaya Region",Entity,BELARUS,SDN, ,Belarus
LAKOKRASKA OPEN JOINT-STOCK COMPANY,"71 Ignatova Street, Grodnenskaya Region",Entity,BELARUS,SDN, ,Belarus
BELARUSIAN OIL TRADE HOUSE,"Prospect Dzerzhinskogo, 73",Entity,BELARUS,SDN, ,Belarus
UE BELARUSIAN OIL TRADE HOUSE,"Prospect Dzerzhinskogo, 73",Entity,BELARUS,SDN, ,Belarus
BELARUSIAN OIL TRADING HOUSE,"Prospect Dzerzhinskogo, 73",Entity,BELARUS,SDN, ,Belarus
B.O.T.H.,"Prospect Dzerzhinskogo, 73",Entity,BELARUS,SDN, ,Belarus
BELARUSIAN OIL TRADING HOUSE REPUBLICAN UNITARY SUBSIDIARY,"Prospect Dzerzhinskogo, 73",Entity,BELARUS,SDN, ,Belarus
BELARUSIAN OIL TRADING HOUSE REPUBLICAN SUBSIDIARY UNITARY ENTERPRISE,"Prospect Dzerzhinskogo, 73",Entity,BELARUS,SDN, ,Belarus
UNITED TRADING SITE,"Prospect Dzerzhinskogo, 73",Entity,BELARUS,SDN, ,Belarus
WWW.BNTDTORG.BY,"Prospect Dzerzhinskogo, 73",Entity,BELARUS,SDN, ,Belarus
WWW.BNTD.BY,"Prospect Dzerzhinskogo, 73",Entity,BELARUS,SDN, ,Belarus
ONERBANK ZAO,Ulitsa Klary Tsetkin 51,Entity,IRAN,SDN, ,Belarus
ONER-BANK,Ulitsa Klary Tsetkin 51,Entity,IRAN,SDN, ,Belarus
HONORBANK,Ulitsa Klary Tsetkin 51,Entity,IRAN,SDN, ,Belarus
ONERBANK,Ulitsa Klary Tsetkin 51,Entity,IRAN,SDN, ,Belarus
EFTEKHAR BANK,Ulitsa Klary Tsetkin 51,Entity,IRAN,SDN, ,Belarus
HONORBANK ZAO,Ulitsa Klary Tsetkin 51,Entity,IRAN,SDN, ,Belarus
HONOR BANK,Ulitsa Klary Tsetkin 51,Entity,IRAN,SDN, ,Belarus
ONER BANK,Ulitsa Klary Tsetkin 51,Entity,IRAN,SDN, ,Belarus
NAFTAN OAO,"Industrial Area, Novopolotsk-1, 211440",Entity,BELARUS,SDN, ,Belarus
NAFTAN OJSC,"Industrial Area, Novopolotsk-1, 211440",Entity,BELARUS,SDN, ,Belarus
NAFTAN,"Industrial Area, Novopolotsk-1, 211440",Entity,BELARUS,SDN, ,Belarus
NAFTAN PROIZVODSTVENNOYE OBYEDINENYE,"Industrial Area, Novopolotsk-1, 211440",Entity,BELARUS,SDN, ,Belarus
NAFTAN PRODUCTION ASSOCIATION,"Industrial Area, Novopolotsk-1, 211440",Entity,BELARUS,SDN, ,Belarus
GRODNO AZOT OAO,"Prospekt Kosmanovtov 100, 230013",Entity,BELARUS,SDN, ,Belarus
GRODNO AZOT,"Prospekt Kosmanovtov 100, 230013",Entity,BELARUS,SDN, ,Belarus
GPO AZOT OJSC,"Prospekt Kosmanovtov 100, 230013",Entity,BELARUS,SDN, ,Belarus
GRODNESKOYE PROZVODSTVENNOYE OBYEDINENYE AZOT,"Prospekt Kosmanovtov 100, 230013",Entity,BELARUS,SDN, ,Belarus
RUP GRODNENSKOYE PO AZOT,"Prospekt Kosmanovtov 100, 230013",Entity,BELARUS,SDN, ,Belarus
RUP GPO AZOT,"Prospekt Kosmanovtov 100, 230013",Entity,BELARUS,SDN, ,Belarus
GRODNO KHIMVOLOKNO OAO,"4 Slavinskogo Street, 230026",Entity,BELARUS,SDN, ,Belarus
JSC GRODNO KHIMVOLOKNO,"4 Slavinskogo Street, 230026",Entity,BELARUS,SDN, ,Belarus
GRODNO KHIMVOLOKNO JSC,"4 Slavinskogo Street, 230026",Entity,BELARUS,SDN, ,Belarus
GRODNO CHEMICAL FIBRE OJSC,"4 Slavinskogo Street, 230026",Entity,BELARUS,SDN, ,Belarus
BELSHINA OAO,Minsk Highway,Entity,BELARUS,SDN, ,Belarus
BELSHINA OJSC,Minsk Highway,Entity,BELARUS,SDN, ,Belarus
BELSHINA TYRE WORKS OAO,Minsk Highway,Entity,BELARUS,SDN, ,Belarus
JSC BELSHINA,Minsk Highway,Entity,BELARUS,SDN, ,Belarus
RUP BELORUSSKY SHINNY KOMBINAT BELSHINA,Minsk Highway,Entity,BELARUS,SDN, ,Belarus
BELVNESHPROMSERVICE,2 Kazinets Street,Entity,"IFSR, NPWMD",SDN, ,Belarus
UKRAINIAN-MEDITERRANEAN AIRLINES,7 Shulyavska Street,Entity,"IFSR, SDGT",SDN, ,Belarus
UM AIR,7 Shulyavska Street,Entity,"IFSR, SDGT",SDN, ,Belarus
UKRAINSKE-TSCHERMOMORSKIE AVIALINII,7 Shulyavska Street,Entity,"IFSR, SDGT",SDN, ,Belarus
