Marco Marino DIODATO DEL GALLO, ,Individual,SDNTK,SDN, ,Bolivia
RENATO, ,Individual,SDNTK,SDN, ,Bolivia
S.A. GRUPO WISA,"Calle 15 entre Avenida Santa Isabel y Avenida Roosevelt, Zona Libre de Colon",Entity,SDNTK,SDN, ,Bolivia
LA RIVIERA,"Calle 15 entre Avenida Santa Isabel y Avenida Roosevelt, Zona Libre de Colon",Entity,SDNTK,SDN, ,Bolivia
