REVIVAL OF ISLAMIC HERITAGE SOCIETY,"Part 5, Qurtaba, P.O. Box 5585",Entity,SDGT,SDN, ,Ghana
RIHS PRINCIPLE COMMITTEE FOR THE CENTER FOR PRESERVATION OF THE HOLY QU'ARAN,"Part 5, Qurtaba, P.O. Box 5585",Entity,SDGT,SDN, ,Ghana
RIHS,"Part 5, Qurtaba, P.O. Box 5585",Entity,SDGT,SDN, ,Ghana
RIHS HEADQUARTERS-KUWAIT,"Part 5, Qurtaba, P.O. Box 5585",Entity,SDGT,SDN, ,Ghana
REVIVAL OF ISLAMIC HERITAGE FOUNDATION,"Part 5, Qurtaba, P.O. Box 5585",Entity,SDGT,SDN, ,Ghana
RIHF,"Part 5, Qurtaba, P.O. Box 5585",Entity,SDGT,SDN, ,Ghana
SOCIETY FOR THE REVIVAL OF ISLAMIC HERITAGE,"Part 5, Qurtaba, P.O. Box 5585",Entity,SDGT,SDN, ,Ghana
ISLAMIC HERITAGE REVIVAL PARTY,"Part 5, Qurtaba, P.O. Box 5585",Entity,SDGT,SDN, ,Ghana
ISLAMIC HERITAGE RESTORATION SOCIETY,"Part 5, Qurtaba, P.O. Box 5585",Entity,SDGT,SDN, ,Ghana
IHRS,"Part 5, Qurtaba, P.O. Box 5585",Entity,SDGT,SDN, ,Ghana
KUWAITI HERITAGE,"Part 5, Qurtaba, P.O. Box 5585",Entity,SDGT,SDN, ,Ghana
IHYA TURAS AL-ISLAMI,"Part 5, Qurtaba, P.O. Box 5585",Entity,SDGT,SDN, ,Ghana
IJHA TURATH  AL-ISLAMI,"Part 5, Qurtaba, P.O. Box 5585",Entity,SDGT,SDN, ,Ghana
JAMIA IHYA UL TURATH,"Part 5, Qurtaba, P.O. Box 5585",Entity,SDGT,SDN, ,Ghana
JAMIAT IHIA AL-TURATH AL-ISLAMIYA,"Part 5, Qurtaba, P.O. Box 5585",Entity,SDGT,SDN, ,Ghana
JAM'IYAT IHYA' AL-TURATH AL-ISLAMI,"Part 5, Qurtaba, P.O. Box 5585",Entity,SDGT,SDN, ,Ghana
JAMI'AT IHY'A AL-TIRATH AL-ISLAMIA,"Part 5, Qurtaba, P.O. Box 5585",Entity,SDGT,SDN, ,Ghana
JAMIATUL IHYA UL TURATH,"Part 5, Qurtaba, P.O. Box 5585",Entity,SDGT,SDN, ,Ghana
SOCIETY OF THE REBIRTH OF THE ISLAMIC PEOPLE JAMIYAT IKHYA AT-TURAZ AL-ISLAMI,"Part 5, Qurtaba, P.O. Box 5585",Entity,SDGT,SDN, ,Ghana
JAMIATUL-YAHYA UT TURAZ,"Part 5, Qurtaba, P.O. Box 5585",Entity,SDGT,SDN, ,Ghana
JOMIATUL EHYA-UT TURAJ,"Part 5, Qurtaba, P.O. Box 5585",Entity,SDGT,SDN, ,Ghana
JOMIYATU-EHYA-UT TURAS AL ISLAMI,"Part 5, Qurtaba, P.O. Box 5585",Entity,SDGT,SDN, ,Ghana
JAMA'AH IHYA AL-TURAZ AL-ISLAMI,"Part 5, Qurtaba, P.O. Box 5585",Entity,SDGT,SDN, ,Ghana
JAMI'AH AL-HIYA AL-TURATH AL ISLAMIYAH,"Part 5, Qurtaba, P.O. Box 5585",Entity,SDGT,SDN, ,Ghana
LAJNAT IHYA AL-TURATH AL-ISLAMI,"Part 5, Qurtaba, P.O. Box 5585",Entity,SDGT,SDN, ,Ghana
LAJNAT AL-IHYA AL-TURATH AL-ISLAMI,"Part 5, Qurtaba, P.O. Box 5585",Entity,SDGT,SDN, ,Ghana
RIHS ADMINISTRATION FOR THE BUILDING OF MOSQUES AND ISLAMIC PROJECTS,"Part 5, Qurtaba, P.O. Box 5585",Entity,SDGT,SDN, ,Ghana
RIHS MOSQUES COMMITTEE,"Part 5, Qurtaba, P.O. Box 5585",Entity,SDGT,SDN, ,Ghana
ADMINISTRATION OF THE REVIVAL OF ISLAMIC HERITAGE SOCIETY COMMITTEE,"Part 5, Qurtaba, P.O. Box 5585",Entity,SDGT,SDN, ,Ghana
RIHS ARAB WORLD COMMITTEE,"Part 5, Qurtaba, P.O. Box 5585",Entity,SDGT,SDN, ,Ghana
RIHS COMMITTEE FOR THE ARAB WORLD,"Part 5, Qurtaba, P.O. Box 5585",Entity,SDGT,SDN, ,Ghana
RIHS COMMITTEE FOR WEST ASIA,"Part 5, Qurtaba, P.O. Box 5585",Entity,SDGT,SDN, ,Ghana
RIHS CENTRAL ASIA COMMITTEE,"Part 5, Qurtaba, P.O. Box 5585",Entity,SDGT,SDN, ,Ghana
COMMITTEE FOR EUROPE AND THE AMERICAS,"Part 5, Qurtaba, P.O. Box 5585",Entity,SDGT,SDN, ,Ghana
RIHS EUROPE AND THE AMERICAS COMMITTEE,"Part 5, Qurtaba, P.O. Box 5585",Entity,SDGT,SDN, ,Ghana
RIHS TWO AMERICAS AND EUROPEAN MUSLIM COMMITTEE,"Part 5, Qurtaba, P.O. Box 5585",Entity,SDGT,SDN, ,Ghana
RIHS EUROPE AMERICA MUSLIMS COMMITTEE,"Part 5, Qurtaba, P.O. Box 5585",Entity,SDGT,SDN, ,Ghana
RIHS SOUTHEAST ASIA COMMITTEE,"Part 5, Qurtaba, P.O. Box 5585",Entity,SDGT,SDN, ,Ghana
RIHS COMMITTEE FOR SOUTH EAST ASIA,"Part 5, Qurtaba, P.O. Box 5585",Entity,SDGT,SDN, ,Ghana
RIHS INDIAN CONTINENT COMMITTEE,"Part 5, Qurtaba, P.O. Box 5585",Entity,SDGT,SDN, ,Ghana
RIHS INDIAN SUBCONTINENT COMMITTEE,"Part 5, Qurtaba, P.O. Box 5585",Entity,SDGT,SDN, ,Ghana
RIHS COMMITTEE FOR INDIA,"Part 5, Qurtaba, P.O. Box 5585",Entity,SDGT,SDN, ,Ghana
RIHS AFRICAN CONTINENT COMMITTEE,"Part 5, Qurtaba, P.O. Box 5585",Entity,SDGT,SDN, ,Ghana
REVIVAL OF ISLAMIC SOCIETY HERITAGE ON THE AFRICAN CONTINENT,"Part 5, Qurtaba, P.O. Box 5585",Entity,SDGT,SDN, ,Ghana
RIHS PUBLIC RELATIONS COMMITTEE,"Part 5, Qurtaba, P.O. Box 5585",Entity,SDGT,SDN, ,Ghana
RIHS CULTURAL COMMITTEE,"Part 5, Qurtaba, P.O. Box 5585",Entity,SDGT,SDN, ,Ghana
RIHS GENERAL COMMITTEE FOR DONATIONS,"Part 5, Qurtaba, P.O. Box 5585",Entity,SDGT,SDN, ,Ghana
RIHS YOUTH CENTER COMMITTEE,"Part 5, Qurtaba, P.O. Box 5585",Entity,SDGT,SDN, ,Ghana
RIHS SCIENTIFIC COMMITTEE-BRANCH OF SABAH AL-NASIR,"Part 5, Qurtaba, P.O. Box 5585",Entity,SDGT,SDN, ,Ghana
RIHS FATWAS COMMITTEE,"Part 5, Qurtaba, P.O. Box 5585",Entity,SDGT,SDN, ,Ghana
RIHS CENTER FOR MANUSCRIPTS COMMITTEE,"Part 5, Qurtaba, P.O. Box 5585",Entity,SDGT,SDN, ,Ghana
AL-JAHRA' RIHS EDUCATING COMMITTEES,"Part 5, Qurtaba, P.O. Box 5585",Entity,SDGT,SDN, ,Ghana
RIHS AUDIO RECORDINGS COMMITTEE,"Part 5, Qurtaba, P.O. Box 5585",Entity,SDGT,SDN, ,Ghana
RIHS PROJECT OF ASSIGNING PREACHERS COMMITTEE,"Part 5, Qurtaba, P.O. Box 5585",Entity,SDGT,SDN, ,Ghana
RIHS OFFICE OF PRINTING AND PUBLISHING,"Part 5, Qurtaba, P.O. Box 5585",Entity,SDGT,SDN, ,Ghana
RIHS COMMITTEE FOR WOMEN,"Part 5, Qurtaba, P.O. Box 5585",Entity,SDGT,SDN, ,Ghana
ADMINISTRATION FOR THE BUILDING OF MOSQUES RIHS COMMITTEE FOR WOMEN,"Part 5, Qurtaba, P.O. Box 5585",Entity,SDGT,SDN, ,Ghana
RIHS ADMINISTRATION FOR THE COMMITTEES OF ALMSGIVING,"Part 5, Qurtaba, P.O. Box 5585",Entity,SDGT,SDN, ,Ghana
RIHS WOMEN'S BRANCH FOR THE PROJECT OF ENDOWMENT,"Part 5, Qurtaba, P.O. Box 5585",Entity,SDGT,SDN, ,Ghana
RIHS COMMITTEE FOR ALMSGIVING AND CHARITIES,"Part 5, Qurtaba, P.O. Box 5585",Entity,SDGT,SDN, ,Ghana
RIHS COMMITTEE FOR THE CALL AND GUIDANCE,"Part 5, Qurtaba, P.O. Box 5585",Entity,SDGT,SDN, ,Ghana
RIHS-CAMBODIA,"Part 5, Qurtaba, P.O. Box 5585",Entity,SDGT,SDN, ,Ghana
THE KUWAITI-CAMBODIAN ORPHANAGE CENTER,"Part 5, Qurtaba, P.O. Box 5585",Entity,SDGT,SDN, ,Ghana
RIHS CAMBODIA-KUWAIT ORPHANAGE CENTER,"Part 5, Qurtaba, P.O. Box 5585",Entity,SDGT,SDN, ,Ghana
RIHS CHAOM CHAU CENTER,"Part 5, Qurtaba, P.O. Box 5585",Entity,SDGT,SDN, ,Ghana
THE KUWAIT-CAMBODIA ISLAMIC CULTURAL TRAINING CENTER,"Part 5, Qurtaba, P.O. Box 5585",Entity,SDGT,SDN, ,Ghana
NARA WELFARE AND EDUCATION ASSOCIATION,"Part 5, Qurtaba, P.O. Box 5585",Entity,SDGT,SDN, ,Ghana
RIHS-BOSNIA AND HERZEGOVINA,"Part 5, Qurtaba, P.O. Box 5585",Entity,SDGT,SDN, ,Ghana
BOSNIA AND HERZEGOVINA KUWAITI JOINT RELIEF COMMITTEE,"Part 5, Qurtaba, P.O. Box 5585",Entity,SDGT,SDN, ,Ghana
KJRC-BOSNIA AND HERZEGOVINA,"Part 5, Qurtaba, P.O. Box 5585",Entity,SDGT,SDN, ,Ghana
BOSNIA AND HERZEGOVINA PLANDISTE SCHOOL,"Part 5, Qurtaba, P.O. Box 5585",Entity,SDGT,SDN, ,Ghana
ORGANIZACIJA PREPORODA ISLAMSKE TRADICIJE KUVAJT,"Part 5, Qurtaba, P.O. Box 5585",Entity,SDGT,SDN, ,Ghana
KUWAIT GENERAL COMMITTEE FOR AID,"Part 5, Qurtaba, P.O. Box 5585",Entity,SDGT,SDN, ,Ghana
GENERAL KUWAIT COMMITTEE,"Part 5, Qurtaba, P.O. Box 5585",Entity,SDGT,SDN, ,Ghana
RIHS-ALBANIA,"Part 5, Qurtaba, P.O. Box 5585",Entity,SDGT,SDN, ,Ghana
CENTER OF CALL FOR WISDOM,"Part 5, Qurtaba, P.O. Box 5585",Entity,SDGT,SDN, ,Ghana
CCFW,"Part 5, Qurtaba, P.O. Box 5585",Entity,SDGT,SDN, ,Ghana
THIRRJA PER UTESI,"Part 5, Qurtaba, P.O. Box 5585",Entity,SDGT,SDN, ,Ghana
NGO TURATH,"Part 5, Qurtaba, P.O. Box 5585",Entity,SDGT,SDN, ,Ghana
RIHS-KOSOVO,"Part 5, Qurtaba, P.O. Box 5585",Entity,SDGT,SDN, ,Ghana
DORA E MIRESISE,"Part 5, Qurtaba, P.O. Box 5585",Entity,SDGT,SDN, ,Ghana
HAND OF MERCY,"Part 5, Qurtaba, P.O. Box 5585",Entity,SDGT,SDN, ,Ghana
RIHS-AZERBAIJAN,"Part 5, Qurtaba, P.O. Box 5585",Entity,SDGT,SDN, ,Ghana
RIHS-RUSSIA,"Part 5, Qurtaba, P.O. Box 5585",Entity,SDGT,SDN, ,Ghana
RIHS-LEBANON,"Part 5, Qurtaba, P.O. Box 5585",Entity,SDGT,SDN, ,Ghana
RIHS-BANGLADESH,"Part 5, Qurtaba, P.O. Box 5585",Entity,SDGT,SDN, ,Ghana
RIHS-SOMALIA,"Part 5, Qurtaba, P.O. Box 5585",Entity,SDGT,SDN, ,Ghana
RIHS-GHANA,"Part 5, Qurtaba, P.O. Box 5585",Entity,SDGT,SDN, ,Ghana
RIHS-TANZANIA,"Part 5, Qurtaba, P.O. Box 5585",Entity,SDGT,SDN, ,Ghana
RIHS-BENIN,"Part 5, Qurtaba, P.O. Box 5585",Entity,SDGT,SDN, ,Ghana
RIHS-CAMEROON,"Part 5, Qurtaba, P.O. Box 5585",Entity,SDGT,SDN, ,Ghana
RIHS-SENEGAL,"Part 5, Qurtaba, P.O. Box 5585",Entity,SDGT,SDN, ,Ghana
RIHS-NIGERIA,"Part 5, Qurtaba, P.O. Box 5585",Entity,SDGT,SDN, ,Ghana
RIHS-LIBERIA,"Part 5, Qurtaba, P.O. Box 5585",Entity,SDGT,SDN, ,Ghana
RIHS-IVORY COAST,"Part 5, Qurtaba, P.O. Box 5585",Entity,SDGT,SDN, ,Ghana
RIHS COMMITTEE FOR AFRICA,"Part 5, Qurtaba, P.O. Box 5585",Entity,SDGT,SDN, ,Ghana
STAR TRADE GHANA LIMITED,"Enyado HSE, TemaHarbour, (0537N 00001W)",Entity,SDGT,SDN, ,Ghana
