Henry GUBEREK GRIMBERG, ,Individual,SDNTK,SDN, ,Israel
Henry GUBEREX GRIMBERG, ,Individual,SDNTK,SDN, ,Israel
T.F.M.C. THE FOOD MANAGEMENT CORPORATION LTD,3 Ha'avoda Street,Entity,SDNTK,SDN, ,Israel
Yakov RYBALSKIY,Rashi 9/3,Individual,TCO,SDN, ,Israel
Yaakov RIBALSKY,Rashi 9/3,Individual,TCO,SDN, ,Israel
Yaakov RYBALSKY,Rashi 9/3,Individual,TCO,SDN, ,Israel
Yaakov RIBALSKI,Rashi 9/3,Individual,TCO,SDN, ,Israel
Yakov RIBALSKY,Rashi 9/3,Individual,TCO,SDN, ,Israel
Jacob RABALSKY,Rashi 9/3,Individual,TCO,SDN, ,Israel
Dan GERTLER,17 Daniel Street,Individual,GLOMAG,SDN, ,Israel
D.G.D. INVESTMENTS LTD.,23 Tuval,Entity,GLOMAG,SDN, ,Israel
DAN GERTLER DIAMONDS LTD.,23 Tuval,Entity,GLOMAG,SDN, ,Israel
D.G.I. ISRAEL LTD,23 Tuval,Entity,GLOMAG,SDN, ,Israel
PROGLAN CAPITAL LTD,23 Tuval,Entity,GLOMAG,SDN, ,Israel
HARAKAT AL-SABIREEN, ,Entity,SDGT,SDN, ,Israel
AL-SABIRIN, ,Entity,SDGT,SDN, ,Israel
AL-SABIREEN, ,Entity,SDGT,SDN, ,Israel
A-SABRIN ORGANIZATION, ,Entity,SDGT,SDN, ,Israel
AL-SABIREEN MOVEMENT FOR SUPPORTING PALESTINE, ,Entity,SDGT,SDN, ,Israel
AL-SABIREEN FOR THE VICTORY OF PALESTINE, ,Entity,SDGT,SDN, ,Israel
THE SABIREEN MOVEMENT, ,Entity,SDGT,SDN, ,Israel
HESN, ,Entity,SDGT,SDN, ,Israel
MOVEMENT OF THOSE WHO ENDURE WITH PATIENCE, ,Entity,SDGT,SDN, ,Israel
MOVEMENT OF THE PATIENT ONES, ,Entity,SDGT,SDN, ,Israel
ERPSCAN, ,Entity,CYBER2,SDN, ,Israel
EMBEDI, ,Entity,CYBER2,SDN, ,Israel
Israel ZIV,Haela 16,Individual,SOUTH SUDAN,SDN, ,Israel
Israel Baruch ZIV,Haela 16,Individual,SOUTH SUDAN,SDN, ,Israel
Israel Baruch ZILBERSTEIN,Haela 16,Individual,SOUTH SUDAN,SDN, ,Israel
Yisrael ZIV,Haela 16,Individual,SOUTH SUDAN,SDN, ,Israel
GLOBAL N.T.M LTD,"11 Granit Street, P.O. Box 3111",Entity,SOUTH SUDAN,SDN, ,Israel
CST GLOBAL,"11 Granit Street, P.O. Box 3111",Entity,SOUTH SUDAN,SDN, ,Israel
GLOBAL GROUP,"11 Granit Street, P.O. Box 3111",Entity,SOUTH SUDAN,SDN, ,Israel
GREEN HORIZON,"11 Granit Street, P.O. Box 3111",Entity,SOUTH SUDAN,SDN, ,Israel
GLOBAL CST,"11 Granit Street, P.O. Box 3111",Entity,SOUTH SUDAN,SDN, ,Israel
GLOBAL LAW ENFORCEMENT AND SECURITY LTD,2 Granit,Entity,SOUTH SUDAN,SDN, ,Israel
GLS,2 Granit,Entity,SOUTH SUDAN,SDN, ,Israel
GLOBAL IZ GROUP LTD,7 Metzada,Entity,SOUTH SUDAN,SDN, ,Israel
ZIV HG LTD,7 Metzada,Entity,SOUTH SUDAN,SDN, ,Israel
