ZHAO WEI TCO, ,Entity,TCO,SDN, ,Laos
ZHAO WEI NARCOTICS TRAFFICKING GROUP, ,Entity,TCO,SDN, ,Laos
KINGS ROMANS CASINO, ,Entity,TCO,SDN, ,Laos
KINGS ROMANS GROUP, ,Entity,TCO,SDN, ,Laos
Abbas EBERAHIM,43 Walana Cres,Individual,TCO,SDN, ,Laos
BASU,43 Walana Cres,Individual,TCO,SDN, ,Laos
