MOVEMENT FOR UNITY AND JIHAD IN WEST AFRICA, ,Entity,SDGT,SDN, ,Mali
MOVEMENT FOR ONENESS AND JIHAD IN WEST AFRICA, ,Entity,SDGT,SDN, ,Mali
UNITY MOVEMENT FOR JIHAD IN WEST AFRICA, ,Entity,SDGT,SDN, ,Mali
JAMAT TAWHID WAL JIHAD FI GARBI AFRIQQIYA, ,Entity,SDGT,SDN, ,Mali
MUJWA, ,Entity,SDGT,SDN, ,Mali
MUJAO, ,Entity,SDGT,SDN, ,Mali
TWJWA, ,Entity,SDGT,SDN, ,Mali
TAWHID WAL JIHAD IN WEST AFRICA, ,Entity,SDGT,SDN, ,Mali
Ahmed EL TILEMSI, ,Individual,SDGT,SDN, ,Mali
Ahmed TILEMSI, ,Individual,SDGT,SDN, ,Mali
Abderrahmane Ould EL AMAR, ,Individual,SDGT,SDN, ,Mali
Abderrahmane TOUDJI, ,Individual,SDGT,SDN, ,Mali
Abderrahmane Ouid AMEUR, ,Individual,SDGT,SDN, ,Mali
Ahmed TELEMSI, ,Individual,SDGT,SDN, ,Mali
Mohamed LAHBOUS, ,Individual,SDGT,SDN, ,Mali
Mohamed ENNOUINI, ,Individual,SDGT,SDN, ,Mali
AL-MULATHAMUN BATTALION, ,Entity,"FTO, SDGT",SDN, ,Mali
AL-MULATHAMUN BRIGADE, ,Entity,"FTO, SDGT",SDN, ,Mali
AL-MUWAQQI'UN BIL-DIMA, ,Entity,"FTO, SDGT",SDN, ,Mali
THOSE SIGNED IN BLOOD BATTALION, ,Entity,"FTO, SDGT",SDN, ,Mali
SIGNATORIES IN BLOOD, ,Entity,"FTO, SDGT",SDN, ,Mali
THOSE WHO SIGN IN BLOOD, ,Entity,"FTO, SDGT",SDN, ,Mali
WITNESSES IN BLOOD, ,Entity,"FTO, SDGT",SDN, ,Mali
SIGNED-IN-BLOOD BATTALION, ,Entity,"FTO, SDGT",SDN, ,Mali
MASKED MEN BRIGADE, ,Entity,"FTO, SDGT",SDN, ,Mali
KHALED ABU AL-ABBAS BRIGADE, ,Entity,"FTO, SDGT",SDN, ,Mali
AL-MULATHAMUN MASKED ONES BRIGADE, ,Entity,"FTO, SDGT",SDN, ,Mali
AL-MURABITOUN, ,Entity,"FTO, SDGT",SDN, ,Mali
THE SENTINELS, ,Entity,"FTO, SDGT",SDN, ,Mali
ANSARUL ISLAM, ,Entity,SDGT,SDN, ,Mali
ANSAROUR ISLAM, ,Entity,SDGT,SDN, ,Mali
ANSAR AL-ISLAM, ,Entity,SDGT,SDN, ,Mali
DEFENDERS OF ISLAM, ,Entity,SDGT,SDN, ,Mali
ANSAR-UL-ISLAM LIL-ICHAD WAL JIHAD, ,Entity,SDGT,SDN, ,Mali
IRSAD, ,Entity,SDGT,SDN, ,Mali
ANSAR UL ISLAM OF MALAM BOUREIMA DICKO, ,Entity,SDGT,SDN, ,Mali
ISIS IN THE GREATER SAHARA, ,Entity,SDGT,SDN, ,Mali
ISLAMIC STATE IN THE GREATER SAHARA, ,Entity,SDGT,SDN, ,Mali
ISLAMIC STATE OF THE GREATER SAHEL, ,Entity,SDGT,SDN, ,Mali
ISIS IN THE GREATER SAHEL, ,Entity,SDGT,SDN, ,Mali
ISIS IN THE ISLAMIC SAHEL, ,Entity,SDGT,SDN, ,Mali
ISIS-GS, ,Entity,SDGT,SDN, ,Mali
ISGS, ,Entity,SDGT,SDN, ,Mali
Adnan Abu Walid AL-SAHRAWI, ,Individual,SDGT,SDN, ,Mali
Abu Walid AL SAHRAWI, ,Individual,SDGT,SDN, ,Mali
Adnan Abu Walid AL-SAHRAOUI, ,Individual,SDGT,SDN, ,Mali
Adnan Abu Waleed AL-SAHRAWI, ,Individual,SDGT,SDN, ,Mali
Lehbib Ould Ali Ould Said Ould JOUMANI, ,Individual,SDGT,SDN, ,Mali
