Mohamed Bachir SULEMAN,c/o GRUPO MBS LIMITADA,Individual,SDNTK,SDN, ,Mozambique
Momade Bachir SULEMAN,c/o GRUPO MBS LIMITADA,Individual,SDNTK,SDN, ,Mozambique
Mohamed Bachir SULEMANE,c/o GRUPO MBS LIMITADA,Individual,SDNTK,SDN, ,Mozambique
Momad Bachir SULEIMAN,c/o GRUPO MBS LIMITADA,Individual,SDNTK,SDN, ,Mozambique
GRUPO MBS LIMITADA,Avenida Karl Marx 1464/82,Entity,SDNTK,SDN, ,Mozambique
GRUPO MBS LDA,Avenida Karl Marx 1464/82,Entity,SDNTK,SDN, ,Mozambique
GRUPO MBS - KAYUM CENTRE,Avenida Karl Marx 1464/82,Entity,SDNTK,SDN, ,Mozambique
MAPUTO SHOPPING CENTRE,Rua Marques de Pombal 85,Entity,SDNTK,SDN, ,Mozambique
