Ali Abbas Usman JEGA,"6B Nouakchott Street, Wuse Zone 1",Individual,"IFSR, SDGT",SDN, ,Nigeria
Abbas JEGA,"6B Nouakchott Street, Wuse Zone 1",Individual,"IFSR, SDGT",SDN, ,Nigeria
Ali Abbas Othman HASSAN,"6B Nouakchott Street, Wuse Zone 1",Individual,"IFSR, SDGT",SDN, ,Nigeria
Abubakar SHEKAU, ,Individual,SDGT,SDN, ,Nigeria
Abu Mohammed Abubakar BIN MOHAMMED, ,Individual,SDGT,SDN, ,Nigeria
SHEKAU, ,Individual,SDGT,SDN, ,Nigeria
Abu Muhammed Abubakar BI MUHAMMED, ,Individual,SDGT,SDN, ,Nigeria
SHEHU, ,Individual,SDGT,SDN, ,Nigeria
SHAYKU, ,Individual,SDGT,SDN, ,Nigeria
Abubakar Adam KAMBAR, ,Individual,SDGT,SDN, ,Nigeria
Abu YASIR, ,Individual,SDGT,SDN, ,Nigeria
Abubakar KAMBAR, ,Individual,SDGT,SDN, ,Nigeria
Abu Yasir KAMBAR, ,Individual,SDGT,SDN, ,Nigeria
Khalid AL-BARNAWI, ,Individual,SDGT,SDN, ,Nigeria
Khalid BARNAWI, ,Individual,SDGT,SDN, ,Nigeria
Khaled AL-BARNAWI, ,Individual,SDGT,SDN, ,Nigeria
Khaled EL-BARNAOUI, ,Individual,SDGT,SDN, ,Nigeria
Abu HAFSAT, ,Individual,SDGT,SDN, ,Nigeria
Mohammed USMAN, ,Individual,SDGT,SDN, ,Nigeria
BOKO HARAM, ,Entity,"FTO, SDGT",SDN, ,Nigeria
NIGERIAN TALIBAN, ,Entity,"FTO, SDGT",SDN, ,Nigeria
JAMA'ATU AHLUS-SUNNAH LIDDA'AWATI WAL JIHAD, ,Entity,"FTO, SDGT",SDN, ,Nigeria
JAMA'ATU AHLIS SUNNA LIDDA'AWATI WAL-JIHAD, ,Entity,"FTO, SDGT",SDN, ,Nigeria
PEOPLE COMMITTED TO THE PROPHET'S TEACHINGS FOR PROPAGATION AND JIHAD, ,Entity,"FTO, SDGT",SDN, ,Nigeria
SUNNI GROUP FOR PREACHING AND JIHAD, ,Entity,"FTO, SDGT",SDN, ,Nigeria
ANSARU, ,Entity,"FTO, SDGT",SDN, ,Nigeria
JAMA'ATU ANSARUL MUSLIMINA FI BILADIS-SUDAN, ,Entity,"FTO, SDGT",SDN, ,Nigeria
ANSARUL MUSLIMINA FI BILADIS SUDAN, ,Entity,"FTO, SDGT",SDN, ,Nigeria
VANGUARDS FOR THE PROTECTION OF MUSLIMS IN BLACK AFRICA, ,Entity,"FTO, SDGT",SDN, ,Nigeria
JAMBS, ,Entity,"FTO, SDGT",SDN, ,Nigeria
JAMA'ATU ANSARIL MUSLIMINA FI BILADIS SUDAN, ,Entity,"FTO, SDGT",SDN, ,Nigeria
Mustapha Reda Darwish FAWAZ,"Flat 4, Blantyre Street, Behind Amigo Supermarket, Wuse II",Individual,SDGT,SDN, ,Nigeria
Mustafa FAWWAZ,"Flat 4, Blantyre Street, Behind Amigo Supermarket, Wuse II",Individual,SDGT,SDN, ,Nigeria
Moustafa Reda DARWISH-FAWAZ,"Flat 4, Blantyre Street, Behind Amigo Supermarket, Wuse II",Individual,SDGT,SDN, ,Nigeria
Mustapha FAWAZ,"Flat 4, Blantyre Street, Behind Amigo Supermarket, Wuse II",Individual,SDGT,SDN, ,Nigeria
Mustapha Rida Darwich FAWAZ,"Flat 4, Blantyre Street, Behind Amigo Supermarket, Wuse II",Individual,SDGT,SDN, ,Nigeria
Mostafa Reda Darwich FAWAZ,"Flat 4, Blantyre Street, Behind Amigo Supermarket, Wuse II",Individual,SDGT,SDN, ,Nigeria
Moustapha FAWAZ,"Flat 4, Blantyre Street, Behind Amigo Supermarket, Wuse II",Individual,SDGT,SDN, ,Nigeria
Mustafa FAWAZ,"Flat 4, Blantyre Street, Behind Amigo Supermarket, Wuse II",Individual,SDGT,SDN, ,Nigeria
Mustafa Darwish FAWAZ,"Flat 4, Blantyre Street, Behind Amigo Supermarket, Wuse II",Individual,SDGT,SDN, ,Nigeria
Mustapha Rhoda Darwich FAWAZ,"Flat 4, Blantyre Street, Behind Amigo Supermarket, Wuse II",Individual,SDGT,SDN, ,Nigeria
AMIGO SUPERMARKET LIMITED,"1023, Adetokunbo Ademola Crescent, Wuse II",Entity,SDGT,SDN, ,Nigeria
AMIGO SUPERMARKET,"1023, Adetokunbo Ademola Crescent, Wuse II",Entity,SDGT,SDN, ,Nigeria
WONDERLAND AMUSEMENT PARK AND RESORT LTD,"B1 Kukbawa, Opposite National Stadium",Entity,SDGT,SDN, ,Nigeria
WONDERLAND AMUSEMENT PARK,"B1 Kukbawa, Opposite National Stadium",Entity,SDGT,SDN, ,Nigeria
KAFAK ENTERPRISES LIMITED,"88B, T/Balewa Road",Entity,SDGT,SDN, ,Nigeria
ISIS-WEST AFRICA, ,Entity,"FTO, SDGT",SDN, ,Nigeria
ISIS-WA, ,Entity,"FTO, SDGT",SDN, ,Nigeria
ISIS WEST AFRICA, ,Entity,"FTO, SDGT",SDN, ,Nigeria
ISIS WEST AFRICA PROVINCE, ,Entity,"FTO, SDGT",SDN, ,Nigeria
ISLAMIC STATE OF IRAQ AND SYRIA WEST AFRICA PROVINCE, ,Entity,"FTO, SDGT",SDN, ,Nigeria
ISLAMIC STATE OF IRAQ AND THE LEVANT-WEST AFRICA, ,Entity,"FTO, SDGT",SDN, ,Nigeria
ISIL-WA, ,Entity,"FTO, SDGT",SDN, ,Nigeria
ISLAMIC STATE WEST AFRICA PROVINCE, ,Entity,"FTO, SDGT",SDN, ,Nigeria
ISISWAP, ,Entity,"FTO, SDGT",SDN, ,Nigeria
Abu Musab AL-BARNAWI, ,Individual,SDGT,SDN, ,Nigeria
Habib YUSUF, ,Individual,SDGT,SDN, ,Nigeria
