MAKHTAB AL-KHIDAMAT/AL KIFAH,"House no. 125, Street 54, Phase II, Hayatabad",Entity,SDGT,SDN, ,Pakistan
AL RASHID TRUST,"Kitab Ghar, 4 Dar-el-Iftah, Nazimabad",Entity,SDGT,SDN, ,Pakistan
AL RASHEED TRUST,"Kitab Ghar, 4 Dar-el-Iftah, Nazimabad",Entity,SDGT,SDN, ,Pakistan
AL-RASHID TRUST,"Kitab Ghar, 4 Dar-el-Iftah, Nazimabad",Entity,SDGT,SDN, ,Pakistan
AL-RASHEED TRUST,"Kitab Ghar, 4 Dar-el-Iftah, Nazimabad",Entity,SDGT,SDN, ,Pakistan
AL AMIN WELFARE TRUST,"Kitab Ghar, 4 Dar-el-Iftah, Nazimabad",Entity,SDGT,SDN, ,Pakistan
AL AMIN TRUST,"Kitab Ghar, 4 Dar-el-Iftah, Nazimabad",Entity,SDGT,SDN, ,Pakistan
AL AMEEN TRUST,"Kitab Ghar, 4 Dar-el-Iftah, Nazimabad",Entity,SDGT,SDN, ,Pakistan
AL-AMEEN TRUST,"Kitab Ghar, 4 Dar-el-Iftah, Nazimabad",Entity,SDGT,SDN, ,Pakistan
AL MADINA TRUST,"Kitab Ghar, 4 Dar-el-Iftah, Nazimabad",Entity,SDGT,SDN, ,Pakistan
AL-MADINA TRUST,"Kitab Ghar, 4 Dar-el-Iftah, Nazimabad",Entity,SDGT,SDN, ,Pakistan
MAYMAR TRUST,"Kitab Ghar, 4 Dar-el-Iftah, Nazimabad",Entity,SDGT,SDN, ,Pakistan
MAIMAR TRUST,"Kitab Ghar, 4 Dar-el-Iftah, Nazimabad",Entity,SDGT,SDN, ,Pakistan
MOMAR TRUST,"Kitab Ghar, 4 Dar-el-Iftah, Nazimabad",Entity,SDGT,SDN, ,Pakistan
MEYMAR TRUST,"Kitab Ghar, 4 Dar-el-Iftah, Nazimabad",Entity,SDGT,SDN, ,Pakistan
JAISH-I-MOHAMMED, ,Entity,"FTO, SDGT",SDN, ,Pakistan
ARMY OF MOHAMMED, ,Entity,"FTO, SDGT",SDN, ,Pakistan
MOHAMMED'S ARMY, ,Entity,"FTO, SDGT",SDN, ,Pakistan
TEHRIK UL-FURQAAN, ,Entity,"FTO, SDGT",SDN, ,Pakistan
JAISH-E-MOHAMMED, ,Entity,"FTO, SDGT",SDN, ,Pakistan
KHUDAMUL ISLAM, ,Entity,"FTO, SDGT",SDN, ,Pakistan
KHUDDAM-UL-ISLAM, ,Entity,"FTO, SDGT",SDN, ,Pakistan
KUDDAM E ISLAMI, ,Entity,"FTO, SDGT",SDN, ,Pakistan
RABITA TRUST,"Room 9A, 2nd Floor, Wahdat Road, Education Town",Entity,SDGT,SDN, ,Pakistan
Haji Abdul Manan AGHA, ,Individual,SDGT,SDN, ,Pakistan
Abd Al-Man'am SAIYID, ,Individual,SDGT,SDN, ,Pakistan
Mufti Rashid Ahmad LADEHYANOY, ,Individual,SDGT,SDN, ,Pakistan
Mufti Rashid Ahmad LUDHIANVI, ,Individual,SDGT,SDN, ,Pakistan
Mufti Rasheed AHMAD, ,Individual,SDGT,SDN, ,Pakistan
Mufti Rashid Ahmad WADEHYANOY, ,Individual,SDGT,SDN, ,Pakistan
UMMAH TAMEER E-NAU,"Street 13, Wazir Akbar Khan",Entity,SDGT,SDN, ,Pakistan
UMMAH TAMEER I-NAU,"Street 13, Wazir Akbar Khan",Entity,SDGT,SDN, ,Pakistan
UMMAH TAMIR I-NAU,"Street 13, Wazir Akbar Khan",Entity,SDGT,SDN, ,Pakistan
UMMAH TAMIR E-NAU,"Street 13, Wazir Akbar Khan",Entity,SDGT,SDN, ,Pakistan
RECONSTRUCTION OF THE MUSLIM UMMAH,"Street 13, Wazir Akbar Khan",Entity,SDGT,SDN, ,Pakistan
RECONSTRUCTION OF THE ISLAMIC COMMUNITY,"Street 13, Wazir Akbar Khan",Entity,SDGT,SDN, ,Pakistan
FOUNDATION FOR CONSTRUCTION,"Street 13, Wazir Akbar Khan",Entity,SDGT,SDN, ,Pakistan
RECONSTRUCTION FOUNDATION,"Street 13, Wazir Akbar Khan",Entity,SDGT,SDN, ,Pakistan
NATION BUILDING,"Street 13, Wazir Akbar Khan",Entity,SDGT,SDN, ,Pakistan
UMMAT TAMIR-I-PAU,"Street 13, Wazir Akbar Khan",Entity,SDGT,SDN, ,Pakistan
UMMAT TAMIR E-NAU,"Street 13, Wazir Akbar Khan",Entity,SDGT,SDN, ,Pakistan
UTN,"Street 13, Wazir Akbar Khan",Entity,SDGT,SDN, ,Pakistan
LASHKAR E-TAYYIBA, ,Entity,"FTO, SDGT",SDN, ,Pakistan
LASHKAR E-TOIBA, ,Entity,"FTO, SDGT",SDN, ,Pakistan
LASHKAR-I-TAIBA, ,Entity,"FTO, SDGT",SDN, ,Pakistan
ARMY OF THE RIGHTEOUS, ,Entity,"FTO, SDGT",SDN, ,Pakistan
ARMY OF THE PURE, ,Entity,"FTO, SDGT",SDN, ,Pakistan
ARMY OF THE PURE AND RIGHTEOUS, ,Entity,"FTO, SDGT",SDN, ,Pakistan
AL MANSOOREEN, ,Entity,"FTO, SDGT",SDN, ,Pakistan
AL MANSOORIAN, ,Entity,"FTO, SDGT",SDN, ,Pakistan
PAASBAN-E-KASHMIR, ,Entity,"FTO, SDGT",SDN, ,Pakistan
PAASBAN-I-AHLE-HADITH, ,Entity,"FTO, SDGT",SDN, ,Pakistan
PASBAN-E-KASHMIR, ,Entity,"FTO, SDGT",SDN, ,Pakistan
PASBAN-E-AHLE-HADITH, ,Entity,"FTO, SDGT",SDN, ,Pakistan
PAASBAN-E-AHLE-HADIS, ,Entity,"FTO, SDGT",SDN, ,Pakistan
JAMAAT-UD-DAWA, ,Entity,"FTO, SDGT",SDN, ,Pakistan
JUD, ,Entity,"FTO, SDGT",SDN, ,Pakistan
JAMA'AT AL-DAWA, ,Entity,"FTO, SDGT",SDN, ,Pakistan
JAMAAT UD-DAAWA, ,Entity,"FTO, SDGT",SDN, ,Pakistan
JAMAAT UL-DAWAH, ,Entity,"FTO, SDGT",SDN, ,Pakistan
JAMAAT-UL-DAWA, ,Entity,"FTO, SDGT",SDN, ,Pakistan
JAMA'AT-I-DAWAT, ,Entity,"FTO, SDGT",SDN, ,Pakistan
JAMAIAT-UD-DAWA, ,Entity,"FTO, SDGT",SDN, ,Pakistan
JAMA'AT-UD-DA'AWAH, ,Entity,"FTO, SDGT",SDN, ,Pakistan
JAMA'AT-UD-DA'AWA, ,Entity,"FTO, SDGT",SDN, ,Pakistan
JAMAATI-UD-DAWA, ,Entity,"FTO, SDGT",SDN, ,Pakistan
IDARA KHIDMAT-E-KHALQ, ,Entity,"FTO, SDGT",SDN, ,Pakistan
FALAH-I-INSANIAT FOUNDATION (FIF), ,Entity,"FTO, SDGT",SDN, ,Pakistan
FALAH-E-INSANIAT FOUNDATION, ,Entity,"FTO, SDGT",SDN, ,Pakistan
FALAH-E-INSANIYAT, ,Entity,"FTO, SDGT",SDN, ,Pakistan
FALAH-I-INSANIYAT, ,Entity,"FTO, SDGT",SDN, ,Pakistan
FALAH INSANIA, ,Entity,"FTO, SDGT",SDN, ,Pakistan
WELFARE OF HUMANITY, ,Entity,"FTO, SDGT",SDN, ,Pakistan
HUMANITARIAN WELFARE FOUNDATION, ,Entity,"FTO, SDGT",SDN, ,Pakistan
HUMAN WELFARE FOUNDATION, ,Entity,"FTO, SDGT",SDN, ,Pakistan
AL-ANFAL TRUST, ,Entity,"FTO, SDGT",SDN, ,Pakistan
TEHRIK-E-HURMAT-E-RASOOL, ,Entity,"FTO, SDGT",SDN, ,Pakistan
TEHRIK-E-TAHAFUZ QIBLA AWWAL, ,Entity,"FTO, SDGT",SDN, ,Pakistan
AL-MUHAMMADIA STUDENTS, ,Entity,"FTO, SDGT",SDN, ,Pakistan
KASHMIR FREEDOM MOVEMENT, ,Entity,"FTO, SDGT",SDN, ,Pakistan
TEHREEK-E-AZADI-E-KASHMIR, ,Entity,"FTO, SDGT",SDN, ,Pakistan
TEHREEK AZADI JAMMU AND KASHMIR, ,Entity,"FTO, SDGT",SDN, ,Pakistan
TEHREEK-E-AZADI JAMMU AND KASHMIR, ,Entity,"FTO, SDGT",SDN, ,Pakistan
TAJK, ,Entity,"FTO, SDGT",SDN, ,Pakistan
TEHREEK-I-AZADI-I KASHMIR, ,Entity,"FTO, SDGT",SDN, ,Pakistan
TEHREEK-E-AZADI-E-JAMMU AND KASHMIR, ,Entity,"FTO, SDGT",SDN, ,Pakistan
MOVEMENT FOR FREEDOM OF KASHMIR, ,Entity,"FTO, SDGT",SDN, ,Pakistan
MILLI MUSLIM LEAGUE, ,Entity,"FTO, SDGT",SDN, ,Pakistan
MILLI MUSLIM LEAGUE PAKISTAN, ,Entity,"FTO, SDGT",SDN, ,Pakistan
MML, ,Entity,"FTO, SDGT",SDN, ,Pakistan
Boubekeur BOULGHITI, ,Individual,SDGT,SDN, ,Pakistan
Boubakeur BOULGHIT, ,Individual,SDGT,SDN, ,Pakistan
Abu Bakr AL-JAZIRI, ,Individual,SDGT,SDN, ,Pakistan
Abou Bakr AL DJAZAIRI, ,Individual,SDGT,SDN, ,Pakistan
Abou Yasser EL DJAZAIRI, ,Individual,SDGT,SDN, ,Pakistan
Yasir AL-JAZARI, ,Individual,SDGT,SDN, ,Pakistan
Abou Yasser AL-JAZIRI, ,Individual,SDGT,SDN, ,Pakistan
REVIVAL OF ISLAMIC HERITAGE SOCIETY,"House Number 56, E. Canal Road, University Town",Entity,SDGT,SDN, ,Pakistan
ORGANIZATION FOR PEACE AND DEVELOPMENT PAKISTAN,"House Number 56, E. Canal Road, University Town",Entity,SDGT,SDN, ,Pakistan
JAMIAT IHIA AL-TURATH AL-ISLAMIYA,"House Number 56, E. Canal Road, University Town",Entity,SDGT,SDN, ,Pakistan
REVIVAL OF ISLAMIC SOCIETY HERITAGE ON THE AFRICAN CONTINENT,"House Number 56, E. Canal Road, University Town",Entity,SDGT,SDN, ,Pakistan
JAMIA IHYA UL TURATH,"House Number 56, E. Canal Road, University Town",Entity,SDGT,SDN, ,Pakistan
RIHS,"House Number 56, E. Canal Road, University Town",Entity,SDGT,SDN, ,Pakistan
AFGHAN SUPPORT COMMITTEE,"House Number 56, E. Canal Road, University Town",Entity,SDGT,SDN, ,Pakistan
AHYA UL TURAS,"House Number 56, E. Canal Road, University Town",Entity,SDGT,SDN, ,Pakistan
JAMIAT AYAT-UR-RHAS AL ISLAMIA,"House Number 56, E. Canal Road, University Town",Entity,SDGT,SDN, ,Pakistan
JAMIAT IHYA UL TURATH AL ISLAMIA,"House Number 56, E. Canal Road, University Town",Entity,SDGT,SDN, ,Pakistan
LAJNAT UL MASA EIDATUL AFGHANIA,"House Number 56, E. Canal Road, University Town",Entity,SDGT,SDN, ,Pakistan
ASC,"House Number 56, E. Canal Road, University Town",Entity,SDGT,SDN, ,Pakistan
AL-FURQAN FOUNDATION WELFARE TRUST,"House Number 56, E. Canal Road, University Town",Entity,SDGT,SDN, ,Pakistan
AL-FURQAN CHARITABLE FOUNDATION,"House Number 56, E. Canal Road, University Town",Entity,SDGT,SDN, ,Pakistan
AL-FURQAN WELFARE FOUNDATION,"House Number 56, E. Canal Road, University Town",Entity,SDGT,SDN, ,Pakistan
SOCIAL DEVELOPMENT FOUNDATION,"House Number 56, E. Canal Road, University Town",Entity,SDGT,SDN, ,Pakistan
FORKHAN RELIEF ORGANIZATION,"House Number 56, E. Canal Road, University Town",Entity,SDGT,SDN, ,Pakistan
AL-FURQAN AL-KHARIYA,"House Number 56, E. Canal Road, University Town",Entity,SDGT,SDN, ,Pakistan
AL-FURQAN KHARIA,"House Number 56, E. Canal Road, University Town",Entity,SDGT,SDN, ,Pakistan
AL-FORQAN AL-KHAIRYA,"House Number 56, E. Canal Road, University Town",Entity,SDGT,SDN, ,Pakistan
AL-FURQAN UL KHAIRA,"House Number 56, E. Canal Road, University Town",Entity,SDGT,SDN, ,Pakistan
RAIES KHILQATUL QURANIA FOUNDATION OF PAKISTAN,"House Number 56, E. Canal Road, University Town",Entity,SDGT,SDN, ,Pakistan
AL-FURKAN,"House Number 56, E. Canal Road, University Town",Entity,SDGT,SDN, ,Pakistan
AL-FORKAN,"House Number 56, E. Canal Road, University Town",Entity,SDGT,SDN, ,Pakistan
MOSASA-TUL-FORQAN,"House Number 56, E. Canal Road, University Town",Entity,SDGT,SDN, ,Pakistan
MOASSESA AL-FURQAN,"House Number 56, E. Canal Road, University Town",Entity,SDGT,SDN, ,Pakistan
AL MOSUSTA FURQAN,"House Number 56, E. Canal Road, University Town",Entity,SDGT,SDN, ,Pakistan
AL-MOSASATUL FURQAN,"House Number 56, E. Canal Road, University Town",Entity,SDGT,SDN, ,Pakistan
JAMIAT AL-FURQAN,"House Number 56, E. Canal Road, University Town",Entity,SDGT,SDN, ,Pakistan
LAJNATUL FURQAN,"House Number 56, E. Canal Road, University Town",Entity,SDGT,SDN, ,Pakistan
HAYAT UR RAS AL-FURQAN,"House Number 56, E. Canal Road, University Town",Entity,SDGT,SDN, ,Pakistan
HIYAT ORAZ AL ISLAMIYA,"House Number 56, E. Canal Road, University Town",Entity,SDGT,SDN, ,Pakistan
JAMITO AHIA TORAS AL-ISLAMI,"House Number 56, E. Canal Road, University Town",Entity,SDGT,SDN, ,Pakistan
JAMIAT AL-HAYA AL-SARAT,"House Number 56, E. Canal Road, University Town",Entity,SDGT,SDN, ,Pakistan
AHIYAHU TURUS,"House Number 56, E. Canal Road, University Town",Entity,SDGT,SDN, ,Pakistan
AHYA UTRAS,"House Number 56, E. Canal Road, University Town",Entity,SDGT,SDN, ,Pakistan
HAYATUTRAS,"House Number 56, E. Canal Road, University Town",Entity,SDGT,SDN, ,Pakistan
HAYATURAS,"House Number 56, E. Canal Road, University Town",Entity,SDGT,SDN, ,Pakistan
AL-TURAZ TRUST,"House Number 56, E. Canal Road, University Town",Entity,SDGT,SDN, ,Pakistan
AL-TURAZ ORGANIZATION,"House Number 56, E. Canal Road, University Town",Entity,SDGT,SDN, ,Pakistan
HITRAS,"House Number 56, E. Canal Road, University Town",Entity,SDGT,SDN, ,Pakistan
AL FORQAN CHARITY,"House Number 56, E. Canal Road, University Town",Entity,SDGT,SDN, ,Pakistan
EAST AND WEST ENTERPRISES,"House Number 56, E. Canal Road, University Town",Entity,SDGT,SDN, ,Pakistan
THE AID ORGANIZATION OF THE ULEMA,"Kitab Ghar, Darul Ifta Wal Irshad, Nazimabad No. 4",Entity,SDGT,SDN, ,Pakistan
AL RASHID TRUST,"Kitab Ghar, Darul Ifta Wal Irshad, Nazimabad No. 4",Entity,SDGT,SDN, ,Pakistan
AL RASHEED TRUST,"Kitab Ghar, Darul Ifta Wal Irshad, Nazimabad No. 4",Entity,SDGT,SDN, ,Pakistan
AL-RASHEED TRUST,"Kitab Ghar, Darul Ifta Wal Irshad, Nazimabad No. 4",Entity,SDGT,SDN, ,Pakistan
AL-RASHID TRUST,"Kitab Ghar, Darul Ifta Wal Irshad, Nazimabad No. 4",Entity,SDGT,SDN, ,Pakistan
INC. GLOBAL RELIEF FOUNDATION,"Rruga e Kavajes, Building No. 3, Apartment No. 61, P.O. Box 2892",Entity,SDGT,SDN, ,Pakistan
FONDATION SECOURS MONDIAL A.S.B.L.,"Rruga e Kavajes, Building No. 3, Apartment No. 61, P.O. Box 2892",Entity,SDGT,SDN, ,Pakistan
FONDATION SECOURS MONDIAL-BELGIQUE A.S.B.L.,"Rruga e Kavajes, Building No. 3, Apartment No. 61, P.O. Box 2892",Entity,SDGT,SDN, ,Pakistan
FONDATION SECOURS MONDIAL-KOSOVA,"Rruga e Kavajes, Building No. 3, Apartment No. 61, P.O. Box 2892",Entity,SDGT,SDN, ,Pakistan
FONDATION SECOURS MONDIAL VZW,"Rruga e Kavajes, Building No. 3, Apartment No. 61, P.O. Box 2892",Entity,SDGT,SDN, ,Pakistan
FONDATION SECOURS MONDIAL 'WORLD RELIEF',"Rruga e Kavajes, Building No. 3, Apartment No. 61, P.O. Box 2892",Entity,SDGT,SDN, ,Pakistan
FSM,"Rruga e Kavajes, Building No. 3, Apartment No. 61, P.O. Box 2892",Entity,SDGT,SDN, ,Pakistan
V.Z.W. STICHTING WERELDHULP-BELGIE,"Rruga e Kavajes, Building No. 3, Apartment No. 61, P.O. Box 2892",Entity,SDGT,SDN, ,Pakistan
SECOURS MONDIAL DE FRANCE,"Rruga e Kavajes, Building No. 3, Apartment No. 61, P.O. Box 2892",Entity,SDGT,SDN, ,Pakistan
BENEVOLENCE INTERNATIONAL FOUNDATION,"8820 Mobile Avenue, 1A",Entity,SDGT,SDN, ,Pakistan
AL BIR AL DAWALIA,"8820 Mobile Avenue, 1A",Entity,SDGT,SDN, ,Pakistan
BIF,"8820 Mobile Avenue, 1A",Entity,SDGT,SDN, ,Pakistan
BIF-USA,"8820 Mobile Avenue, 1A",Entity,SDGT,SDN, ,Pakistan
MEZHDUNARODNYJ BLAGOTVORITEL'NYJ FOND,"8820 Mobile Avenue, 1A",Entity,SDGT,SDN, ,Pakistan
AL-AQSA FOUNDATION,P.O. Box 2364,Entity,SDGT,SDN, ,Pakistan
AL-AQSA SPANMAL STIFTELSE,P.O. Box 2364,Entity,SDGT,SDN, ,Pakistan
AL-AQSA ASBL,P.O. Box 2364,Entity,SDGT,SDN, ,Pakistan
AL-AQSA CHARITABLE FOUNDATION,P.O. Box 2364,Entity,SDGT,SDN, ,Pakistan
AL-AQSA CHARITABLE ORGANIZATION,P.O. Box 2364,Entity,SDGT,SDN, ,Pakistan
AL-AQSA E.V.,P.O. Box 2364,Entity,SDGT,SDN, ,Pakistan
AL-AQSA INTERNATIONAL FOUNDATION,P.O. Box 2364,Entity,SDGT,SDN, ,Pakistan
AL-AQSA ISLAMIC CHARITABLE SOCIETY,P.O. Box 2364,Entity,SDGT,SDN, ,Pakistan
AL-AQSA SINABIL ESTABLISHMENT,P.O. Box 2364,Entity,SDGT,SDN, ,Pakistan
AL-AQSA SPANM I STIFTELSE,P.O. Box 2364,Entity,SDGT,SDN, ,Pakistan
AQSSA SOCIETY,P.O. Box 2364,Entity,SDGT,SDN, ,Pakistan
AQSSA SOCIETY YEMEN,P.O. Box 2364,Entity,SDGT,SDN, ,Pakistan
CHARITABLE AL-AQSA ESTABLISHMENT,P.O. Box 2364,Entity,SDGT,SDN, ,Pakistan
CHARITABLE SOCIETY TO HELP THE NOBLE AL-AQSA,P.O. Box 2364,Entity,SDGT,SDN, ,Pakistan
FORENINGEN AL-AQSA,P.O. Box 2364,Entity,SDGT,SDN, ,Pakistan
ISLAMIC CHARITABLE SOCIETY FOR AL-AQSA,P.O. Box 2364,Entity,SDGT,SDN, ,Pakistan
MU' ASA AL-AQSA AL-KHAYRIYYA,P.O. Box 2364,Entity,SDGT,SDN, ,Pakistan
MU' ASSA SANABIL AL-AQSA AL-KHAYRIYYA,P.O. Box 2364,Entity,SDGT,SDN, ,Pakistan
SANABIL AL-AQSA CHARITABLE FOUNDATION,P.O. Box 2364,Entity,SDGT,SDN, ,Pakistan
STICHTING AL-AQSA,P.O. Box 2364,Entity,SDGT,SDN, ,Pakistan
SWEDISH CHARITABLE AQSA EST.,P.O. Box 2364,Entity,SDGT,SDN, ,Pakistan
NUSRAT AL-AQSA AL-SHARIF,P.O. Box 2364,Entity,SDGT,SDN, ,Pakistan
AL-AKHTAR TRUST INTERNATIONAL,"ST-1/A, Gulshan-e-Iqbal, Block 2",Entity,SDGT,SDN, ,Pakistan
AKHTARABAD MEDICAL CAMP,"ST-1/A, Gulshan-e-Iqbal, Block 2",Entity,SDGT,SDN, ,Pakistan
AL-AKHTAR MEDICAL CENTRE,"ST-1/A, Gulshan-e-Iqbal, Block 2",Entity,SDGT,SDN, ,Pakistan
PAKISTAN RELIEF FOUNDATION,"ST-1/A, Gulshan-e-Iqbal, Block 2",Entity,SDGT,SDN, ,Pakistan
PAKISTANI RELIEF FOUNDATION,"ST-1/A, Gulshan-e-Iqbal, Block 2",Entity,SDGT,SDN, ,Pakistan
AZMAT-E-PAKISTAN TRUST,"ST-1/A, Gulshan-e-Iqbal, Block 2",Entity,SDGT,SDN, ,Pakistan
AZMAT PAKISTAN TRUST,"ST-1/A, Gulshan-e-Iqbal, Block 2",Entity,SDGT,SDN, ,Pakistan
AL-HARAMAIN : PAKISTAN BRANCH,"House #279, Nazimuddin road, F-10/1",Entity,SDGT,SDN, ,Pakistan
AL-HARAMAIN FOUNDATION,"House #279, Nazimuddin road, F-10/1",Entity,SDGT,SDN, ,Pakistan
AL-HARAMAIN HUMANITARIAN FOUNDATION,"House #279, Nazimuddin road, F-10/1",Entity,SDGT,SDN, ,Pakistan
AL-HARAMAIN ISLAMIC FOUNDATION,"House #279, Nazimuddin road, F-10/1",Entity,SDGT,SDN, ,Pakistan
AL-HARAMAYN,"House #279, Nazimuddin road, F-10/1",Entity,SDGT,SDN, ,Pakistan
AL-HARAMAYN FOUNDATION,"House #279, Nazimuddin road, F-10/1",Entity,SDGT,SDN, ,Pakistan
AL-HARAMAYN HUMANITARIAN FOUNDATION,"House #279, Nazimuddin road, F-10/1",Entity,SDGT,SDN, ,Pakistan
AL-HARAMAYN ISLAMIC FOUNDATION,"House #279, Nazimuddin road, F-10/1",Entity,SDGT,SDN, ,Pakistan
AL-HARAMEIN,"House #279, Nazimuddin road, F-10/1",Entity,SDGT,SDN, ,Pakistan
AL-HARAMEIN FOUNDATION,"House #279, Nazimuddin road, F-10/1",Entity,SDGT,SDN, ,Pakistan
AL-HARAMEIN HUMANITARIAN FOUNDATION,"House #279, Nazimuddin road, F-10/1",Entity,SDGT,SDN, ,Pakistan
AL-HARAMEIN ISLAMIC FOUNDATION,"House #279, Nazimuddin road, F-10/1",Entity,SDGT,SDN, ,Pakistan
ALHARAMAIN,"House #279, Nazimuddin road, F-10/1",Entity,SDGT,SDN, ,Pakistan
ALHARAMAIN FOUNDATION,"House #279, Nazimuddin road, F-10/1",Entity,SDGT,SDN, ,Pakistan
ALHARAMAIN HUMANITARIAN FOUNDATION,"House #279, Nazimuddin road, F-10/1",Entity,SDGT,SDN, ,Pakistan
ALHARAMAIN ISLAMIC FOUNDATION,"House #279, Nazimuddin road, F-10/1",Entity,SDGT,SDN, ,Pakistan
ALHARAMAYN,"House #279, Nazimuddin road, F-10/1",Entity,SDGT,SDN, ,Pakistan
ALHARAMAYN FOUNDATION,"House #279, Nazimuddin road, F-10/1",Entity,SDGT,SDN, ,Pakistan
ALHARAMAYN HUMANITARIAN FOUNDATION,"House #279, Nazimuddin road, F-10/1",Entity,SDGT,SDN, ,Pakistan
ALHARAMAYN ISLAMIC FOUNDATION,"House #279, Nazimuddin road, F-10/1",Entity,SDGT,SDN, ,Pakistan
ALHARAMEIN,"House #279, Nazimuddin road, F-10/1",Entity,SDGT,SDN, ,Pakistan
ALHARAMEIN FOUNDATION,"House #279, Nazimuddin road, F-10/1",Entity,SDGT,SDN, ,Pakistan
ALHARAMEIN HUMANITARIAN FOUNDATION,"House #279, Nazimuddin road, F-10/1",Entity,SDGT,SDN, ,Pakistan
ALHARAMEIN ISLAMIC FOUNDATION,"House #279, Nazimuddin road, F-10/1",Entity,SDGT,SDN, ,Pakistan
MU'ASSASAT AL-HARAMAIN AL-KHAYRIYYA,"House #279, Nazimuddin road, F-10/1",Entity,SDGT,SDN, ,Pakistan
MU'ASSASAT AL-HARAMAYN AL-KHAYRIYYA,"House #279, Nazimuddin road, F-10/1",Entity,SDGT,SDN, ,Pakistan
MU'ASSASAT AL-HARAMEIN AL-KHAYRIYYA,"House #279, Nazimuddin road, F-10/1",Entity,SDGT,SDN, ,Pakistan
VAZIR,"House #279, Nazimuddin road, F-10/1",Entity,SDGT,SDN, ,Pakistan
VEZIR,"House #279, Nazimuddin road, F-10/1",Entity,SDGT,SDN, ,Pakistan
Haji Ali NAWAY, ,Individual,SDNTK,SDN, ,Pakistan
Ali NAVAI, ,Individual,SDNTK,SDN, ,Pakistan
Ali NAWA'EE, ,Individual,SDNTK,SDN, ,Pakistan
Ali NAWAI, ,Individual,SDNTK,SDN, ,Pakistan
Ali NAWAE, ,Individual,SDNTK,SDN, ,Pakistan
Ali NAWA'I, ,Individual,SDNTK,SDN, ,Pakistan
Dawood IBRAHIM,"617 CP Berar Society, Block 7-8",Individual,"SDGT, SDNTK",SDN, ,Pakistan
Dawood SABRI,"617 CP Berar Society, Block 7-8",Individual,"SDGT, SDNTK",SDN, ,Pakistan
Dawood EBRAHIM,"617 CP Berar Society, Block 7-8",Individual,"SDGT, SDNTK",SDN, ,Pakistan
Dawood HASSAN,"617 CP Berar Society, Block 7-8",Individual,"SDGT, SDNTK",SDN, ,Pakistan
Dawood Sheik IBRAHIM,"617 CP Berar Society, Block 7-8",Individual,"SDGT, SDNTK",SDN, ,Pakistan
Dawood Ibrahim KASKAR,"617 CP Berar Society, Block 7-8",Individual,"SDGT, SDNTK",SDN, ,Pakistan
Amir SAHEB,"617 CP Berar Society, Block 7-8",Individual,"SDGT, SDNTK",SDN, ,Pakistan
Iqbal SETH,"617 CP Berar Society, Block 7-8",Individual,"SDGT, SDNTK",SDN, ,Pakistan
Shaikh Ismail Abdul REHMAN,"617 CP Berar Society, Block 7-8",Individual,"SDGT, SDNTK",SDN, ,Pakistan
Abdul Hamid Abdul AZIZ,"617 CP Berar Society, Block 7-8",Individual,"SDGT, SDNTK",SDN, ,Pakistan
Aziz DILIP,"617 CP Berar Society, Block 7-8",Individual,"SDGT, SDNTK",SDN, ,Pakistan
Ibrahim Shaikh Mohd ANIS,"617 CP Berar Society, Block 7-8",Individual,"SDGT, SDNTK",SDN, ,Pakistan
Shaikh Daud HASAN,"617 CP Berar Society, Block 7-8",Individual,"SDGT, SDNTK",SDN, ,Pakistan
Anis IBRAHIM,"617 CP Berar Society, Block 7-8",Individual,"SDGT, SDNTK",SDN, ,Pakistan
DAWOOD IBRAHIM ORGANIZATION, ,Entity,SDNTK,SDN, ,Pakistan
D COMPANY, ,Entity,SDNTK,SDN, ,Pakistan
Shahbaz KHAN, ,Individual,SDNTK,SDN, ,Pakistan
Shahbaz KHAN GALAT KHAN, ,Individual,SDNTK,SDN, ,Pakistan
Shahbaz KHAN ZADRAN, ,Individual,SDNTK,SDN, ,Pakistan
Shahbaz KOOCHI, ,Individual,SDNTK,SDN, ,Pakistan
HAJI SHAHBAZ KOOCHI, ,Individual,SDNTK,SDN, ,Pakistan
HAJI SHAHBAZ, ,Individual,SDNTK,SDN, ,Pakistan
Shahbaz ZADRAN, ,Individual,SDNTK,SDN, ,Pakistan
HAJI SHABBAZ, ,Individual,SDNTK,SDN, ,Pakistan
Shabbaz ZADRAN, ,Individual,SDNTK,SDN, ,Pakistan
Haji Shabaz ZADRAN, ,Individual,SDNTK,SDN, ,Pakistan
Haji Shahbaz ZADRAN, ,Individual,SDNTK,SDN, ,Pakistan
Cellat HAN, ,Individual,SDNTK,SDN, ,Pakistan
Sahbaz HAN, ,Individual,SDNTK,SDN, ,Pakistan
Haji Shahbaz Khan KOCHI, ,Individual,SDNTK,SDN, ,Pakistan
Shahbaz KHAN JALAT KHAN, ,Individual,SDNTK,SDN, ,Pakistan
Sherbaz KHAN,c/o SHAHBAZ KHAN GENERAL TRADING LLC,Individual,SDNTK,SDN, ,Pakistan
Waseem Rauf LOAN,c/o AL AMLOOD TRADING LLC,Individual,SDNTK,SDN, ,Pakistan
Waseem Rouf LOUN,c/o AL AMLOOD TRADING LLC,Individual,SDNTK,SDN, ,Pakistan
Waseem Raouf LOUN,c/o AL AMLOOD TRADING LLC,Individual,SDNTK,SDN, ,Pakistan
Abdul Majid RASHID,c/o AL AMLOOD TRADING LLC,Individual,SDNTK,SDN, ,Pakistan
Abdul Majid RASHI,c/o AL AMLOOD TRADING LLC,Individual,SDNTK,SDN, ,Pakistan
Abdul Majid BUTT,c/o AL AMLOOD TRADING LLC,Individual,SDNTK,SDN, ,Pakistan
Waseem Raouf LOAN,c/o AL AMLOOD TRADING LLC,Individual,SDNTK,SDN, ,Pakistan
Waseem Rauf LOUN,c/o AL AMLOOD TRADING LLC,Individual,SDNTK,SDN, ,Pakistan
Wasim Raouf LON RAOUF,c/o AL AMLOOD TRADING LLC,Individual,SDNTK,SDN, ,Pakistan
DUBAI TRADING COMPANY,"44 - 45, Royal Shopping Plaza, Industrial Estate, Hayatabad",Entity,SDNTK,SDN, ,Pakistan
SHAHBAZ TV CENTER,"Shop No. 1-2, Block A, Jamrud Road, Royal Market",Entity,SDNTK,SDN, ,Pakistan
SHAHNAWAZ TRADERS,"Shop No. 1-2, Block A, Jamrud Road, Royal Market",Entity,SDNTK,SDN, ,Pakistan
SHER MATCH INDUSTRIES (PVT.) LIMITED,"Plot Numbers 119-121, Industrial Estate, Jamrud Road, Hayatabad",Entity,SDNTK,SDN, ,Pakistan
Muhammad SAEED,"House No. 116 E, Mohalla Johar, Town: Lahore, Tehsil:",Individual,SDGT,SDN, ,Pakistan
Hafiz Muhammad SAEED,"House No. 116 E, Mohalla Johar, Town: Lahore, Tehsil:",Individual,SDGT,SDN, ,Pakistan
Hafiz SAEED,"House No. 116 E, Mohalla Johar, Town: Lahore, Tehsil:",Individual,SDGT,SDN, ,Pakistan
HAFIZ SAHIB,"House No. 116 E, Mohalla Johar, Town: Lahore, Tehsil:",Individual,SDGT,SDN, ,Pakistan
Hafiz Mohammad SAEED,"House No. 116 E, Mohalla Johar, Town: Lahore, Tehsil:",Individual,SDGT,SDN, ,Pakistan
Hafez Mohammad SAYEED,"House No. 116 E, Mohalla Johar, Town: Lahore, Tehsil:",Individual,SDGT,SDN, ,Pakistan
Hafiz Mohammad SAYID,"House No. 116 E, Mohalla Johar, Town: Lahore, Tehsil:",Individual,SDGT,SDN, ,Pakistan
Hafiz Mohammad SYEED,"House No. 116 E, Mohalla Johar, Town: Lahore, Tehsil:",Individual,SDGT,SDN, ,Pakistan
TATA JI,"House No. 116 E, Mohalla Johar, Town: Lahore, Tehsil:",Individual,SDGT,SDN, ,Pakistan
Hafiz Mohammad SAYED,"House No. 116 E, Mohalla Johar, Town: Lahore, Tehsil:",Individual,SDGT,SDN, ,Pakistan
Muhammad SAEED HAFIZ,"House No. 116 E, Mohalla Johar, Town: Lahore, Tehsil:",Individual,SDGT,SDN, ,Pakistan
Zaki-ur-Rehman LAKHVI,"Barahkoh, P.O. DO, Tehsil and District Islamabad",Individual,SDGT,SDN, ,Pakistan
Zakir Rehman LAKVI,"Barahkoh, P.O. DO, Tehsil and District Islamabad",Individual,SDGT,SDN, ,Pakistan
Zaki Ur-Rehman LAKVI,"Barahkoh, P.O. DO, Tehsil and District Islamabad",Individual,SDGT,SDN, ,Pakistan
Zaki UR-REHMAN,"Barahkoh, P.O. DO, Tehsil and District Islamabad",Individual,SDGT,SDN, ,Pakistan
Zakir REHMAN,"Barahkoh, P.O. DO, Tehsil and District Islamabad",Individual,SDGT,SDN, ,Pakistan
Abu Waheed Irshad Ahmad ARSHAD,"Barahkoh, P.O. DO, Tehsil and District Islamabad",Individual,SDGT,SDN, ,Pakistan
CHACHAJEE,"Barahkoh, P.O. DO, Tehsil and District Islamabad",Individual,SDGT,SDN, ,Pakistan
Sirajuddin Haqqani Jalaluddin Khwasa MUHAMMAD,Manba'ul uloom Madrasa,Individual,SDGT,SDN, ,Pakistan
Sirajuddin HAQANI,Manba'ul uloom Madrasa,Individual,SDGT,SDN, ,Pakistan
Siraj HAQQANI,Manba'ul uloom Madrasa,Individual,SDGT,SDN, ,Pakistan
Siraj HAQANI,Manba'ul uloom Madrasa,Individual,SDGT,SDN, ,Pakistan
Saraj HAQQANI,Manba'ul uloom Madrasa,Individual,SDGT,SDN, ,Pakistan
Saraj HAQANI,Manba'ul uloom Madrasa,Individual,SDGT,SDN, ,Pakistan
Sirajuddin HAQQANI,Manba'ul uloom Madrasa,Individual,SDGT,SDN, ,Pakistan
Haji Asad Khan Zarkari MOHAMMADHASNI, ,Individual,SDNTK,SDN, ,Pakistan
Haji Asad Khan MOHAMMADHASNI, ,Individual,SDNTK,SDN, ,Pakistan
Asad Khan ZARKARI, ,Individual,SDNTK,SDN, ,Pakistan
Asad Khan MUHAMMADHASNI, ,Individual,SDNTK,SDN, ,Pakistan
Asad Khan MOHMMADHASNI, ,Individual,SDNTK,SDN, ,Pakistan
Asad Khan MOHADMMADHASNI, ,Individual,SDNTK,SDN, ,Pakistan
Asad KHAN, ,Individual,SDNTK,SDN, ,Pakistan
Haji Asad KHAN, ,Individual,SDNTK,SDN, ,Pakistan
Haji ASAD, ,Individual,SDNTK,SDN, ,Pakistan
Mohammed KHAN, ,Individual,SDNTK,SDN, ,Pakistan
HAJI ABDULLAH, ,Individual,SDNTK,SDN, ,Pakistan
Fazeel-A-Tul Shaykh Abu Mohammed AMEEN AL-PESHAWARI,Ganj District,Individual,SDGT,SDN, ,Pakistan
Shaykh AMINULLAH,Ganj District,Individual,SDGT,SDN, ,Pakistan
Sheik AMINULLAH,Ganj District,Individual,SDGT,SDN, ,Pakistan
Abu Mohammad Aminullah PESHAWARI,Ganj District,Individual,SDGT,SDN, ,Pakistan
Shaykh Aminullah AL-PESHAWARI,Ganj District,Individual,SDGT,SDN, ,Pakistan
Abu Mohammad Amin BISHAWRI,Ganj District,Individual,SDGT,SDN, ,Pakistan
Abu Mohammad Shaykh Aminullah AL-BISHAURI,Ganj District,Individual,SDGT,SDN, ,Pakistan
Shaykh Abu Mohammed Ameen AL-PESHAWARI,Ganj District,Individual,SDGT,SDN, ,Pakistan
SHAYKH AMEEN,Ganj District,Individual,SDGT,SDN, ,Pakistan
Niaz MUHAMMAD,Ganj District,Individual,SDGT,SDN, ,Pakistan
Niaz Muhammad Muhammada GUL AL-PAKISTANI,Ganj District,Individual,SDGT,SDN, ,Pakistan
Arif QASMANI,"House Number 136, KDA Scheme No. 1, Tipu Sultan Road",Individual,SDGT,SDN, ,Pakistan
Muhammad Arif QASMANI,"House Number 136, KDA Scheme No. 1, Tipu Sultan Road",Individual,SDGT,SDN, ,Pakistan
Muhammad 'Arif QASMANI,"House Number 136, KDA Scheme No. 1, Tipu Sultan Road",Individual,SDGT,SDN, ,Pakistan
Mohammad Arif QASMANI,"House Number 136, KDA Scheme No. 1, Tipu Sultan Road",Individual,SDGT,SDN, ,Pakistan
QASMANI BABA,"House Number 136, KDA Scheme No. 1, Tipu Sultan Road",Individual,SDGT,SDN, ,Pakistan
ARIF UMER,"House Number 136, KDA Scheme No. 1, Tipu Sultan Road",Individual,SDGT,SDN, ,Pakistan
MEMON BABA,"House Number 136, KDA Scheme No. 1, Tipu Sultan Road",Individual,SDGT,SDN, ,Pakistan
BABA JI,"House Number 136, KDA Scheme No. 1, Tipu Sultan Road",Individual,SDGT,SDN, ,Pakistan
Nasir JAVAID,Mansehra District,Individual,SDGT,SDN, ,Pakistan
Nasar JAVED,Mansehra District,Individual,SDGT,SDN, ,Pakistan
Nasser JAVID,Mansehra District,Individual,SDGT,SDN, ,Pakistan
Haji Nasir JAVED,Mansehra District,Individual,SDGT,SDN, ,Pakistan
Naser JAVED,Mansehra District,Individual,SDGT,SDN, ,Pakistan
Nasir JAVED,Mansehra District,Individual,SDGT,SDN, ,Pakistan
ABU ISHMAEL,Mansehra District,Individual,SDGT,SDN, ,Pakistan
Qari Naser JAVED,Mansehra District,Individual,SDGT,SDN, ,Pakistan
Mohammad Masood Azhar ALVI,"1260/108, Block N0.6-B, Kausar Colony, Model Town-B",Individual,SDGT,SDN, ,Pakistan
Wali Adam ESAH,"1260/108, Block N0.6-B, Kausar Colony, Model Town-B",Individual,SDGT,SDN, ,Pakistan
Masud AZHAR,"1260/108, Block N0.6-B, Kausar Colony, Model Town-B",Individual,SDGT,SDN, ,Pakistan
Wali Adam ISAH,"1260/108, Block N0.6-B, Kausar Colony, Model Town-B",Individual,SDGT,SDN, ,Pakistan
Azam CHEEMA, ,Individual,SDGT,SDN, ,Pakistan
Azim CHIMA, ,Individual,SDGT,SDN, ,Pakistan
Azam CHIMA, ,Individual,SDGT,SDN, ,Pakistan
Asim CHEEMA, ,Individual,SDGT,SDN, ,Pakistan
Azzam CHEEMA, ,Individual,SDGT,SDN, ,Pakistan
Mohammed Azam CHEEMA, ,Individual,SDGT,SDN, ,Pakistan
Chima BHAI, ,Individual,SDGT,SDN, ,Pakistan
Imam BHEEL, ,Individual,SDNTK,SDN, ,Pakistan
Mohammad Hyat BAZINGO, ,Individual,SDNTK,SDN, ,Pakistan
Imam BAZINJO, ,Individual,SDNTK,SDN, ,Pakistan
Mir Yaqub BIZENJO, ,Individual,SDNTK,SDN, ,Pakistan
HAJI JUMA KHAN ORGANIZATION, ,Entity,SDNTK,SDN, ,Pakistan
HJK ORGANIZATION, ,Entity,SDNTK,SDN, ,Pakistan
KHAN ORGANIZATION, ,Entity,SDNTK,SDN, ,Pakistan
Mohammed MAZHAR,"ST 1/A, Block 2, Gulshan-e-Iqbal",Individual,SDGT,SDN, ,Pakistan
Mohammad MAZHAR,"ST 1/A, Block 2, Gulshan-e-Iqbal",Individual,SDGT,SDN, ,Pakistan
Mohammad AZHAR,"ST 1/A, Block 2, Gulshan-e-Iqbal",Individual,SDGT,SDN, ,Pakistan
Maulawi Mohammad MAHAZAR,"ST 1/A, Block 2, Gulshan-e-Iqbal",Individual,SDGT,SDN, ,Pakistan
Maulana Hakim Mohammad MAZHAR,"ST 1/A, Block 2, Gulshan-e-Iqbal",Individual,SDGT,SDN, ,Pakistan
Molavi Muhammad MAZHAR,"ST 1/A, Block 2, Gulshan-e-Iqbal",Individual,SDGT,SDN, ,Pakistan
Maulana MAZAR,"ST 1/A, Block 2, Gulshan-e-Iqbal",Individual,SDGT,SDN, ,Pakistan
Molana MAZHAR,"ST 1/A, Block 2, Gulshan-e-Iqbal",Individual,SDGT,SDN, ,Pakistan
Hakim MAZHAR,"ST 1/A, Block 2, Gulshan-e-Iqbal",Individual,SDGT,SDN, ,Pakistan
Hakeem Mohammad MAZHAR,"ST 1/A, Block 2, Gulshan-e-Iqbal",Individual,SDGT,SDN, ,Pakistan
Hakim Muhammed MAZAR,"ST 1/A, Block 2, Gulshan-e-Iqbal",Individual,SDGT,SDN, ,Pakistan
Mufti Abdul RAHIM, ,Individual,SDGT,SDN, ,Pakistan
Mufti Abdur RAHIM, ,Individual,SDGT,SDN, ,Pakistan
Mufti Abdul RAHEEM, ,Individual,SDGT,SDN, ,Pakistan
Mufti Muabdul HALIM, ,Individual,SDGT,SDN, ,Pakistan
USTAAD SHEHEB, ,Individual,SDGT,SDN, ,Pakistan
Mohammad Ilyas KASHMIRI,Thathi Village,Individual,SDGT,SDN, ,Pakistan
Muhammad Ilyas KASHMIRI,Thathi Village,Individual,SDGT,SDN, ,Pakistan
Elias AL-KASHMIRI,Thathi Village,Individual,SDGT,SDN, ,Pakistan
Naib Amir ILYAS,Thathi Village,Individual,SDGT,SDN, ,Pakistan
HARAKAT-UL JIHAD ISLAMI, ,Entity,SDGT,SDN, ,Pakistan
HUJI, ,Entity,SDGT,SDN, ,Pakistan
MOVEMENT OF ISLAMIC HOLY WAR, ,Entity,SDGT,SDN, ,Pakistan
HARKAT-UL-JIHAD-AL ISLAMI, ,Entity,SDGT,SDN, ,Pakistan
HARKAT-AL-JIHAD-UL ISLAMI, ,Entity,SDGT,SDN, ,Pakistan
HARKAT-UL-JEHAD-AL-ISLAMI, ,Entity,SDGT,SDN, ,Pakistan
HARAKAT UL JIHAD-E-ISLAMI, ,Entity,SDGT,SDN, ,Pakistan
TEHRIK-E TALIBAN PAKISTAN (TTP), ,Entity,"FTO, SDGT",SDN, ,Pakistan
TEHRIK-I-TALIBAN PAKISTAN, ,Entity,"FTO, SDGT",SDN, ,Pakistan
TEHRIK-E-TALIBAN, ,Entity,"FTO, SDGT",SDN, ,Pakistan
PAKISTANI TALIBAN, ,Entity,"FTO, SDGT",SDN, ,Pakistan
TEHREEK-E-TALIBAN, ,Entity,"FTO, SDGT",SDN, ,Pakistan
AL REHMAT TRUST,537/1-Z Defense Housing Area (DHA),Entity,SDGT,SDN, ,Pakistan
AL-RAHMAT TRUST,537/1-Z Defense Housing Area (DHA),Entity,SDGT,SDN, ,Pakistan
AL-REHMAN TRUST,537/1-Z Defense Housing Area (DHA),Entity,SDGT,SDN, ,Pakistan
UR-RAHMAN TRUST,537/1-Z Defense Housing Area (DHA),Entity,SDGT,SDN, ,Pakistan
AR-RAHMAN TRUST,537/1-Z Defense Housing Area (DHA),Entity,SDGT,SDN, ,Pakistan
UR-RAMAT TRUST,537/1-Z Defense Housing Area (DHA),Entity,SDGT,SDN, ,Pakistan
Hafiz Abdul Rahman MAKKI, ,Individual,SDGT,SDN, ,Pakistan
HAFIZ ABDUL REHMAN MAKKI, ,Individual,SDGT,SDN, ,Pakistan
HAFAZ ABDUL RAHMAN MAKI, ,Individual,SDGT,SDN, ,Pakistan
ABDULRAHMAN MAKKI, ,Individual,SDGT,SDN, ,Pakistan
Hafiz Abdul REHMAN, ,Individual,SDGT,SDN, ,Pakistan
JUNDALLAH, ,Entity,"FTO, SDGT",SDN, ,Pakistan
PEOPLE'S RESISTANCE MOVEMENT OF IRAN (PMRI), ,Entity,"FTO, SDGT",SDN, ,Pakistan
JONBESH-I MOQAVEMAT-I-MARDOM-I IRAN, ,Entity,"FTO, SDGT",SDN, ,Pakistan
THE POPULAR RESISTANCE MOVEMENT OF IRAN, ,Entity,"FTO, SDGT",SDN, ,Pakistan
SOLDIERS OF GOD, ,Entity,"FTO, SDGT",SDN, ,Pakistan
FEDAYEEN-E-ISLAM, ,Entity,"FTO, SDGT",SDN, ,Pakistan
FORMER JUNDALLAH OF IRAN, ,Entity,"FTO, SDGT",SDN, ,Pakistan
JUNDULLAH, ,Entity,"FTO, SDGT",SDN, ,Pakistan
JONDULLAH, ,Entity,"FTO, SDGT",SDN, ,Pakistan
JUNDOLLAH, ,Entity,"FTO, SDGT",SDN, ,Pakistan
JONDOLLAH, ,Entity,"FTO, SDGT",SDN, ,Pakistan
JONDALLAH, ,Entity,"FTO, SDGT",SDN, ,Pakistan
ARMY OF GOD (GOD'S ARMY), ,Entity,"FTO, SDGT",SDN, ,Pakistan
BALOCH PEOPLES RESISTANCE MOVEMENT (BPRM), ,Entity,"FTO, SDGT",SDN, ,Pakistan
Hafiz Abdur RAUF,"4 Lake Road, Room No. 7, Choburji",Individual,SDGT,SDN, ,Pakistan
Hafiz Abdul RAOUF,"4 Lake Road, Room No. 7, Choburji",Individual,SDGT,SDN, ,Pakistan
Hafiz Abdul RAUF,"4 Lake Road, Room No. 7, Choburji",Individual,SDGT,SDN, ,Pakistan
Amanullah AFRIDI, ,Individual,SDGT,SDN, ,Pakistan
MUFTI ILYAS, ,Individual,SDGT,SDN, ,Pakistan
Aman ULLAH, ,Individual,SDGT,SDN, ,Pakistan
Amanullah URS, ,Individual,SDGT,SDN, ,Pakistan
Muhammad Aman GUL, ,Individual,SDGT,SDN, ,Pakistan
Khalil Al-Rahman HAQQANI, ,Individual,SDGT,SDN, ,Pakistan
Khalil ur Rahman HAQQANI, ,Individual,SDGT,SDN, ,Pakistan
Khaleel HAQQANI, ,Individual,SDGT,SDN, ,Pakistan
Khalil Ahmad HAQQANI, ,Individual,SDGT,SDN, ,Pakistan
Zafar IQBAL,"Masjid al-Qadesia, 4 Lake Road",Individual,SDGT,SDN, ,Pakistan
Malik Zafar Iqbal SHEHBAZ,"Masjid al-Qadesia, 4 Lake Road",Individual,SDGT,SDN, ,Pakistan
Malik Zafar Iqbal SHAHBAZ,"Masjid al-Qadesia, 4 Lake Road",Individual,SDGT,SDN, ,Pakistan
Malik Zafar IQBAL,"Masjid al-Qadesia, 4 Lake Road",Individual,SDGT,SDN, ,Pakistan
Zaffer IQBAL,"Masjid al-Qadesia, 4 Lake Road",Individual,SDGT,SDN, ,Pakistan
Zafar Iqbal CHAUDHRY,"Masjid al-Qadesia, 4 Lake Road",Individual,SDGT,SDN, ,Pakistan
Muhammad Zafar IQBAL,"Masjid al-Qadesia, 4 Lake Road",Individual,SDGT,SDN, ,Pakistan
Hajji Faizullah Khan NOORZAI,"Boghra Road, Miralzei Village",Individual,SDGT,SDN, ,Pakistan
Haji Faizuulah Khan NOREZAI,"Boghra Road, Miralzei Village",Individual,SDGT,SDN, ,Pakistan
Haji Faizullah NOORI,"Boghra Road, Miralzei Village",Individual,SDGT,SDN, ,Pakistan
Haji Faizullah KHAN,"Boghra Road, Miralzei Village",Individual,SDGT,SDN, ,Pakistan
Haji Faizullah NOOR,"Boghra Road, Miralzei Village",Individual,SDGT,SDN, ,Pakistan
Haji Pazullah NOORZAI,"Boghra Road, Miralzei Village",Individual,SDGT,SDN, ,Pakistan
HAJI FIAZULLAH,"Boghra Road, Miralzei Village",Individual,SDGT,SDN, ,Pakistan
HAJI MULLAH FAIZULLAH,"Boghra Road, Miralzei Village",Individual,SDGT,SDN, ,Pakistan
Abdur REHMAN, ,Individual,SDGT,SDN, ,Pakistan
Abdul REHMAN, ,Individual,SDGT,SDN, ,Pakistan
Abd UR-REHMAN, ,Individual,SDGT,SDN, ,Pakistan
Abdur RAHMAN, ,Individual,SDGT,SDN, ,Pakistan
Abdul Rehman SINDHI, ,Individual,SDGT,SDN, ,Pakistan
Abdul Rehman AL-SINDHI, ,Individual,SDGT,SDN, ,Pakistan
Abdur Rahman AL-SINDHI, ,Individual,SDGT,SDN, ,Pakistan
Abdur Rehman SINDI, ,Individual,SDGT,SDN, ,Pakistan
Abdurahman SINDHI, ,Individual,SDGT,SDN, ,Pakistan
ABDULLAH SINDHI, ,Individual,SDGT,SDN, ,Pakistan
Abdur Rehman Muhammad YAMIN, ,Individual,SDGT,SDN, ,Pakistan
Yassin CHOUKA, ,Individual,SDGT,SDN, ,Pakistan
Yasin CHOUKA, ,Individual,SDGT,SDN, ,Pakistan
ABU IBRAHIM, ,Individual,SDGT,SDN, ,Pakistan
ABU IBRAHEEM THE GERMAN, ,Individual,SDGT,SDN, ,Pakistan
ABU IBRAHIM AL ALMANI, ,Individual,SDGT,SDN, ,Pakistan
Monir CHOUKA, ,Individual,SDGT,SDN, ,Pakistan
ABU ADAM AUS DEUTSCHLAND, ,Individual,SDGT,SDN, ,Pakistan
Mounir CHOUKA, ,Individual,SDGT,SDN, ,Pakistan
ABU ADAM, ,Individual,SDGT,SDN, ,Pakistan
ABU ADAM FROM GERMANY, ,Individual,SDGT,SDN, ,Pakistan
Abdul Samad ACHEKZAI,Balochistan Province,Individual,SDGT,SDN, ,Pakistan
Abdul SAMAD,Balochistan Province,Individual,SDGT,SDN, ,Pakistan
Ibrahim Abdul Razaaq MEMON,"Bldg. No. 21 Room No. 1069, Fisherman Colony Mahim",Individual,SDNTK,SDN, ,Pakistan
Ibrahim Abdul Razak MEMON,"Bldg. No. 21 Room No. 1069, Fisherman Colony Mahim",Individual,SDNTK,SDN, ,Pakistan
TIGER MEMON,"Bldg. No. 21 Room No. 1069, Fisherman Colony Mahim",Individual,SDNTK,SDN, ,Pakistan
MUSHTAQ,"Bldg. No. 21 Room No. 1069, Fisherman Colony Mahim",Individual,SDNTK,SDN, ,Pakistan
MUSTAQ,"Bldg. No. 21 Room No. 1069, Fisherman Colony Mahim",Individual,SDNTK,SDN, ,Pakistan
SIKANDER,"Bldg. No. 21 Room No. 1069, Fisherman Colony Mahim",Individual,SDNTK,SDN, ,Pakistan
Bakht GUL,Miram Shah,Individual,SDGT,SDN, ,Pakistan
Bakhta GUL,Miram Shah,Individual,SDGT,SDN, ,Pakistan
Bakht Gul BAHAR,Miram Shah,Individual,SDGT,SDN, ,Pakistan
SHUQIB,Miram Shah,Individual,SDGT,SDN, ,Pakistan
ROSHAN MONEY EXCHANGE,"Floor 5, Shop 25, Kandahar City Sarafi Market",Entity,SDGT,SDN, ,Pakistan
ROSHAN SHIRKAT,"Floor 5, Shop 25, Kandahar City Sarafi Market",Entity,SDGT,SDN, ,Pakistan
ROSHAN SARAFI,"Floor 5, Shop 25, Kandahar City Sarafi Market",Entity,SDGT,SDN, ,Pakistan
ROSHAN TRADING COMPANY,"Floor 5, Shop 25, Kandahar City Sarafi Market",Entity,SDGT,SDN, ,Pakistan
RUSHAAN TRADING COMPANY,"Floor 5, Shop 25, Kandahar City Sarafi Market",Entity,SDGT,SDN, ,Pakistan
MAULAWI AHMED SHAH HAWALA,"Floor 5, Shop 25, Kandahar City Sarafi Market",Entity,SDGT,SDN, ,Pakistan
MULLAH AHMED SHAH HAWALA,"Floor 5, Shop 25, Kandahar City Sarafi Market",Entity,SDGT,SDN, ,Pakistan
HAJI AHMAD SHAH HAWALA,"Floor 5, Shop 25, Kandahar City Sarafi Market",Entity,SDGT,SDN, ,Pakistan
AHMAD SHAH HAWALA,"Floor 5, Shop 25, Kandahar City Sarafi Market",Entity,SDGT,SDN, ,Pakistan
HAJI KHAIRULLAH HAJI SATTAR MONEY EXCHANGE,"Chohar Mir Road, Qandahari Bazaar",Entity,SDGT,SDN, ,Pakistan
HAJI KHAIRULLAH-HAJI SATTAR SARAFI,"Chohar Mir Road, Qandahari Bazaar",Entity,SDGT,SDN, ,Pakistan
HAJI KHAIRULLAH AND ABDUL SATTAR AND COMPANY,"Chohar Mir Road, Qandahari Bazaar",Entity,SDGT,SDN, ,Pakistan
HAJI KHAIRULLAH MONEY EXCHANGE,"Chohar Mir Road, Qandahari Bazaar",Entity,SDGT,SDN, ,Pakistan
HAJI KHAIR ULLAH MONEY SERVICE,"Chohar Mir Road, Qandahari Bazaar",Entity,SDGT,SDN, ,Pakistan
HAJI SALAM HAWALA,"Chohar Mir Road, Qandahari Bazaar",Entity,SDGT,SDN, ,Pakistan
HAJI HAKIM HAWALA,"Chohar Mir Road, Qandahari Bazaar",Entity,SDGT,SDN, ,Pakistan
HAJI ALIM HAWALA,"Chohar Mir Road, Qandahari Bazaar",Entity,SDGT,SDN, ,Pakistan
Haji Abdul Sattar BARAKZAI,"Kachray Road, Pashtunabad",Individual,SDGT,SDN, ,Pakistan
Haji Abdul Satar Haji Abdul MANAN,"Kachray Road, Pashtunabad",Individual,SDGT,SDN, ,Pakistan
Haji Abdul SATAR,"Kachray Road, Pashtunabad",Individual,SDGT,SDN, ,Pakistan
ABDULASATTAR,"Kachray Road, Pashtunabad",Individual,SDGT,SDN, ,Pakistan
Haji Satar BARAKZAI,"Kachray Road, Pashtunabad",Individual,SDGT,SDN, ,Pakistan
Haji Khairullah BARAKZAI,"Abdul Manan Chowk, Pashtunabad",Individual,SDGT,SDN, ,Pakistan
Haji KHAIRULLAH,"Abdul Manan Chowk, Pashtunabad",Individual,SDGT,SDN, ,Pakistan
Haji Khair ULLAH,"Abdul Manan Chowk, Pashtunabad",Individual,SDGT,SDN, ,Pakistan
Haji KHEIRULLAH,"Abdul Manan Chowk, Pashtunabad",Individual,SDGT,SDN, ,Pakistan
Haji KHERULLAH,"Abdul Manan Chowk, Pashtunabad",Individual,SDGT,SDN, ,Pakistan
Haji KARIMULLAH,"Abdul Manan Chowk, Pashtunabad",Individual,SDGT,SDN, ,Pakistan
Hajji Khair MOHAMMAD,"Abdul Manan Chowk, Pashtunabad",Individual,SDGT,SDN, ,Pakistan
Azzam Abdullah Zureik Al-Maulid AL-SUBHI, ,Individual,SDGT,SDN, ,Pakistan
Azzam AL-SUBHI, ,Individual,SDGT,SDN, ,Pakistan
Mansur AL-HARBI, ,Individual,SDGT,SDN, ,Pakistan
Azam Abdullah Razeeq Al Mouled ALSBHUA, ,Individual,SDGT,SDN, ,Pakistan
Abu Muslem AL-MAKY, ,Individual,SDGT,SDN, ,Pakistan
Abu Suliman AL-HARBI, ,Individual,SDGT,SDN, ,Pakistan
Abu Abdalla AL-HARBI, ,Individual,SDGT,SDN, ,Pakistan
Azam A.R. ALSBHUA, ,Individual,SDGT,SDN, ,Pakistan
Abdullah MUJAHID,Mohallah Markaz Tayyeba Street,Individual,SDGT,SDN, ,Pakistan
Abu ABDALLAH,Mohallah Markaz Tayyeba Street,Individual,SDGT,SDN, ,Pakistan
Amir HAMZA,"Jamia Masjid, al Qadsia, Chauburji Chowk",Individual,SDGT,SDN, ,Pakistan
Maulana Ameer HAMZA,"Jamia Masjid, al Qadsia, Chauburji Chowk",Individual,SDGT,SDN, ,Pakistan
Talha SAEED,"116-E Block, Johar Town",Individual,SDGT,SDN, ,Pakistan
Hafiz Talha SAEED,"116-E Block, Johar Town",Individual,SDGT,SDN, ,Pakistan
Mohammad Talha SAEED,"116-E Block, Johar Town",Individual,SDGT,SDN, ,Pakistan
Tahil SAEED,"116-E Block, Johar Town",Individual,SDGT,SDN, ,Pakistan
HAQQANI NETWORK, ,Entity,"FTO, SDGT",SDN, ,Pakistan
HQN, ,Entity,"FTO, SDGT",SDN, ,Pakistan
Maulawi Adam Khan ACHEKZAI, ,Individual,SDGT,SDN, ,Pakistan
Maulawi Adam KHAN, ,Individual,SDGT,SDN, ,Pakistan
Molawi ADAM, ,Individual,SDGT,SDN, ,Pakistan
Maulawi ADAM, ,Individual,SDGT,SDN, ,Pakistan
Qari Ayyub BASHIR, ,Individual,SDGT,SDN, ,Pakistan
Alhaj Qari Ayub BASHAR, ,Individual,SDGT,SDN, ,Pakistan
Qari Muhammad AYUB, ,Individual,SDGT,SDN, ,Pakistan
Ayob BASHIR, ,Individual,SDGT,SDN, ,Pakistan
Qari ZAKIR, ,Individual,SDGT,SDN, ,Pakistan
Abdul RAUF, ,Individual,SDGT,SDN, ,Pakistan
RAHAT LTD,"Room 33, 5th Floor, Sarafi Market",Entity,SDGT,SDN, ,Pakistan
RAHAT LTD. SARAFI,"Room 33, 5th Floor, Sarafi Market",Entity,SDGT,SDN, ,Pakistan
RAHAT TRADING COMPANY,"Room 33, 5th Floor, Sarafi Market",Entity,SDGT,SDN, ,Pakistan
HAJI MUHAMMAD QASIM SARAFI,"Room 33, 5th Floor, Sarafi Market",Entity,SDGT,SDN, ,Pakistan
HAJI MOHAMMED QASIM HAWALA,"Room 33, 5th Floor, Sarafi Market",Entity,SDGT,SDN, ,Pakistan
NEW CHAGAI TRADING COMPANY,"Room 33, 5th Floor, Sarafi Market",Entity,SDGT,SDN, ,Pakistan
MUSA KALIM HAWALA,"Room 33, 5th Floor, Sarafi Market",Entity,SDGT,SDN, ,Pakistan
Mohammed QASIM, ,Individual,SDGT,SDN, ,Pakistan
Muhammad QASIM, ,Individual,SDGT,SDN, ,Pakistan
Musa KALIM,Chahgay Bazaar,Individual,SDGT,SDN, ,Pakistan
Musa KHALIM,Chahgay Bazaar,Individual,SDGT,SDN, ,Pakistan
Musa Kalim BARICH,Chahgay Bazaar,Individual,SDGT,SDN, ,Pakistan
Mohammed Musa KALIM,Chahgay Bazaar,Individual,SDGT,SDN, ,Pakistan
Musa Khalim ALIZAI,Chahgay Bazaar,Individual,SDGT,SDN, ,Pakistan
Musa QALEM,Chahgay Bazaar,Individual,SDGT,SDN, ,Pakistan
Musa QALIM,Chahgay Bazaar,Individual,SDGT,SDN, ,Pakistan
Musa KHALEEM,Chahgay Bazaar,Individual,SDGT,SDN, ,Pakistan
Musa KALEEM,Chahgay Bazaar,Individual,SDGT,SDN, ,Pakistan
Ahmed Abdullah Saleh al-Khazmari AL-ZAHRANI, ,Individual,SDGT,SDN, ,Pakistan
Abu Maryam AL-SAUDI, ,Individual,SDGT,SDN, ,Pakistan
Abu Maryam AL-ZAHRANI, ,Individual,SDGT,SDN, ,Pakistan
Ahmed Abdullah S AL-ZAHRANI, ,Individual,SDGT,SDN, ,Pakistan
Ahmad Abdullah Salih AL-ZAHRANI, ,Individual,SDGT,SDN, ,Pakistan
Abu Maryam AL-AZADI, ,Individual,SDGT,SDN, ,Pakistan
Ahmed bin Abdullah Saleh BIN AL-ZAHRANI, ,Individual,SDGT,SDN, ,Pakistan
Ahmed Abdullah Saleh al-Zahrani AL-KHOZMRI, ,Individual,SDGT,SDN, ,Pakistan
Mullah Ahmed Shah NOORZAI, ,Individual,SDGT,SDN, ,Pakistan
Haji Ahmad SHAH, ,Individual,SDGT,SDN, ,Pakistan
Haji Mullah Ahmad SHAH, ,Individual,SDGT,SDN, ,Pakistan
Maulawi Ahmed SHAH, ,Individual,SDGT,SDN, ,Pakistan
Mullah Mohammed SHAH, ,Individual,SDGT,SDN, ,Pakistan
COMMANDER NAZIR GROUP, ,Entity,SDGT,SDN, ,Pakistan
MULLAH NAZIR GROUP, ,Entity,SDGT,SDN, ,Pakistan
Malang WAZIR, ,Individual,SDGT,SDN, ,Pakistan
Wali MOHAMMED, ,Individual,SDGT,SDN, ,Pakistan
Malang JAN, ,Individual,SDGT,SDN, ,Pakistan
Haji Kotwal NOORZAI, ,Individual,SDNTK,SDN, ,Pakistan
Haji KHOTWAL, ,Individual,SDNTK,SDN, ,Pakistan
Haji KHOOTWAL, ,Individual,SDNTK,SDN, ,Pakistan
Haji KOOTWAL, ,Individual,SDNTK,SDN, ,Pakistan
'Abd-al-Hamid AL-MASLI,Waziristan,Individual,SDGT,SDN, ,Pakistan
'Abd-al-Hamid MUSALLI,Waziristan,Individual,SDGT,SDN, ,Pakistan
'Abd al-Hamid Muhammad 'Abd al-Hamid AL-MASLI,Waziristan,Individual,SDGT,SDN, ,Pakistan
Hamid MASLI,Waziristan,Individual,SDGT,SDN, ,Pakistan
Hamza AL-DARNAWI,Waziristan,Individual,SDGT,SDN, ,Pakistan
Hamzah AL-DARNAWI,Waziristan,Individual,SDGT,SDN, ,Pakistan
Hamza DARNAWI,Waziristan,Individual,SDGT,SDN, ,Pakistan
Hamzah DARNAWI,Waziristan,Individual,SDGT,SDN, ,Pakistan
Hamzah DIRNAWI,Waziristan,Individual,SDGT,SDN, ,Pakistan
Hamza DARNAVI,Waziristan,Individual,SDGT,SDN, ,Pakistan
Hamza AL-DARNAVI,Waziristan,Individual,SDGT,SDN, ,Pakistan
Abdullah DARNAWI,Waziristan,Individual,SDGT,SDN, ,Pakistan
Abu-Hamzah AL-DARNAWI,Waziristan,Individual,SDGT,SDN, ,Pakistan
Bahawal KHAN, ,Individual,SDGT,SDN, ,Pakistan
Salahuddin AYUBI, ,Individual,SDGT,SDN, ,Pakistan
Umar Siddique Kathio AZMARAI, ,Individual,SDGT,SDN, ,Pakistan
Muhammad Umar Sidduque KATIO, ,Individual,SDGT,SDN, ,Pakistan
Umar Kathio CHANDIO, ,Individual,SDGT,SDN, ,Pakistan
Omar CHANDYO, ,Individual,SDGT,SDN, ,Pakistan
Umar CHANDUO, ,Individual,SDGT,SDN, ,Pakistan
Muhammad Umar KATHIO, ,Individual,SDGT,SDN, ,Pakistan
Abdallah AL-SINDHI, ,Individual,SDGT,SDN, ,Pakistan
'Abdallah SINDHI, ,Individual,SDGT,SDN, ,Pakistan
Abdullah AL-SINDHI, ,Individual,SDGT,SDN, ,Pakistan
Abdullah AL-SINDI, ,Individual,SDGT,SDN, ,Pakistan
Muhammad OMER, ,Individual,SDGT,SDN, ,Pakistan
Muhammad UMAR, ,Individual,SDGT,SDN, ,Pakistan
JAMIA TALEEM-UL-QURAN-WAL-HADITH MADRASSA,"Gunj Gate, Phandu Road",Entity,SDGT,SDN, ,Pakistan
GANJ MADRASSA,"Gunj Gate, Phandu Road",Entity,SDGT,SDN, ,Pakistan
JAMIA MADRASSA DUR UL KORAN WASUNA,"Gunj Gate, Phandu Road",Entity,SDGT,SDN, ,Pakistan
MADRASA TALEEMUL QURAN WAL HADITH,"Gunj Gate, Phandu Road",Entity,SDGT,SDN, ,Pakistan
MADRASA TALEEMUL QURAN WAL SUNNAH,"Gunj Gate, Phandu Road",Entity,SDGT,SDN, ,Pakistan
TALALIM QURAN MADRASSA,"Gunj Gate, Phandu Road",Entity,SDGT,SDN, ,Pakistan
TALEEM UL-QURAN MADRASSA,"Gunj Gate, Phandu Road",Entity,SDGT,SDN, ,Pakistan
MAWIYA MADRASSA,"Gunj Gate, Phandu Road",Entity,SDGT,SDN, ,Pakistan
TASIN AL-QURAN ABU HAMZA,"Gunj Gate, Phandu Road",Entity,SDGT,SDN, ,Pakistan
MOW-YA MADRASSA,"Gunj Gate, Phandu Road",Entity,SDGT,SDN, ,Pakistan
GANJOO MADRASSA,"Gunj Gate, Phandu Road",Entity,SDGT,SDN, ,Pakistan
Qari SAIFULLAH, ,Individual,SDGT,SDN, ,Pakistan
Qari Saifullah AL TOKHI, ,Individual,SDGT,SDN, ,Pakistan
Qari SAHAB, ,Individual,SDGT,SDN, ,Pakistan
Shaikh Anis Ibrahim KASKAR, ,Individual,SDNTK,SDN, ,Pakistan
Anees Ibrahim KASKAR, ,Individual,SDNTK,SDN, ,Pakistan
Sayed Omar Haji EBRAHIM, ,Individual,SDNTK,SDN, ,Pakistan
Haji Anees IBRAHIM, ,Individual,SDNTK,SDN, ,Pakistan
Yahya HAQQANI,The Haqqani Madrassa Compound,Individual,SDGT,SDN, ,Pakistan
Yaya HAQQANI,The Haqqani Madrassa Compound,Individual,SDGT,SDN, ,Pakistan
Yahyah HAQQANI,The Haqqani Madrassa Compound,Individual,SDGT,SDN, ,Pakistan
HAROON,The Haqqani Madrassa Compound,Individual,SDGT,SDN, ,Pakistan
Malik ISHAQ, ,Individual,SDGT,SDN, ,Pakistan
Mohammed ISHAQ, ,Individual,SDGT,SDN, ,Pakistan
Malik Mohammed ISHAQ, ,Individual,SDGT,SDN, ,Pakistan
Muhammad Hussein GILL,4-Lake Road,Individual,SDGT,SDN, ,Pakistan
Muhammad Hussain GILL,4-Lake Road,Individual,SDGT,SDN, ,Pakistan
Abdul WAFA,4-Lake Road,Individual,SDGT,SDN, ,Pakistan
Abu UL-WAFA,4-Lake Road,Individual,SDGT,SDN, ,Pakistan
Yahya Abu AL WAFA,4-Lake Road,Individual,SDGT,SDN, ,Pakistan
HAJI BASIR AND ZARJMIL COMPANY HAWALA,"Sanatan (variant Sanatin) Bazaar, Sanatan Bazaar Street, near Trench (variant Tranch) Road",Entity,SDGT,SDN, ,Pakistan
HAJI BASHIR AND ZARJMIL HAWALA COMPANY,"Sanatan (variant Sanatin) Bazaar, Sanatan Bazaar Street, near Trench (variant Tranch) Road",Entity,SDGT,SDN, ,Pakistan
HAJI ABDUL BASIR AND ZAR JAMEEL HAWALA,"Sanatan (variant Sanatin) Bazaar, Sanatan Bazaar Street, near Trench (variant Tranch) Road",Entity,SDGT,SDN, ,Pakistan
HAJI BASIR HAWALA,"Sanatan (variant Sanatin) Bazaar, Sanatan Bazaar Street, near Trench (variant Tranch) Road",Entity,SDGT,SDN, ,Pakistan
HAJI BASEER HAWALA,"Sanatan (variant Sanatin) Bazaar, Sanatan Bazaar Street, near Trench (variant Tranch) Road",Entity,SDGT,SDN, ,Pakistan
HAJI ABDUL BASIR EXCHANGE SHOP,"Sanatan (variant Sanatin) Bazaar, Sanatan Bazaar Street, near Trench (variant Tranch) Road",Entity,SDGT,SDN, ,Pakistan
HAJI BASIR AND ZARJAMIL CURRENCY EXCHANGE,"Sanatan (variant Sanatin) Bazaar, Sanatan Bazaar Street, near Trench (variant Tranch) Road",Entity,SDGT,SDN, ,Pakistan
HAJI ABDUL BASEER MONEY CHANGER HAJI ZAR JAMIL,"Sanatan (variant Sanatin) Bazaar, Sanatan Bazaar Street, near Trench (variant Tranch) Road",Entity,SDGT,SDN, ,Pakistan
Haji Abdul BASIR, ,Individual,SDGT,SDN, ,Pakistan
Haji 'ABD AL-BASIR, ,Individual,SDGT,SDN, ,Pakistan
Haji Basir NOORZAI, ,Individual,SDGT,SDN, ,Pakistan
Abdul BASEER, ,Individual,SDGT,SDN, ,Pakistan
Abdal BASIR, ,Individual,SDGT,SDN, ,Pakistan
ASMA MONEY EXCHANGERS,"Shop #2, Saddiq Plaza, Near Regal Chowk, Shahrah-e-Quaid-e-Azam",Entity,SDGT,SDN, ,Pakistan
ASMA AUTHORISED MONEY EXCHANGERS,"Shop #2, Saddiq Plaza, Near Regal Chowk, Shahrah-e-Quaid-e-Azam",Entity,SDGT,SDN, ,Pakistan
ASMA MONEY CHANGERS,"Shop #2, Saddiq Plaza, Near Regal Chowk, Shahrah-e-Quaid-e-Azam",Entity,SDGT,SDN, ,Pakistan
ASMA MONEY EXCHANGER'S,"Shop #2, Saddiq Plaza, Near Regal Chowk, Shahrah-e-Quaid-e-Azam",Entity,SDGT,SDN, ,Pakistan
Fazl-ur Rehman KHALIL,"Kheyaban Sir Sayed, Street Two, Sector B27",Individual,SDGT,SDN, ,Pakistan
Fazlur Rehman KHALIL,"Kheyaban Sir Sayed, Street Two, Sector B27",Individual,SDGT,SDN, ,Pakistan
Fazl ur-Rahman KHALIL,"Kheyaban Sir Sayed, Street Two, Sector B27",Individual,SDGT,SDN, ,Pakistan
Faisal Rahman KHALIL,"Kheyaban Sir Sayed, Street Two, Sector B27",Individual,SDGT,SDN, ,Pakistan
Muhammad Naeem SHEIKH,"122 Ahmed Block, New Garden Town",Individual,SDGT,SDN, ,Pakistan
Mohammad Nayeem SHEIKH,"122 Ahmed Block, New Garden Town",Individual,SDGT,SDN, ,Pakistan
Sheikh NAEEM,"122 Ahmed Block, New Garden Town",Individual,SDGT,SDN, ,Pakistan
Muhammad NAEEM,"122 Ahmed Block, New Garden Town",Individual,SDGT,SDN, ,Pakistan
Shaikh NAIM,"122 Ahmed Block, New Garden Town",Individual,SDGT,SDN, ,Pakistan
ABDUL HAMEED SHAHAB-UD-DIN,2-Chamberlain Road,Entity,SDGT,SDN, ,Pakistan
ABDUL HAMEED SHAHAB-U-DIN,2-Chamberlain Road,Entity,SDGT,SDN, ,Pakistan
ABDUL HAMEED SHAHABUDDIN,2-Chamberlain Road,Entity,SDGT,SDN, ,Pakistan
ABDUL HAMEED SHAHABUDDAIN,2-Chamberlain Road,Entity,SDGT,SDN, ,Pakistan
Umair Naeem SHEIKH,"112 Ahmed Block, New Garden Town",Individual,SDGT,SDN, ,Pakistan
Umair NAEEM,"112 Ahmed Block, New Garden Town",Individual,SDGT,SDN, ,Pakistan
NIA INTERNATIONAL,69 Circular Road,Entity,SDGT,SDN, ,Pakistan
MEHRAN PAPER MILL,"F-11, S.I.T.E.",Entity,SDNTK,SDN, ,Pakistan
Abdul RASHID BALUCH, ,Individual,SDGT,SDN, ,Pakistan
Abdul RASHID BALOCH, ,Individual,SDGT,SDN, ,Pakistan
Mullah Abdul RASHID, ,Individual,SDGT,SDN, ,Pakistan
Abdul RASHID BAHRAWI, ,Individual,SDGT,SDN, ,Pakistan
Qari Abdul RASHID, ,Individual,SDGT,SDN, ,Pakistan
Hafiz Abdul RASHID, ,Individual,SDGT,SDN, ,Pakistan
Abdul RASHID, ,Individual,SDGT,SDN, ,Pakistan
ALTAF KHANANI MONEY LAUNDERING ORGANIZATION, ,Entity,TCO,SDN, ,Pakistan
ISIL KHORASAN, ,Entity,"FTO, SDGT",SDN, ,Pakistan
ISLAMIC STATE'S KHORASAN PROVINCE, ,Entity,"FTO, SDGT",SDN, ,Pakistan
ISIS WILAYAT KHORASAN, ,Entity,"FTO, SDGT",SDN, ,Pakistan
ISIL'S SOUTH ASIA BRANCH, ,Entity,"FTO, SDGT",SDN, ,Pakistan
SOUTH ASIAN CHAPTER OF ISIL, ,Entity,"FTO, SDGT",SDN, ,Pakistan
Torek AGHA,Pashtunabad,Individual,SDGT,SDN, ,Pakistan
Sayed Mohammad HASHAN,Pashtunabad,Individual,SDGT,SDN, ,Pakistan
Torak AGHA,Pashtunabad,Individual,SDGT,SDN, ,Pakistan
Toriq AGHA,Pashtunabad,Individual,SDGT,SDN, ,Pakistan
Toriq Agha SAYED,Pashtunabad,Individual,SDGT,SDN, ,Pakistan
Abdul Aziz NURISTANI,Takal region,Individual,SDGT,SDN, ,Pakistan
Abdul Aziz NOORISTANI,Takal region,Individual,SDGT,SDN, ,Pakistan
'Abd al-Aziz AL-NURISTANI,Takal region,Individual,SDGT,SDN, ,Pakistan
Abdul Aziz AL-NURISTANI,Takal region,Individual,SDGT,SDN, ,Pakistan
Abdul Aziz-e NURISTANI,Takal region,Individual,SDGT,SDN, ,Pakistan
Abdul AZIZ,Takal region,Individual,SDGT,SDN, ,Pakistan
Abd AL-'AZIZ,Takal region,Individual,SDGT,SDN, ,Pakistan
Abdullah AZIZ,Takal region,Individual,SDGT,SDN, ,Pakistan
JAMIA ASARIYA MADRASSA,"Inqilab Road, Village Chamkani",Entity,SDGT,SDN, ,Pakistan
AL JAMIA AL ASARIA,"Inqilab Road, Village Chamkani",Entity,SDGT,SDN, ,Pakistan
JAMIYYA ASRIYYA,"Inqilab Road, Village Chamkani",Entity,SDGT,SDN, ,Pakistan
JAMIA ASSARIA MADRASSA,"Inqilab Road, Village Chamkani",Entity,SDGT,SDN, ,Pakistan
JAMIA AL-ASSARIA MADRASSA,"Inqilab Road, Village Chamkani",Entity,SDGT,SDN, ,Pakistan
JAMEAT-UL ASRYA MADRASSA,"Inqilab Road, Village Chamkani",Entity,SDGT,SDN, ,Pakistan
JAMAH-YE SARYA MADRASSA,"Inqilab Road, Village Chamkani",Entity,SDGT,SDN, ,Pakistan
AL JAMATUL ASARYAH MADRASSA,"Inqilab Road, Village Chamkani",Entity,SDGT,SDN, ,Pakistan
JAMEHA-E-AL AHSERYA MADRASSA,"Inqilab Road, Village Chamkani",Entity,SDGT,SDN, ,Pakistan
AL JAMIAH AL ASARIA MADRASSA,"Inqilab Road, Village Chamkani",Entity,SDGT,SDN, ,Pakistan
JAMIA ASRIYA MADRASSA,"Inqilab Road, Village Chamkani",Entity,SDGT,SDN, ,Pakistan
AL-JAMAHATUL ASREYA MADRASSA,"Inqilab Road, Village Chamkani",Entity,SDGT,SDN, ,Pakistan
AL-JAMIA AL-ASARIA MADRASSA,"Inqilab Road, Village Chamkani",Entity,SDGT,SDN, ,Pakistan
JAMA'AT UL-SARIA MOSQUE,"Inqilab Road, Village Chamkani",Entity,SDGT,SDN, ,Pakistan
JAMIAE HAZAREA MADRASSA,"Inqilab Road, Village Chamkani",Entity,SDGT,SDN, ,Pakistan
MADRASSA JAMIA AL-ASRIA,"Inqilab Road, Village Chamkani",Entity,SDGT,SDN, ,Pakistan
MADRASSA TALIM QURAN USONA,"Inqilab Road, Village Chamkani",Entity,SDGT,SDN, ,Pakistan
James Alexander MCLINTOCK,"House 6B, Street 40,, Sector F-10/4",Individual,SDGT,SDN, ,Pakistan
James Alexander MCLINTOK,"House 6B, Street 40,, Sector F-10/4",Individual,SDGT,SDN, ,Pakistan
Yaqoob Mansoor AL RASHIDI,"House 6B, Street 40,, Sector F-10/4",Individual,SDGT,SDN, ,Pakistan
Yaqub Mansoor AL-RASHIDI,"House 6B, Street 40,, Sector F-10/4",Individual,SDGT,SDN, ,Pakistan
Yaqoob Mansoor UR RASHIDI,"House 6B, Street 40,, Sector F-10/4",Individual,SDGT,SDN, ,Pakistan
Yaqub MANSOOR,"House 6B, Street 40,, Sector F-10/4",Individual,SDGT,SDN, ,Pakistan
Mohammad Yaqub AL-RASHIDI,"House 6B, Street 40,, Sector F-10/4",Individual,SDGT,SDN, ,Pakistan
Muhammad YAQOOB,"House 6B, Street 40,, Sector F-10/4",Individual,SDGT,SDN, ,Pakistan
Muhammad Qari Maulana YAQUB,"House 6B, Street 40,, Sector F-10/4",Individual,SDGT,SDN, ,Pakistan
Yaqub MCLINTOCK,"House 6B, Street 40,, Sector F-10/4",Individual,SDGT,SDN, ,Pakistan
Yakoob MACCLINTOCK,"House 6B, Street 40,, Sector F-10/4",Individual,SDGT,SDN, ,Pakistan
Yaqub MOHAMMED,"House 6B, Street 40,, Sector F-10/4",Individual,SDGT,SDN, ,Pakistan
Qari YACUB,"House 6B, Street 40,, Sector F-10/4",Individual,SDGT,SDN, ,Pakistan
Qari YAQOOB,"House 6B, Street 40,, Sector F-10/4",Individual,SDGT,SDN, ,Pakistan
Qari YACOUB,"House 6B, Street 40,, Sector F-10/4",Individual,SDGT,SDN, ,Pakistan
Qari YAQUB,"House 6B, Street 40,, Sector F-10/4",Individual,SDGT,SDN, ,Pakistan
Qari YAKUB,"House 6B, Street 40,, Sector F-10/4",Individual,SDGT,SDN, ,Pakistan
Qari AL SCOTLANDI,"House 6B, Street 40,, Sector F-10/4",Individual,SDGT,SDN, ,Pakistan
Abu Abdullah AL-SKOTLANDI,"House 6B, Street 40,, Sector F-10/4",Individual,SDGT,SDN, ,Pakistan
AL RAHMAH WELFARE ORGANIZATION,"House A, Street 40,, Sector F-10/4",Entity,SDGT,SDN, ,Pakistan
AR RAHMAH WELFARE ORGANIZATION,"House A, Street 40,, Sector F-10/4",Entity,SDGT,SDN, ,Pakistan
AL RAHMAH WELFARE ORGANISATION,"House A, Street 40,, Sector F-10/4",Entity,SDGT,SDN, ,Pakistan
ALRAHMAH WELFARE ORGANISATION,"House A, Street 40,, Sector F-10/4",Entity,SDGT,SDN, ,Pakistan
AR-RAHMAH WELFARE ORGANISATION,"House A, Street 40,, Sector F-10/4",Entity,SDGT,SDN, ,Pakistan
AL RAHMAN WELFARE ORGANISATION,"House A, Street 40,, Sector F-10/4",Entity,SDGT,SDN, ,Pakistan
AR RAHMA WELFARE TRUST,"House A, Street 40,, Sector F-10/4",Entity,SDGT,SDN, ,Pakistan
AR-RAHMA WELFARE ORGANISATION,"House A, Street 40,, Sector F-10/4",Entity,SDGT,SDN, ,Pakistan
AR RAMMA WELFARE ORGANISATION,"House A, Street 40,, Sector F-10/4",Entity,SDGT,SDN, ,Pakistan
AR-RAHNA WELFARE ORGANISATION,"House A, Street 40,, Sector F-10/4",Entity,SDGT,SDN, ,Pakistan
AL-REHMAH WELFARE ORGANIZATION,"House A, Street 40,, Sector F-10/4",Entity,SDGT,SDN, ,Pakistan
ALRAHMAH WELFARE ORG,"House A, Street 40,, Sector F-10/4",Entity,SDGT,SDN, ,Pakistan
AR-RAHMAN WELFARE ORGANIZATION,"House A, Street 40,, Sector F-10/4",Entity,SDGT,SDN, ,Pakistan
AL RAHMAN WELFARE FOUNDATION,"House A, Street 40,, Sector F-10/4",Entity,SDGT,SDN, ,Pakistan
AL RAHMAN ORGANIZATION,"House A, Street 40,, Sector F-10/4",Entity,SDGT,SDN, ,Pakistan
RWO,"House A, Street 40,, Sector F-10/4",Entity,SDGT,SDN, ,Pakistan
SCOTPAK BUILD PVT LTD,"House A, Street 40,, Sector F-10/4",Entity,SDGT,SDN, ,Pakistan
Naveed QAMAR,"Flat #R9, Nauman Grand Sati, Gulistan Johar, Block 17, Karachi Sharqi",Individual,SDGT,SDN, ,Pakistan
Naved QAMAR,"Flat #R9, Nauman Grand Sati, Gulistan Johar, Block 17, Karachi Sharqi",Individual,SDGT,SDN, ,Pakistan
Navid QAMAR,"Flat #R9, Nauman Grand Sati, Gulistan Johar, Block 17, Karachi Sharqi",Individual,SDGT,SDN, ,Pakistan
Naveed Qamar KHAN,"Flat #R9, Nauman Grand Sati, Gulistan Johar, Block 17, Karachi Sharqi",Individual,SDGT,SDN, ,Pakistan
Nuwayd QAMAR,"Flat #R9, Nauman Grand Sati, Gulistan Johar, Block 17, Karachi Sharqi",Individual,SDGT,SDN, ,Pakistan
TARIQ GIDAR GROUP, ,Entity,SDGT,SDN, ,Pakistan
TGG, ,Entity,SDGT,SDN, ,Pakistan
TEHRIK-E-TALIBAN-TARIQ GIDAR GROUP, ,Entity,SDGT,SDN, ,Pakistan
TTP-TARIQ GIDAR GROUP, ,Entity,SDGT,SDN, ,Pakistan
TEHREEK-I-TALIBAN PAKISTAN GEEDAR GROUP, ,Entity,SDGT,SDN, ,Pakistan
TTP GEEDAR GROUP, ,Entity,SDGT,SDN, ,Pakistan
TARIQ GEEDAR GROUP, ,Entity,SDGT,SDN, ,Pakistan
COMMANDER TARIQ AFRIDI GROUP, ,Entity,SDGT,SDN, ,Pakistan
TARIQ AFRIDI GROUP, ,Entity,SDGT,SDN, ,Pakistan
TARIQ GIDAR AFRIDI GROUP, ,Entity,SDGT,SDN, ,Pakistan
THE ASIAN TIGERS, ,Entity,SDGT,SDN, ,Pakistan
Hozaifa Javed KHANANI,"House No D-85 Block 5, Clifton",Individual,TCO,SDN, ,Pakistan
Huzaifa Jawed KHANANI,"House No D-85 Block 5, Clifton",Individual,TCO,SDN, ,Pakistan
KAY ZONE BUILDERS & DEVELOPERS,"House #D-85, Block-5, Clifton",Entity,TCO,SDN, ,Pakistan
KAY ZONE BUILDERS AND DEVELOPERS,"House #D-85, Block-5, Clifton",Entity,TCO,SDN, ,Pakistan
LANDTEK DEVELOPERS,"5th Floor, Emerald Tower, G-19, Block-5, Clifton Road, Clifton",Entity,TCO,SDN, ,Pakistan
UNICO TEXTILES,"S.f. Unit #5, Hub River Road, S.I.T.E.",Entity,TCO,SDN, ,Pakistan
Muhammad Javed KHANANI,"D-85 Block, Clifton",Individual,TCO,SDN, ,Pakistan
Javed KHANANI,"D-85 Block, Clifton",Individual,TCO,SDN, ,Pakistan
Javaid KHANANI,"D-85 Block, Clifton",Individual,TCO,SDN, ,Pakistan
Javeed KHANANI,"D-85 Block, Clifton",Individual,TCO,SDN, ,Pakistan
Javed Muhammad KHANANI,"D-85 Block, Clifton",Individual,TCO,SDN, ,Pakistan
Atif POLANI,"D-31, Block-5, Clifton",Individual,TCO,SDN, ,Pakistan
Atif Abdul Aziz POLANI,"D-31, Block-5, Clifton",Individual,TCO,SDN, ,Pakistan
AL-QA'IDA IN THE INDIAN SUBCONTINENT, ,Entity,"FTO, SDGT",SDN, ,Pakistan
AL-QAEDA IN THE INDIAN SUBCONTINENT, ,Entity,"FTO, SDGT",SDN, ,Pakistan
QAEDAT AL-JIHAD IN THE INDIAN SUBCONTINENT, ,Entity,"FTO, SDGT",SDN, ,Pakistan
Asim UMAR, ,Individual,SDGT,SDN, ,Pakistan
Asim UMER, ,Individual,SDGT,SDN, ,Pakistan
Sanaul HAQ, ,Individual,SDGT,SDN, ,Pakistan
JAMAAT-UL-AHRAR, ,Entity,SDGT,SDN, ,Pakistan
JUA, ,Entity,SDGT,SDN, ,Pakistan
JAMAATUL AHRAR, ,Entity,SDGT,SDN, ,Pakistan
JAMAATUL-AHRAR, ,Entity,SDGT,SDN, ,Pakistan
JAMAT-UL-AHRAR, ,Entity,SDGT,SDN, ,Pakistan
AAFIA SIDDIQUE BRIGADE, ,Entity,SDGT,SDN, ,Pakistan
JAMAAT-E-AHRAR, ,Entity,SDGT,SDN, ,Pakistan
JAMATUL AHRAR, ,Entity,SDGT,SDN, ,Pakistan
TEHREEK-I-TALIBAN JAMAAT-UL-AHRAR, ,Entity,SDGT,SDN, ,Pakistan
TEHRIK-E-TALIBAN PAKISTAN JAMAAT-E-AHRAR, ,Entity,SDGT,SDN, ,Pakistan
JAMAAT-UL-AHRAR TTP, ,Entity,SDGT,SDN, ,Pakistan
TTP-JA, ,Entity,SDGT,SDN, ,Pakistan
TTP-JUA, ,Entity,SDGT,SDN, ,Pakistan
Muhammad SARWAR, ,Individual,SDGT,SDN, ,Pakistan
ABU HASHIM, ,Individual,SDGT,SDN, ,Pakistan
Abdul HASHIM, ,Individual,SDGT,SDN, ,Pakistan
Abul HASHIM, ,Individual,SDGT,SDN, ,Pakistan
ABU UL-HASHIM, ,Individual,SDGT,SDN, ,Pakistan
Abul Hashim RABBANI, ,Individual,SDGT,SDN, ,Pakistan
ABU ALI HASHIM, ,Individual,SDGT,SDN, ,Pakistan
Shahid MAHMOOD, ,Individual,SDGT,SDN, ,Pakistan
Shahid MEHMOUD, ,Individual,SDGT,SDN, ,Pakistan
Shahid Mahmood REHMATULLAH, ,Individual,SDGT,SDN, ,Pakistan
Shaheed MEHMOOD, ,Individual,SDGT,SDN, ,Pakistan
Shahid Mehmood Manzoor AHMED, ,Individual,SDGT,SDN, ,Pakistan
Ali Muhammad Abu TURAB,"Jamia Salfia, Airport Road",Individual,SDGT,SDN, ,Pakistan
Ali Mohammed Abu TURAB,"Jamia Salfia, Airport Road",Individual,SDGT,SDN, ,Pakistan
Ali Mohammad Abu TORAB,"Jamia Salfia, Airport Road",Individual,SDGT,SDN, ,Pakistan
Ali Mohammad Abu TURAB,"Jamia Salfia, Airport Road",Individual,SDGT,SDN, ,Pakistan
Ali Muhammad ABUTURAB,"Jamia Salfia, Airport Road",Individual,SDGT,SDN, ,Pakistan
Ali Mohammad Abutorab Noor MOHAMMAD,"Jamia Salfia, Airport Road",Individual,SDGT,SDN, ,Pakistan
Ali Mohd Abutorab Noor MOHD,"Jamia Salfia, Airport Road",Individual,SDGT,SDN, ,Pakistan
Ali Mohammad Noor MOHAMMAD,"Jamia Salfia, Airport Road",Individual,SDGT,SDN, ,Pakistan
Ali Muhammed Noor MUHAMMED,"Jamia Salfia, Airport Road",Individual,SDGT,SDN, ,Pakistan
Abu Ali TORAB,"Jamia Salfia, Airport Road",Individual,SDGT,SDN, ,Pakistan
Abu Turab Ali MUHAMMAD,"Jamia Salfia, Airport Road",Individual,SDGT,SDN, ,Pakistan
Ali MOHAMMED,"Jamia Salfia, Airport Road",Individual,SDGT,SDN, ,Pakistan
Abu TURAB,"Jamia Salfia, Airport Road",Individual,SDGT,SDN, ,Pakistan
Inayat ur RAHMAN,Saidabad Pajagi Road,Individual,SDGT,SDN, ,Pakistan
Inayat-ur- RAHMAN,Saidabad Pajagi Road,Individual,SDGT,SDN, ,Pakistan
Inayat ur REHMAN,Saidabad Pajagi Road,Individual,SDGT,SDN, ,Pakistan
Anayat ur RAHMAN,Saidabad Pajagi Road,Individual,SDGT,SDN, ,Pakistan
'Inayat al-Rahman bin Sheikh Jamil AL-RAHMAN,Saidabad Pajagi Road,Individual,SDGT,SDN, ,Pakistan
Inayat al Rahman bin Sheikh Jamil AL RAHMAN,Saidabad Pajagi Road,Individual,SDGT,SDN, ,Pakistan
'Inayat al-Rahman Bin al-Sheikh Jamil AL-RAHMAN,Saidabad Pajagi Road,Individual,SDGT,SDN, ,Pakistan
Inayat al-Rahman JAMIL,Saidabad Pajagi Road,Individual,SDGT,SDN, ,Pakistan
Inayatullah ur-Rahman JALIL,Saidabad Pajagi Road,Individual,SDGT,SDN, ,Pakistan
Enayetul Rahman JAMIL,Saidabad Pajagi Road,Individual,SDGT,SDN, ,Pakistan
'Anayet el-Rahman JAMEAL,Saidabad Pajagi Road,Individual,SDGT,SDN, ,Pakistan
Anayatullah RAHMAN,Saidabad Pajagi Road,Individual,SDGT,SDN, ,Pakistan
Anyat UR-RAHMAN,Saidabad Pajagi Road,Individual,SDGT,SDN, ,Pakistan
ANAYATURAHMAN,Saidabad Pajagi Road,Individual,SDGT,SDN, ,Pakistan
Inayat REHMAN,Saidabad Pajagi Road,Individual,SDGT,SDN, ,Pakistan
Inayatullah RAHMAN,Saidabad Pajagi Road,Individual,SDGT,SDN, ,Pakistan
Inayat-u- RAHMAN,Saidabad Pajagi Road,Individual,SDGT,SDN, ,Pakistan
'Inayat AL-RAHMAN,Saidabad Pajagi Road,Individual,SDGT,SDN, ,Pakistan
Enayat al-Rahman JAMIL,Saidabad Pajagi Road,Individual,SDGT,SDN, ,Pakistan
Enayatullah RAHMAN,Saidabad Pajagi Road,Individual,SDGT,SDN, ,Pakistan
Inayat JAMEEL,Saidabad Pajagi Road,Individual,SDGT,SDN, ,Pakistan
Enayaturrahman JAMIL,Saidabad Pajagi Road,Individual,SDGT,SDN, ,Pakistan
INAYATURRAHMAN,Saidabad Pajagi Road,Individual,SDGT,SDN, ,Pakistan
INAYATURAHMAN,Saidabad Pajagi Road,Individual,SDGT,SDN, ,Pakistan
Jamil Inayat UR-RAHMAN,Saidabad Pajagi Road,Individual,SDGT,SDN, ,Pakistan
Enayat al RAHMAN,Saidabad Pajagi Road,Individual,SDGT,SDN, ,Pakistan
Enayat UR-RAHMAN,Saidabad Pajagi Road,Individual,SDGT,SDN, ,Pakistan
AINAYATURAHMAN,Saidabad Pajagi Road,Individual,SDGT,SDN, ,Pakistan
Inayatu RAHMAN,Saidabad Pajagi Road,Individual,SDGT,SDN, ,Pakistan
Anayat UR-RAHMAN,Saidabad Pajagi Road,Individual,SDGT,SDN, ,Pakistan
WELFARE AND DEVELOPMENT ORGANIZATION OF JAMAAT-UD-DAWAH FOR QUR'AN AND SUNNAH,"P.O. Box 1202, Badhi Road, Chamkani",Entity,SDGT,SDN, ,Pakistan
WELFARE AND DEVELOPMENT ORGANIZATION OF JAMA'AT AL-DA'WAH ILA AL-QUR'AN WA-AL-SUNNAH,"P.O. Box 1202, Badhi Road, Chamkani",Entity,SDGT,SDN, ,Pakistan
WELFARE AND DEVELOPMENT ORGANIZATION OF JAMA'AT AL-DA'WAH LI-L-QUR'AN WA-L-SUNNA,"P.O. Box 1202, Badhi Road, Chamkani",Entity,SDGT,SDN, ,Pakistan
WELFARE AND DEVELOPMENT ORGANIZATION OF ADVOCACY GROUP TO THE KORAN AND SUNNAH,"P.O. Box 1202, Badhi Road, Chamkani",Entity,SDGT,SDN, ,Pakistan
WELFARE AND DEVELOPMENT ORGANIZATION OF THE GROUP FOR THE CALL TO QUR'AN AND SUNNAH,"P.O. Box 1202, Badhi Road, Chamkani",Entity,SDGT,SDN, ,Pakistan
WELFARE AND DEVELOPMENT ORGANIZATION,"P.O. Box 1202, Badhi Road, Chamkani",Entity,SDGT,SDN, ,Pakistan
WELFARE & DEVELOPMENT ORGANIZATION,"P.O. Box 1202, Badhi Road, Chamkani",Entity,SDGT,SDN, ,Pakistan
M/S WELFARE & DEVELOPMENT ORGANIZATION,"P.O. Box 1202, Badhi Road, Chamkani",Entity,SDGT,SDN, ,Pakistan
WELFARE AND DEVELOPMENT ORG,"P.O. Box 1202, Badhi Road, Chamkani",Entity,SDGT,SDN, ,Pakistan
WELFARE AND DEVELOPMENT ORGANIZATION IN PAKISTAN,"P.O. Box 1202, Badhi Road, Chamkani",Entity,SDGT,SDN, ,Pakistan
WELFARE AND DEVELOPMENT ORGANIZATION IN AFGHANISTAN,"P.O. Box 1202, Badhi Road, Chamkani",Entity,SDGT,SDN, ,Pakistan
AL-MUNADDAMA AL-KAIRYIA LIL-TANMIYA OF JAMA'AT AL-DA'WAH ILA AL-QUR'AN WA-AL-SUNNAH,"P.O. Box 1202, Badhi Road, Chamkani",Entity,SDGT,SDN, ,Pakistan
AL-MUNADAMA AL-KHAYRIA LILTANMIA,"P.O. Box 1202, Badhi Road, Chamkani",Entity,SDGT,SDN, ,Pakistan
WDO,"P.O. Box 1202, Badhi Road, Chamkani",Entity,SDGT,SDN, ,Pakistan
MASHARIA AL-KHAYRIA,"P.O. Box 1202, Badhi Road, Chamkani",Entity,SDGT,SDN, ,Pakistan
MASHARYA AL-KHAIRYA,"P.O. Box 1202, Badhi Road, Chamkani",Entity,SDGT,SDN, ,Pakistan
Hayat Ullah Ghulam MUHAMMAD,"Saeedabad, Pagi Road",Individual,SDGT,SDN, ,Pakistan
Haji HAYATULLAH,"Saeedabad, Pagi Road",Individual,SDGT,SDN, ,Pakistan
Haji HAYAATULLAH,"Saeedabad, Pagi Road",Individual,SDGT,SDN, ,Pakistan
Haji HAYATOLLAH,"Saeedabad, Pagi Road",Individual,SDGT,SDN, ,Pakistan
Haji HIYATULLAH,"Saeedabad, Pagi Road",Individual,SDGT,SDN, ,Pakistan
Mohammad Yusuf SHAH, ,Individual,SDGT,SDN, ,Pakistan
Mohd Yusuf SHAH, ,Individual,SDGT,SDN, ,Pakistan
Mohammad Yousuf SHAH, ,Individual,SDGT,SDN, ,Pakistan
Mohd Yousuf SHAH, ,Individual,SDGT,SDN, ,Pakistan
Mohd Yosuf SHAH, ,Individual,SDGT,SDN, ,Pakistan
Mohammed Yusaf SHAH, ,Individual,SDGT,SDN, ,Pakistan
Syed Mohammed Yusuf SHAH, ,Individual,SDGT,SDN, ,Pakistan
Syed SALAHUDDIN, ,Individual,SDGT,SDN, ,Pakistan
Syed SALAHUDIN, ,Individual,SDGT,SDN, ,Pakistan
Sayeed SALAHUDEEN, ,Individual,SDGT,SDN, ,Pakistan
Peer Sahib, ,Individual,SDGT,SDN, ,Pakistan
Salauddin, ,Individual,SDGT,SDN, ,Pakistan
HIZBUL MUJAHIDEEN, ,Entity,"FTO, SDGT",SDN, ,Pakistan
HIZB-UL-MUJAHIDEEN, ,Entity,"FTO, SDGT",SDN, ,Pakistan
HM, ,Entity,"FTO, SDGT",SDN, ,Pakistan
Mukhtar Hamid SHAH,1 Hill Park Jhellum Road,Individual,GLOMAG,SDN, ,Pakistan
Faqir MUHAMMAD, ,Individual,SDGT,SDN, ,Pakistan
Faqeer MUHAMMAD, ,Individual,SDGT,SDN, ,Pakistan
Faqir MOHAMMAD, ,Individual,SDGT,SDN, ,Pakistan
Faqir Mohammad ZEYAR, ,Individual,SDGT,SDN, ,Pakistan
INAYATULLAH, ,Individual,SDGT,SDN, ,Pakistan
Maulawi ENAYATULLAH, ,Individual,SDGT,SDN, ,Pakistan
Mullah FATEHULLAH, ,Individual,SDGT,SDN, ,Pakistan
Ghowya, ,Individual,SDGT,SDN, ,Pakistan
Abdul Samad SANI, ,Individual,SDGT,SDN, ,Pakistan
Samad SANI, ,Individual,SDGT,SDN, ,Pakistan
Haji Nika, ,Individual,SDGT,SDN, ,Pakistan
Haji Nika Ishaqzai, ,Individual,SDGT,SDN, ,Pakistan
Haji Salani, ,Individual,SDGT,SDN, ,Pakistan
Mullah Samad SANI, ,Individual,SDGT,SDN, ,Pakistan
Abdul Qadeer Basir ABDUL BASEER, ,Individual,SDGT,SDN, ,Pakistan
Abdul QADIR, ,Individual,SDGT,SDN, ,Pakistan
Abdul Qadir HAQQANI, ,Individual,SDGT,SDN, ,Pakistan
Abdul Qadir BASIR, ,Individual,SDGT,SDN, ,Pakistan
Abdul Qadir AHMAT, ,Individual,SDGT,SDN, ,Pakistan
Nasibullah, ,Individual,SDGT,SDN, ,Pakistan
Hafiz Mohammed POPALZAI, ,Individual,SDGT,SDN, ,Pakistan
Dilawar Khan Nadir KHAN, ,Individual,SDGT,SDN, ,Pakistan
Dilawar KHAN, ,Individual,SDGT,SDN, ,Pakistan
Rahman Zeb Faqir MUHAMMAD,Bashgram Laal Qila Wersakay,Individual,SDGT,SDN, ,Pakistan
Rahman Zayb Faqir MUHAMMAD,Bashgram Laal Qila Wersakay,Individual,SDGT,SDN, ,Pakistan
Rahman Ieb KHAN,Bashgram Laal Qila Wersakay,Individual,SDGT,SDN, ,Pakistan
Rahman R ZEB,Bashgram Laal Qila Wersakay,Individual,SDGT,SDN, ,Pakistan
Rehman ZAIB,Bashgram Laal Qila Wersakay,Individual,SDGT,SDN, ,Pakistan
Alam ZAIB,Bashgram Laal Qila Wersakay,Individual,SDGT,SDN, ,Pakistan
ALAMZEB,Bashgram Laal Qila Wersakay,Individual,SDGT,SDN, ,Pakistan
AURANGZEB,Bashgram Laal Qila Wersakay,Individual,SDGT,SDN, ,Pakistan
Hizb Ullah Astam KHAN,"House Number 5, Akhunabad, Shaheen Muslim Town",Individual,SDGT,SDN, ,Pakistan
Qari Hizbullah,"House Number 5, Akhunabad, Shaheen Muslim Town",Individual,SDGT,SDN, ,Pakistan
Hizbullah Qari MOAZZAM,"House Number 5, Akhunabad, Shaheen Muslim Town",Individual,SDGT,SDN, ,Pakistan
Hizb Ullah,"House Number 5, Akhunabad, Shaheen Muslim Town",Individual,SDGT,SDN, ,Pakistan
Hizb Allah,"House Number 5, Akhunabad, Shaheen Muslim Town",Individual,SDGT,SDN, ,Pakistan
Hazab Allah,"House Number 5, Akhunabad, Shaheen Muslim Town",Individual,SDGT,SDN, ,Pakistan
Hazab Ullah,"House Number 5, Akhunabad, Shaheen Muslim Town",Individual,SDGT,SDN, ,Pakistan
Hazeb Ullah,"House Number 5, Akhunabad, Shaheen Muslim Town",Individual,SDGT,SDN, ,Pakistan
Hazib Ullah,"House Number 5, Akhunabad, Shaheen Muslim Town",Individual,SDGT,SDN, ,Pakistan
Hizbullah,"House Number 5, Akhunabad, Shaheen Muslim Town",Individual,SDGT,SDN, ,Pakistan
Hizbulah,"House Number 5, Akhunabad, Shaheen Muslim Town",Individual,SDGT,SDN, ,Pakistan
Hiz Bullah,"House Number 5, Akhunabad, Shaheen Muslim Town",Individual,SDGT,SDN, ,Pakistan
Saifullah KHALID, ,Individual,SDGT,SDN, ,Pakistan
Muzammil Iqbal HASHIMI, ,Individual,SDGT,SDN, ,Pakistan
Muzammil Iqbal HASHMI, ,Individual,SDGT,SDN, ,Pakistan
Hashmi SAHIB, ,Individual,SDGT,SDN, ,Pakistan
Muhammad Harris DAR, ,Individual,SDGT,SDN, ,Pakistan
Muhammad HARIS, ,Individual,SDGT,SDN, ,Pakistan
Tabish QAYYUUM, ,Individual,SDGT,SDN, ,Pakistan
Muhammad Tabish Abdul QAYYUM, ,Individual,SDGT,SDN, ,Pakistan
Abdul Rahman Salar TABISH, ,Individual,SDGT,SDN, ,Pakistan
Fayyaz AHMAD, ,Individual,SDGT,SDN, ,Pakistan
Sheikh FIYAZ, ,Individual,SDGT,SDN, ,Pakistan
Sheikh FIYYAZ, ,Individual,SDGT,SDN, ,Pakistan
Sheikh FAYAZ, ,Individual,SDGT,SDN, ,Pakistan
Shaikh FAIZ, ,Individual,SDGT,SDN, ,Pakistan
Fayaz BAHA'I, ,Individual,SDGT,SDN, ,Pakistan
Muhammad FIAZ, ,Individual,SDGT,SDN, ,Pakistan
Faisal NADEEM, ,Individual,SDGT,SDN, ,Pakistan
Faisal NADIM, ,Individual,SDGT,SDN, ,Pakistan
Muhammad EHSAN, ,Individual,SDGT,SDN, ,Pakistan
Muhammad AHSAN, ,Individual,SDGT,SDN, ,Pakistan
Muhammad IHSAN, ,Individual,SDGT,SDN, ,Pakistan
Ehsan ULLAH, ,Individual,SDGT,SDN, ,Pakistan
Hameed ul HASSAN,"House number 4, Lane 4, Village flag 2",Individual,SDGT,SDN, ,Pakistan
Hameed ul HASAN,"House number 4, Lane 4, Village flag 2",Individual,SDGT,SDN, ,Pakistan
Hameedul HASSAN,"House number 4, Lane 4, Village flag 2",Individual,SDGT,SDN, ,Pakistan
Abdul JABBAR,124 Yasir Ghaffar Town,Individual,SDGT,SDN, ,Pakistan
Abdul JABAR,124 Yasir Ghaffar Town,Individual,SDGT,SDN, ,Pakistan
Abdul Rehman AL-DAKHIL, ,Individual,SDGT,SDN, ,Pakistan
Dilshad AHMAD, ,Individual,SDGT,SDN, ,Pakistan
Danish DILSHAD, ,Individual,SDGT,SDN, ,Pakistan
Amantullah ALI, ,Individual,SDGT,SDN, ,Pakistan
Amanatullah ALI, ,Individual,SDGT,SDN, ,Pakistan
Amanat ALI, ,Individual,SDGT,SDN, ,Pakistan
Imanat Ullah IQBAL, ,Individual,SDGT,SDN, ,Pakistan
'Abd al-Rahman AL-DAKHIL, ,Individual,SDGT,SDN, ,Pakistan
Hafiz Abdul MAJID, ,Individual,SDGT,SDN, ,Pakistan
Hafiz MAJID, ,Individual,SDGT,SDN, ,Pakistan
Abdul AZIZ,"House #29, 30th St.",Individual,SDGT,SDN, ,Pakistan
Aziz Shah ZAMANI,"House #29, 30th St.",Individual,SDGT,SDN, ,Pakistan
Abdul Aziz BALOCH,"House #29, 30th St.",Individual,SDGT,SDN, ,Pakistan
