Jamileh Abdullah AL-SHANTI, ,Individual,NS-PLC,Non-SDN, ,Palestinian
Jameela Abdallah EL-SHANTI, ,Individual,NS-PLC,Non-SDN, ,Palestinian
Jamila Abed Allah AL SHANTEE, ,Individual,NS-PLC,Non-SDN, ,Palestinian
Mohammed Jamal NU'MAN ALAEDDIN, ,Individual,NS-PLC,Non-SDN, ,Palestinian
Mohamad Nouman ALA AL DIN, ,Individual,NS-PLC,Non-SDN, ,Palestinian
Mohammed AL NATSHEH, ,Individual,NS-PLC,Non-SDN, ,Palestinian
Huda Naim AL-QREINAWI, ,Individual,NS-PLC,Non-SDN, ,Palestinian
Houda Naim AL QRENAWI, ,Individual,NS-PLC,Non-SDN, ,Palestinian
Mahmoud Ahmad AL-RAMAHI, ,Individual,NS-PLC,Non-SDN, ,Palestinian
Ibrahim Mohammed DAHBOUR, ,Individual,NS-PLC,Non-SDN, ,Palestinian
Mariam Mahmoud SALEH, ,Individual,NS-PLC,Non-SDN, ,Palestinian
Fathi Mohammed QAR'AWI, ,Individual,NS-PLC,Non-SDN, ,Palestinian
Mohammed Fathi QARAWI, ,Individual,NS-PLC,Non-SDN, ,Palestinian
Anwar Mohammed ZBOUN, ,Individual,NS-PLC,Non-SDN, ,Palestinian
Anwar Muhammad AL-ZBOUN, ,Individual,NS-PLC,Non-SDN, ,Palestinian
Imad Mahmoud NOFAL, ,Individual,NS-PLC,Non-SDN, ,Palestinian
Imad Mahmoud NAWFAL, ,Individual,NS-PLC,Non-SDN, ,Palestinian
Omar Mahmoud MATAR, ,Individual,NS-PLC,Non-SDN, ,Palestinian
Muna Salim Saleh MANSOUR, ,Individual,NS-PLC,Non-SDN, ,Palestinian
Muna Salem MANSOUR, ,Individual,NS-PLC,Non-SDN, ,Palestinian
Yahia Abdul Aziz AL-ABADSAH, ,Individual,NS-PLC,Non-SDN, ,Palestinian
Yehia Abdul Aziz EL ABADSA, ,Individual,NS-PLC,Non-SDN, ,Palestinian
Mohammed Maher Yousef BADER, ,Individual,NS-PLC,Non-SDN, ,Palestinian
Ayman Hussein DARAGHMEH, ,Individual,NS-PLC,Non-SDN, ,Palestinian
Mariam Mohammed FARHAT, ,Individual,NS-PLC,Non-SDN, ,Palestinian
Sayyed Salem ABU MSAMEH, ,Individual,NS-PLC,Non-SDN, ,Palestinian
Sayed Salem ABU MUSAMEH, ,Individual,NS-PLC,Non-SDN, ,Palestinian
Marwan Mohammed ABU RAS, ,Individual,NS-PLC,Non-SDN, ,Palestinian
Merwan Muhammed ABOU RAAS, ,Individual,NS-PLC,Non-SDN, ,Palestinian
Samira Abdullah HALAYQAH, ,Individual,NS-PLC,Non-SDN, ,Palestinian
Sameera Abed Allah HALAYQA, ,Individual,NS-PLC,Non-SDN, ,Palestinian
Jamal Ismail ISKEIK, ,Individual,NS-PLC,Non-SDN, ,Palestinian
Ali Salim ROUMANIN, ,Individual,NS-PLC,Non-SDN, ,Palestinian
Ahmad Yousef ABU HALABIYYE, ,Individual,NS-PLC,Non-SDN, ,Palestinian
Abdul Jaber Mustafa FUQAHA, ,Individual,NS-PLC,Non-SDN, ,Palestinian
Khaled Abed YAHIA, ,Individual,NS-PLC,Non-SDN, ,Palestinian
Khaled Said YEHIA, ,Individual,NS-PLC,Non-SDN, ,Palestinian
Saeed SIAM, ,Individual,NS-PLC,Non-SDN, ,Palestinian
Said Mohammad SEYAM, ,Individual,NS-PLC,Non-SDN, ,Palestinian
Saeed Mohammad SIYAM, ,Individual,NS-PLC,Non-SDN, ,Palestinian
AL-SALAH SOCIETY,"P.O. Box 6035, Beshara Street",Entity,SDGT,SDN, ,Palestinian
JAMI'A AL-SALAH,"P.O. Box 6035, Beshara Street",Entity,SDGT,SDN, ,Palestinian
AL-SALAH ASSOCIATION,"P.O. Box 6035, Beshara Street",Entity,SDGT,SDN, ,Palestinian
AL-SALAH ISLAMIC FOUNDATION,"P.O. Box 6035, Beshara Street",Entity,SDGT,SDN, ,Palestinian
AL-SALAH,"P.O. Box 6035, Beshara Street",Entity,SDGT,SDN, ,Palestinian
AL-SALAH ISLAMIC SOCIETY,"P.O. Box 6035, Beshara Street",Entity,SDGT,SDN, ,Palestinian
AL-SALAH ISLAMIC ASSOCIATION,"P.O. Box 6035, Beshara Street",Entity,SDGT,SDN, ,Palestinian
AL-SALAH ISLAMIC COMMITTEE,"P.O. Box 6035, Beshara Street",Entity,SDGT,SDN, ,Palestinian
AL-SALAH ORGANIZATION,"P.O. Box 6035, Beshara Street",Entity,SDGT,SDN, ,Palestinian
ISLAMIC SALAH FOUNDATION,"P.O. Box 6035, Beshara Street",Entity,SDGT,SDN, ,Palestinian
ISLAMIC SALAH SOCIETY,"P.O. Box 6035, Beshara Street",Entity,SDGT,SDN, ,Palestinian
ISLAMIC SALVATION SOCIETY,"P.O. Box 6035, Beshara Street",Entity,SDGT,SDN, ,Palestinian
ISLAMIC RIGHTEOUSNESS SOCIETY,"P.O. Box 6035, Beshara Street",Entity,SDGT,SDN, ,Palestinian
ISLAMIC AL SALAH SOCIETY,"P.O. Box 6035, Beshara Street",Entity,SDGT,SDN, ,Palestinian
JAMI'AT AL-SALAH AL-ISLAMI,"P.O. Box 6035, Beshara Street",Entity,SDGT,SDN, ,Palestinian
JAMMEAT EL-SALAH,"P.O. Box 6035, Beshara Street",Entity,SDGT,SDN, ,Palestinian
SALAH ISLAMIC ASSOCIATION,"P.O. Box 6035, Beshara Street",Entity,SDGT,SDN, ,Palestinian
SALAH WELFARE ORGANIZATION,"P.O. Box 6035, Beshara Street",Entity,SDGT,SDN, ,Palestinian
SALAH CHARITABLE ASSOCIATION,"P.O. Box 6035, Beshara Street",Entity,SDGT,SDN, ,Palestinian
Ahmad Harb AL-KURD, ,Individual,SDGT,SDN, ,Palestinian
Ahmed EL-KURD, ,Individual,SDGT,SDN, ,Palestinian
Ahmed AL KURD, ,Individual,SDGT,SDN, ,Palestinian
Ahmed Hard AL-KURD, ,Individual,SDGT,SDN, ,Palestinian
Ahmad AL-KIRD, ,Individual,SDGT,SDN, ,Palestinian
Ahmad AL-KARD, ,Individual,SDGT,SDN, ,Palestinian
Ahmad ALKURD, ,Individual,SDGT,SDN, ,Palestinian
AL-AQSA TV, ,Entity,SDGT,SDN, ,Palestinian
SIRAJ AL-AQSA TV, ,Entity,SDGT,SDN, ,Palestinian
HAMAS TV, ,Entity,SDGT,SDN, ,Palestinian
THE AQSA LAMP, ,Entity,SDGT,SDN, ,Palestinian
AL-AQSA SATELLITE TELEVISION, ,Entity,SDGT,SDN, ,Palestinian
ISLAMIC NATIONAL BANK OF GAZA,"Al-Rimal District, Al Wandah Al Yarmuk Street junction",Entity,SDGT,SDN, ,Palestinian
PALESTINE ISLAMIC NATIONAL BANK,"Al-Rimal District, Al Wandah Al Yarmuk Street junction",Entity,SDGT,SDN, ,Palestinian
ISLAMIC NATIONAL BANK,"Al-Rimal District, Al Wandah Al Yarmuk Street junction",Entity,SDGT,SDN, ,Palestinian
NATIONAL ISLAMIC BANK,"Al-Rimal District, Al Wandah Al Yarmuk Street junction",Entity,SDGT,SDN, ,Palestinian
ISLAMIC NATIONAL BANK COMPANY,"Al-Rimal District, Al Wandah Al Yarmuk Street junction",Entity,SDGT,SDN, ,Palestinian
NATIONAL AND ISLAMIC BANK,"Al-Rimal District, Al Wandah Al Yarmuk Street junction",Entity,SDGT,SDN, ,Palestinian
Rawhi MUSHTAHA, ,Individual,SDGT,SDN, ,Palestinian
Yahya SINWAR, ,Individual,SDGT,SDN, ,Palestinian
Yahya Ibrahim Hassan SINWAR, ,Individual,SDGT,SDN, ,Palestinian
Yehya AL-SINWAR, ,Individual,SDGT,SDN, ,Palestinian
Yehia SINWAR, ,Individual,SDGT,SDN, ,Palestinian
Yehiyeh SINWAR, ,Individual,SDGT,SDN, ,Palestinian
Muhammed DEIF, ,Individual,SDGT,SDN, ,Palestinian
Muhammad AL-DAYF, ,Individual,SDGT,SDN, ,Palestinian
Mohammed AL-MASRI, ,Individual,SDGT,SDN, ,Palestinian
Abu Anas AL-GHANDOUR, ,Individual,SDGT,SDN, ,Palestinian
Ahmed GHANDOUR, ,Individual,SDGT,SDN, ,Palestinian
Ahmad GHANDOUR, ,Individual,SDGT,SDN, ,Palestinian
Ahmad Naji AL-GHANDUR, ,Individual,SDGT,SDN, ,Palestinian
ABU-ANAS, ,Individual,SDGT,SDN, ,Palestinian
HARAKAT AL-SABIREEN, ,Entity,SDGT,SDN, ,Palestinian
AL-SABIRIN, ,Entity,SDGT,SDN, ,Palestinian
AL-SABIREEN, ,Entity,SDGT,SDN, ,Palestinian
A-SABRIN ORGANIZATION, ,Entity,SDGT,SDN, ,Palestinian
AL-SABIREEN MOVEMENT FOR SUPPORTING PALESTINE, ,Entity,SDGT,SDN, ,Palestinian
AL-SABIREEN FOR THE VICTORY OF PALESTINE, ,Entity,SDGT,SDN, ,Palestinian
THE SABIREEN MOVEMENT, ,Entity,SDGT,SDN, ,Palestinian
HESN, ,Entity,SDGT,SDN, ,Palestinian
MOVEMENT OF THOSE WHO ENDURE WITH PATIENCE, ,Entity,SDGT,SDN, ,Palestinian
MOVEMENT OF THE PATIENT ONES, ,Entity,SDGT,SDN, ,Palestinian
AL-MUJAHIDIN BRIGADES, ,Entity,SDGT,SDN, ,Palestinian
KHATIB AI-MUJAHIDIN, ,Entity,SDGT,SDN, ,Palestinian
HOLY WARRIORS BATTALION, ,Entity,SDGT,SDN, ,Palestinian
AL MUJAHIDEEN BRIGADES, ,Entity,SDGT,SDN, ,Palestinian
ANSAR AL-MUJAHIDIN MOVEMENT, ,Entity,SDGT,SDN, ,Palestinian
ELEHSSAN,"AL-MUZANNAR ST, AL-NASIR AREA",Entity,SDGT,SDN, ,Palestinian
ELEHSSAN SOCIETY,"AL-MUZANNAR ST, AL-NASIR AREA",Entity,SDGT,SDN, ,Palestinian
ELEHSSAN SOCIETY AND BIRR,"AL-MUZANNAR ST, AL-NASIR AREA",Entity,SDGT,SDN, ,Palestinian
ELEHSSAN SOCIETY WA BIRR,"AL-MUZANNAR ST, AL-NASIR AREA",Entity,SDGT,SDN, ,Palestinian
BIRR AND ELEHSSAN SOCIETY,"AL-MUZANNAR ST, AL-NASIR AREA",Entity,SDGT,SDN, ,Palestinian
BIR WA ELEHSSAN SOCIETY,"AL-MUZANNAR ST, AL-NASIR AREA",Entity,SDGT,SDN, ,Palestinian
IHSAN CHARITY,"AL-MUZANNAR ST, AL-NASIR AREA",Entity,SDGT,SDN, ,Palestinian
JAMI'A AL-AHSAN AL-KHAYRIYYAH,"AL-MUZANNAR ST, AL-NASIR AREA",Entity,SDGT,SDN, ,Palestinian
AL-AHSAN CHARITABLE ORGANIZATION,"AL-MUZANNAR ST, AL-NASIR AREA",Entity,SDGT,SDN, ,Palestinian
AL-IHSAN CHARITABLE SOCIETY,"AL-MUZANNAR ST, AL-NASIR AREA",Entity,SDGT,SDN, ,Palestinian
AL-BIR AND AL-IHSAN ORGANIZATION,"AL-MUZANNAR ST, AL-NASIR AREA",Entity,SDGT,SDN, ,Palestinian
AL-BAR AND AL-IHSAN SOCIETIES,"AL-MUZANNAR ST, AL-NASIR AREA",Entity,SDGT,SDN, ,Palestinian
AL-BAR AND AL-IHSAN SOCIETY,"AL-MUZANNAR ST, AL-NASIR AREA",Entity,SDGT,SDN, ,Palestinian
AL-BIRR WA AL-IHSAN WA AL-NAQA,"AL-MUZANNAR ST, AL-NASIR AREA",Entity,SDGT,SDN, ,Palestinian
AL-BIRR WA AL-IHSAN CHARITY ASSOCIATION,"AL-MUZANNAR ST, AL-NASIR AREA",Entity,SDGT,SDN, ,Palestinian
THE BENEVOLENT CHARITABLE ORGANIZATION,"AL-MUZANNAR ST, AL-NASIR AREA",Entity,SDGT,SDN, ,Palestinian
