TAMILS REHABILITATION ORGANISATION,"Kandasamy Koviladi, Kandy Road (A9 Road)",Entity,SDGT,SDN, ,Sri Lanka
TAMILS REHABILITATION ORGANIZATION,"Kandasamy Koviladi, Kandy Road (A9 Road)",Entity,SDGT,SDN, ,Sri Lanka
TAMIL REHABILITATION ORGANIZATION,"Kandasamy Koviladi, Kandy Road (A9 Road)",Entity,SDGT,SDN, ,Sri Lanka
WHITE PIGEON,"Kandasamy Koviladi, Kandy Road (A9 Road)",Entity,SDGT,SDN, ,Sri Lanka
WHITEPIGEON,"Kandasamy Koviladi, Kandy Road (A9 Road)",Entity,SDGT,SDN, ,Sri Lanka
ORGANISATION DE REHABILITATION TAMOULE,"Kandasamy Koviladi, Kandy Road (A9 Road)",Entity,SDGT,SDN, ,Sri Lanka
ORGANIZZAZIONE PER LA RIABILITAZIONE DEI TAMIL,"Kandasamy Koviladi, Kandy Road (A9 Road)",Entity,SDGT,SDN, ,Sri Lanka
ORGANISATION PRE LA REHABILITATION TAMIL,"Kandasamy Koviladi, Kandy Road (A9 Road)",Entity,SDGT,SDN, ,Sri Lanka
TAMIL REHABILITERINGS ORGANISASJONEN,"Kandasamy Koviladi, Kandy Road (A9 Road)",Entity,SDGT,SDN, ,Sri Lanka
TAMILSK REHABILITERINGS ORGANISASJON,"Kandasamy Koviladi, Kandy Road (A9 Road)",Entity,SDGT,SDN, ,Sri Lanka
TAMILISCHE REHABILITATION ORGANISATION,"Kandasamy Koviladi, Kandy Road (A9 Road)",Entity,SDGT,SDN, ,Sri Lanka
TRO,"Kandasamy Koviladi, Kandy Road (A9 Road)",Entity,SDGT,SDN, ,Sri Lanka
ORT FRANCE,"Kandasamy Koviladi, Kandy Road (A9 Road)",Entity,SDGT,SDN, ,Sri Lanka
TRO ITALIA,"Kandasamy Koviladi, Kandy Road (A9 Road)",Entity,SDGT,SDN, ,Sri Lanka
TRO NORGE,"Kandasamy Koviladi, Kandy Road (A9 Road)",Entity,SDGT,SDN, ,Sri Lanka
TRO DANMARK,"Kandasamy Koviladi, Kandy Road (A9 Road)",Entity,SDGT,SDN, ,Sri Lanka
TRO SCHWEIZ,"Kandasamy Koviladi, Kandy Road (A9 Road)",Entity,SDGT,SDN, ,Sri Lanka
SRI LANKA TSUNAMI RELIEF FUND -- COLOMBO,"Kandasamy Koviladi, Kandy Road (A9 Road)",Entity,SDGT,SDN, ,Sri Lanka
