Ramadan ABDALLAH, ,Individual,SDT,SDN, ,Syria
Dr. Ramadan ABDULLAH, ,Individual,SDT,SDN, ,Syria
Dr. Ramadan Abdullah SHALLAH, ,Individual,SDT,SDN, ,Syria
Ramadan Abdalla Mohamed SHALLAH, ,Individual,SDT,SDN, ,Syria
INC. GLOBAL RELIEF FOUNDATION,"Rruga e Kavajes, Building No. 3, Apartment No. 61, P.O. Box 2892",Entity,SDGT,SDN, ,Syria
FONDATION SECOURS MONDIAL A.S.B.L.,"Rruga e Kavajes, Building No. 3, Apartment No. 61, P.O. Box 2892",Entity,SDGT,SDN, ,Syria
FONDATION SECOURS MONDIAL-BELGIQUE A.S.B.L.,"Rruga e Kavajes, Building No. 3, Apartment No. 61, P.O. Box 2892",Entity,SDGT,SDN, ,Syria
FONDATION SECOURS MONDIAL-KOSOVA,"Rruga e Kavajes, Building No. 3, Apartment No. 61, P.O. Box 2892",Entity,SDGT,SDN, ,Syria
FONDATION SECOURS MONDIAL VZW,"Rruga e Kavajes, Building No. 3, Apartment No. 61, P.O. Box 2892",Entity,SDGT,SDN, ,Syria
FONDATION SECOURS MONDIAL 'WORLD RELIEF',"Rruga e Kavajes, Building No. 3, Apartment No. 61, P.O. Box 2892",Entity,SDGT,SDN, ,Syria
FSM,"Rruga e Kavajes, Building No. 3, Apartment No. 61, P.O. Box 2892",Entity,SDGT,SDN, ,Syria
V.Z.W. STICHTING WERELDHULP-BELGIE,"Rruga e Kavajes, Building No. 3, Apartment No. 61, P.O. Box 2892",Entity,SDGT,SDN, ,Syria
SECOURS MONDIAL DE FRANCE,"Rruga e Kavajes, Building No. 3, Apartment No. 61, P.O. Box 2892",Entity,SDGT,SDN, ,Syria
Khalid MISHAAL, ,Individual,SDGT,SDN, ,Syria
Munir AL-QUBAYSI, ,Individual,IRAQ2,SDN, ,Syria
Muneer AL-KUBAISI, ,Individual,IRAQ2,SDN, ,Syria
Munir AL-KUBAYSI, ,Individual,IRAQ2,SDN, ,Syria
Munir A. AWAD, ,Individual,IRAQ2,SDN, ,Syria
Munir Mamduh AWAD, ,Individual,IRAQ2,SDN, ,Syria
Zuhayr SHALISH,Damascus,Individual,"IRAQ2, SYRIA",SDN, ,Syria
Zuhilma SHALISH,Damascus,Individual,"IRAQ2, SYRIA",SDN, ,Syria
Dhu Al Himma SHALISH,Damascus,Individual,"IRAQ2, SYRIA",SDN, ,Syria
Dhu Himma SHALEESH,Damascus,Individual,"IRAQ2, SYRIA",SDN, ,Syria
Thu AL-HEMMEH,Damascus,Individual,"IRAQ2, SYRIA",SDN, ,Syria
Dhuil Himma SHALISH,Damascus,Individual,"IRAQ2, SYRIA",SDN, ,Syria
Dhu Al-Himma AL-SHALISH,Damascus,Individual,"IRAQ2, SYRIA",SDN, ,Syria
Thu Al Hima SHALEESH,Damascus,Individual,"IRAQ2, SYRIA",SDN, ,Syria
Asif SHALISH,Damascus,Individual,IRAQ2,SDN, ,Syria
Dr. Assef Essa SHALEESH,Damascus,Individual,IRAQ2,SDN, ,Syria
Asef Isa SHALEESH,Damascus,Individual,IRAQ2,SDN, ,Syria
Assef ISSA,Damascus,Individual,IRAQ2,SDN, ,Syria
Dr. Asef AL-SHALISH,Damascus,Individual,IRAQ2,SDN, ,Syria
SES INTERNATIONAL CORP,"Harasta Homs Highway, PO Box 241",Entity,IRAQ2,SDN, ,Syria
SES GROUP,"Harasta Homs Highway, PO Box 241",Entity,IRAQ2,SDN, ,Syria
SES AUTOMOBILE,"Harasta Homs Highway, PO Box 241",Entity,IRAQ2,SDN, ,Syria
Muhammad Yunis AHMAD,Al-Dawar Street,Individual,IRAQ2,SDN, ,Syria
Muhammad Yunis AHMED,Al-Dawar Street,Individual,IRAQ2,SDN, ,Syria
Muhammad Yunis AL-AHMED,Al-Dawar Street,Individual,IRAQ2,SDN, ,Syria
Muhammad Yunis Ahmad AL-BADRANI,Al-Dawar Street,Individual,IRAQ2,SDN, ,Syria
Mohammed Yunis Ahmed AL-MOALI,Al-Dawar Street,Individual,IRAQ2,SDN, ,Syria
Yasir Sabawi Ibrahim Hasan AL-TIKRITI, ,Individual,IRAQ2,SDN, ,Syria
Yassir Sabawi Ibrahim Hasan AL-TIKRITI, ,Individual,IRAQ2,SDN, ,Syria
Yasser Sabawi Ibrahim Hasan AL-TIKRITI, ,Individual,IRAQ2,SDN, ,Syria
Yasir Sab'awi Ibrahim Hasan AL-TIKRITI, ,Individual,IRAQ2,SDN, ,Syria
Yasir Sabawi Ibrahim Hassan AL-TIKRITI, ,Individual,IRAQ2,SDN, ,Syria
Ali Thafir ABDALLAH, ,Individual,IRAQ2,SDN, ,Syria
Omar Sabawi Ibrahim Hasan AL-TIKRITI, ,Individual,IRAQ2,SDN, ,Syria
Umar Sabawi Ibrahim Hasan AL-TIKRITI, ,Individual,IRAQ2,SDN, ,Syria
Omar Sab'awi Ibrahim Hasan AL-TIKRITI, ,Individual,IRAQ2,SDN, ,Syria
Omar Sabawi Ibrahim Hassan AL-TIKRITI, ,Individual,IRAQ2,SDN, ,Syria
Umar Ahmad Ali AL-ALUSI, ,Individual,IRAQ2,SDN, ,Syria
Ayman Sabawi Ibrahim Hasan AL-TIKRITI, ,Individual,IRAQ2,SDN, ,Syria
Aiman Sabawi Ibrahim Hasan AL-TIKRITI, ,Individual,IRAQ2,SDN, ,Syria
Ayman Sab'awi Ibrahim Hasan AL-TIKRITI, ,Individual,IRAQ2,SDN, ,Syria
Ayman Sabawi Ibrahim Hassan AL-TIKRITI, ,Individual,IRAQ2,SDN, ,Syria
Qais Muhammad SALMAN, ,Individual,IRAQ2,SDN, ,Syria
Ibrahim Sabawi Ibrahim Hasan AL-TIKRITI, ,Individual,IRAQ2,SDN, ,Syria
Ibrahim Sab'awi Ibrahim Hasan AL-TIKRITI, ,Individual,IRAQ2,SDN, ,Syria
Ibrahim Sabawi Ibrahim Hassan AL-TIKRITI, ,Individual,IRAQ2,SDN, ,Syria
Ibrahim Sabawi Ibrahim Al-Hassan AL-TIKRITI, ,Individual,IRAQ2,SDN, ,Syria
Muhammad Da'ud SALMAN, ,Individual,IRAQ2,SDN, ,Syria
Rustum GHAZALI, ,Individual,SYRIA,SDN, ,Syria
Ghazi KANAAN, ,Individual,SYRIA,SDN, ,Syria
KOREA MINING DEVELOPMENT TRADING CORPORATION,Central District,Entity,"DPRK2, NPWMD",SDN, ,Syria
NORTH KOREAN MINING DEVELOPMENT TRADING CORPORATION,Central District,Entity,"DPRK2, NPWMD",SDN, ,Syria
KOMID,Central District,Entity,"DPRK2, NPWMD",SDN, ,Syria
CHANGGWANG SINYONG CORPORATION,Central District,Entity,"DPRK2, NPWMD",SDN, ,Syria
EXTERNAL TECHNOLOGY GENERAL CORPORATION,Central District,Entity,"DPRK2, NPWMD",SDN, ,Syria
KOREA KUMRYONG TRADING COMPANY,Central District,Entity,"DPRK2, NPWMD",SDN, ,Syria
DPRKN MINING DEVELOPMENT TRADING COOPERATION,Central District,Entity,"DPRK2, NPWMD",SDN, ,Syria
KOREAN MINING AND INDUSTRIAL DEVELOPMENT CORPORATION,Central District,Entity,"DPRK2, NPWMD",SDN, ,Syria
SCIENTIFIC STUDIES AND RESEARCH CENTER,P.O. Box 4470,Entity,NPWMD,SDN, ,Syria
CENTRE D'ETUDES ET RECHERCHES,P.O. Box 4470,Entity,NPWMD,SDN, ,Syria
SSRC,P.O. Box 4470,Entity,NPWMD,SDN, ,Syria
Bashar Sabawi Ibrahim Hasan AL-TIKRITI,"Fuad Dawod Farm, Az Zabadani",Individual,IRAQ2,SDN, ,Syria
Bashar Sab'awi Ibrahim Hasan AL-TIKRITI,"Fuad Dawod Farm, Az Zabadani",Individual,IRAQ2,SDN, ,Syria
Bashir Sab'awi Ibrahim Al-Hasan AL-TIKRITI,"Fuad Dawod Farm, Az Zabadani",Individual,IRAQ2,SDN, ,Syria
Bashir Sabawi Ibrahim Al-Hassan AL-TIKRITI,"Fuad Dawod Farm, Az Zabadani",Individual,IRAQ2,SDN, ,Syria
Bashar Sabawi Ibrahim Hasan AL-BAYJAT,"Fuad Dawod Farm, Az Zabadani",Individual,IRAQ2,SDN, ,Syria
'Ali Zafir 'ABDULLAH,"Fuad Dawod Farm, Az Zabadani",Individual,IRAQ2,SDN, ,Syria
Sa'd Sabawi Ibrahim Hasan AL-TIKRITI,"Al-Shahid Street, Al-Mahata Neighborhood",Individual,IRAQ2,SDN, ,Syria
Sa'ad Sabawi Ibrahim Hasan AL-TIKRITI,"Al-Shahid Street, Al-Mahata Neighborhood",Individual,IRAQ2,SDN, ,Syria
Sa'd Sab'awi Hasan AL-TIKRITI,"Al-Shahid Street, Al-Mahata Neighborhood",Individual,IRAQ2,SDN, ,Syria
Assef SHAWKAT,Al-Akkad Street,Individual,SYRIA,SDN, ,Syria
Hisham IKHTIYAR,Maliki,Individual,SYRIA,SDN, ,Syria
Hisham Ahmad AL-IKHTIYAR,Maliki,Individual,SYRIA,SDN, ,Syria
Hisham AL-IKHTIYAR,Maliki,Individual,SYRIA,SDN, ,Syria
Hisham AL IKHTIYAR,Maliki,Individual,SYRIA,SDN, ,Syria
Hisham AL IKHTEYAR,Maliki,Individual,SYRIA,SDN, ,Syria
Hisham IKHTEYAR,Maliki,Individual,SYRIA,SDN, ,Syria
Hisham BAKHTIYAR,Maliki,Individual,SYRIA,SDN, ,Syria
Hisham ICHTIJAR,Maliki,Individual,SYRIA,SDN, ,Syria
Hisham BAKHTIAR,Maliki,Individual,SYRIA,SDN, ,Syria
HIGHER INSTITUTE OF APPLIED SCIENCE AND TECHNOLOGY,"P.O. Box 31983, Barzeh",Entity,NPWMD,SDN, ,Syria
HIAST,"P.O. Box 31983, Barzeh",Entity,NPWMD,SDN, ,Syria
INSTITUT SUPERIEUR DES SCIENCES APPLIQUEES ET DE TECHNOLOGIE,"P.O. Box 31983, Barzeh",Entity,NPWMD,SDN, ,Syria
INSTITUT DES SCIENCES APPLIQUEES ET DE TECHNOLOGIE,"P.O. Box 31983, Barzeh",Entity,NPWMD,SDN, ,Syria
ISSAT,"P.O. Box 31983, Barzeh",Entity,NPWMD,SDN, ,Syria
ISAT,"P.O. Box 31983, Barzeh",Entity,NPWMD,SDN, ,Syria
ELECTRONICS INSTITUTE,P.O. Box 4470,Entity,NPWMD,SDN, ,Syria
NATIONAL STANDARDS AND CALIBRATION LABORATORY,P.O. Box 4470,Entity,NPWMD,SDN, ,Syria
NSCL,P.O. Box 4470,Entity,NPWMD,SDN, ,Syria
NATIONAL CALIBRATION CENTRE,P.O. Box 4470,Entity,NPWMD,SDN, ,Syria
Hasan Hashim Khalaf AL-DULAYMI,"30th Street, Al-Yarmuk Area, Jadat Al-Jaysh District",Individual,IRAQ2,SDN, ,Syria
ABU WISSAM,"30th Street, Al-Yarmuk Area, Jadat Al-Jaysh District",Individual,IRAQ2,SDN, ,Syria
Ahmed Watban Ibrahim Hasan AL-TIKRITI,"Al-Ra'is Building, Mina Street",Individual,IRAQ2,SDN, ,Syria
Ahmad Watban Ibrahim Hasan AL-TIKRITI,"Al-Ra'is Building, Mina Street",Individual,IRAQ2,SDN, ,Syria
'Imad 'Udi MUHAWDAR,"Al-Ra'is Building, Mina Street",Individual,IRAQ2,SDN, ,Syria
Ahmad Muhammad Yunis AL-AHMAD,"Al-Mazzah Al-Jabal District, 6 Subdistrict, 3 area, Al-Iskan complex, 40/2, Fifth Floor",Individual,IRAQ2,SDN, ,Syria
Ahmad Muhammad Mahmud 'Abdallah AL-BADANI,"Al-Mazzah Al-Jabal District, 6 Subdistrict, 3 area, Al-Iskan complex, 40/2, Fifth Floor",Individual,IRAQ2,SDN, ,Syria
Ahmad Muhammad Al-Abdullah AL-BARRANI,"Al-Mazzah Al-Jabal District, 6 Subdistrict, 3 area, Al-Iskan complex, 40/2, Fifth Floor",Individual,IRAQ2,SDN, ,Syria
Sa'ad Muhammad Yunis AL-AHMAD, ,Individual,IRAQ2,SDN, ,Syria
Thabet AL-DURI,Karkh District,Individual,IRAQ2,SDN, ,Syria
Fawzi Mutlaq AL-RAWI,"SYRIAN GOVERNMENT-OWNED APARTMENT, AL-MAZZAH DISTRICT",Individual,SDGT,SDN, ,Syria
Fawzi Isma'il Al-Husayni AL-RAWI,"SYRIAN GOVERNMENT-OWNED APARTMENT, AL-MAZZAH DISTRICT",Individual,SDGT,SDN, ,Syria
ABU FIRAS,"SYRIAN GOVERNMENT-OWNED APARTMENT, AL-MAZZAH DISTRICT",Individual,SDGT,SDN, ,Syria
ABU AKRAM,"SYRIAN GOVERNMENT-OWNED APARTMENT, AL-MAZZAH DISTRICT",Individual,SDGT,SDN, ,Syria
Muhammad Nasif KHAYRBIK, ,Individual,SYRIA,SDN, ,Syria
Muhammad Nasif KHAYR-BAYK, ,Individual,SYRIA,SDN, ,Syria
Mohammed Nassif KHAIRBEK, ,Individual,SYRIA,SDN, ,Syria
Mohammad Nasif KHEIRBEK, ,Individual,SYRIA,SDN, ,Syria
Mohamad KHEIR BEIK, ,Individual,SYRIA,SDN, ,Syria
Mohamad Nassif KHEIR BEIK, ,Individual,SYRIA,SDN, ,Syria
Mish'an Rakin Thamin AL-JABURI, ,Individual,IRAQ3,SDN, ,Syria
Mushan AL-JABURI, ,Individual,IRAQ3,SDN, ,Syria
Meshaan AL-JUBURI, ,Individual,IRAQ3,SDN, ,Syria
Mishan JIBOURI, ,Individual,IRAQ3,SDN, ,Syria
Mishan AL-JABOURI, ,Individual,IRAQ3,SDN, ,Syria
Mashaan JABOURI, ,Individual,IRAQ3,SDN, ,Syria
Mash'an EL-JBURI, ,Individual,IRAQ3,SDN, ,Syria
Mish'an AL-JUBURI, ,Individual,IRAQ3,SDN, ,Syria
Mush'an AL-JIBURI, ,Individual,IRAQ3,SDN, ,Syria
Mashan JUBURI, ,Individual,IRAQ3,SDN, ,Syria
Mishan AL-JABBURI, ,Individual,IRAQ3,SDN, ,Syria
Meshan Thamin AL JABOURI, ,Individual,IRAQ3,SDN, ,Syria
Mishan Riqardh Damin AL JABOURI, ,Individual,IRAQ3,SDN, ,Syria
Mishaan AL-JUBOURI, ,Individual,IRAQ3,SDN, ,Syria
Mashaan Rakadh Dhamin AL JABBURY, ,Individual,IRAQ3,SDN, ,Syria
Misham AL JABURI, ,Individual,IRAQ3,SDN, ,Syria
Mashaan ALJABOURI, ,Individual,IRAQ3,SDN, ,Syria
Mish'an Rakkad Damin AL-JABBURI, ,Individual,IRAQ3,SDN, ,Syria
AL-ZAWRA TELEVISION STATION, ,Entity,IRAQ3,SDN, ,Syria
AL-ZAWRAA TV, ,Entity,IRAQ3,SDN, ,Syria
EL-ZAWRA SATELLITE STATION, ,Entity,IRAQ3,SDN, ,Syria
ZORAH CHANNEL, ,Entity,IRAQ3,SDN, ,Syria
AL ZOURA TV STATION, ,Entity,IRAQ3,SDN, ,Syria
AL-ZAWARA SATELLITE TELEVISION STATION, ,Entity,IRAQ3,SDN, ,Syria
ZAWRAH TV STATION, ,Entity,IRAQ3,SDN, ,Syria
AL ZAOURA NETWORK, ,Entity,IRAQ3,SDN, ,Syria
ALZAWRAA TV, ,Entity,IRAQ3,SDN, ,Syria
AL ZAWRAH TELEVISION, ,Entity,IRAQ3,SDN, ,Syria
Badran Turki Hishan AL MAZIDIH, ,Individual,SDGT,SDN, ,Syria
Badran Turki Hisham al-Mazidih AL-SHA'BANI, ,Individual,SDGT,SDN, ,Syria
Badran Turki al-Hishan AL-MAZIDIH, ,Individual,SDGT,SDN, ,Syria
Badran Turki Hishan AL MEZIDI, ,Individual,SDGT,SDN, ,Syria
Badran Turki HISHAN, ,Individual,SDGT,SDN, ,Syria
Badran al-Turki HISHAM, ,Individual,SDGT,SDN, ,Syria
Badran AL-TURKI, ,Individual,SDGT,SDN, ,Syria
ABU GHADIYAH, ,Individual,SDGT,SDN, ,Syria
ABU 'ABDALLAH, ,Individual,SDGT,SDN, ,Syria
ABU ABDULLAH, ,Individual,SDGT,SDN, ,Syria
Badran Turki Hayshan SHALASH, ,Individual,SDGT,SDN, ,Syria
ABU 'AZZAM, ,Individual,SDGT,SDN, ,Syria
Ghazy Fezza Hishan AL MAZIDIH, ,Individual,SDGT,SDN, ,Syria
Ghazy Fezzaa HISHAN, ,Individual,SDGT,SDN, ,Syria
ABU FAYSAL, ,Individual,SDGT,SDN, ,Syria
Mushari Abd Aziz Saleh SHLASH, ,Individual,SDGT,SDN, ,Syria
ABU GHAZZY, ,Individual,SDGT,SDN, ,Syria
Akram Turki Hishan AL MAZIDIH, ,Individual,SDGT,SDN, ,Syria
Akram Turki Hishan AL-MAZIDIH, ,Individual,SDGT,SDN, ,Syria
ABU JARRAH, ,Individual,SDGT,SDN, ,Syria
ABU AKRAM, ,Individual,SDGT,SDN, ,Syria
Akram Turki AL-HISHAN, ,Individual,SDGT,SDN, ,Syria
Saddah Jaylut AL-MARSUMI, ,Individual,SDGT,SDN, ,Syria
Sa'da Jalut Hassam AL-MARSUMI, ,Individual,SDGT,SDN, ,Syria
Saddaa JALOUT, ,Individual,SDGT,SDN, ,Syria
Sa'daa JALOUD, ,Individual,SDGT,SDN, ,Syria
SYRIATEL,"Doctors Syndicate Building, Al Jalaa Street, Abu Roumaneh Area, PO Box 2900",Entity,"HRIT-SY, SYRIA",SDN, ,Syria
SYRIATEL MOBILE TELECOM SA,"Doctors Syndicate Building, Al Jalaa Street, Abu Roumaneh Area, PO Box 2900",Entity,"HRIT-SY, SYRIA",SDN, ,Syria
SYRIATEL MOBILE TELECOM,"Doctors Syndicate Building, Al Jalaa Street, Abu Roumaneh Area, PO Box 2900",Entity,"HRIT-SY, SYRIA",SDN, ,Syria
SYRIATEL MOBILE,"Doctors Syndicate Building, Al Jalaa Street, Abu Roumaneh Area, PO Box 2900",Entity,"HRIT-SY, SYRIA",SDN, ,Syria
RAMAK,"Free Zone Area, Jamarek, PO Box 932",Entity,SYRIA,SDN, ,Syria
RAMAK DUTY FREE SHOP LTD,"Free Zone Area, Jamarek, PO Box 932",Entity,SYRIA,SDN, ,Syria
RAMAK DUTY FREE SHOPS LTD.,"Free Zone Area, Jamarek, PO Box 932",Entity,SYRIA,SDN, ,Syria
RAMAK DUTY FREE SHOPS - SYRIA,"Free Zone Area, Jamarek, PO Box 932",Entity,SYRIA,SDN, ,Syria
RAMAK DUTY FREE,"Free Zone Area, Jamarek, PO Box 932",Entity,SYRIA,SDN, ,Syria
RAMAK FIRM FOR FREE TRADE ZONES,"Free Zone Area, Jamarek, PO Box 932",Entity,SYRIA,SDN, ,Syria
Raw'a AL-USTA, ,Individual,IRAQ3,SDN, ,Syria
Raw'a AL-OUSTA, ,Individual,IRAQ3,SDN, ,Syria
Raw'ah AL-USTA, ,Individual,IRAQ3,SDN, ,Syria
Raw'ah AL-USTAH, ,Individual,IRAQ3,SDN, ,Syria
Rawa AL-'USTA, ,Individual,IRAQ3,SDN, ,Syria
Rawaa ALOUSTA, ,Individual,IRAQ3,SDN, ,Syria
Raw'ah AL-ASTAH, ,Individual,IRAQ3,SDN, ,Syria
AL-RA'Y SATELLITE TELEVISION CHANNEL,Near Damascus in the Yaafur area,Entity,IRAQ3,SDN, ,Syria
SATELLITE TELEVISION CHANNEL AL RA'Y,Near Damascus in the Yaafur area,Entity,IRAQ3,SDN, ,Syria
AL-RA'Y SATELLITE CHANNEL,Near Damascus in the Yaafur area,Entity,IRAQ3,SDN, ,Syria
AL-RA'I SATELLITE CHANNEL,Near Damascus in the Yaafur area,Entity,IRAQ3,SDN, ,Syria
AL RA'Y SATELLITE TELEVISION STATION,Near Damascus in the Yaafur area,Entity,IRAQ3,SDN, ,Syria
AL RAIE TV CHANNEL,Near Damascus in the Yaafur area,Entity,IRAQ3,SDN, ,Syria
ARRAI TV,Near Damascus in the Yaafur area,Entity,IRAQ3,SDN, ,Syria
AL RA'Y TV,Near Damascus in the Yaafur area,Entity,IRAQ3,SDN, ,Syria
THE OPINION SATELLITE TELEVISION CHANNEL,Near Damascus in the Yaafur area,Entity,IRAQ3,SDN, ,Syria
SURAQIYA FOR MEDIA AND BROADCASTING,Al Sufara' Street in the Ya'fur district,Entity,IRAQ3,SDN, ,Syria
SORAQIA FOR MEDIA AND BROADCASTING,Al Sufara' Street in the Ya'fur district,Entity,IRAQ3,SDN, ,Syria
SORAQIYA FOR MEDIA AND BROADCASTING,Al Sufara' Street in the Ya'fur district,Entity,IRAQ3,SDN, ,Syria
SBC TELEVISION,Al Sufara' Street in the Ya'fur district,Entity,IRAQ3,SDN, ,Syria
SBC TV,Al Sufara' Street in the Ya'fur district,Entity,IRAQ3,SDN, ,Syria
Sa'ad Uwayyid 'Ubayd Mu'jil AL-SHAMMARI, ,Individual,SDGT,SDN, ,Syria
ABU KHALAF, ,Individual,SDGT,SDN, ,Syria
SAAD OWAIED OBAID, ,Individual,SDGT,SDN, ,Syria
SA'AD AL-SHAMMARI, ,Individual,SDGT,SDN, ,Syria
ABU HAMMUDI AL-SHAMMARI, ,Individual,SDGT,SDN, ,Syria
Razi MUSAVI, ,Individual,"IFSR, SDGT",SDN, ,Syria
Hosein Razi MUSAVI, ,Individual,"IFSR, SDGT",SDN, ,Syria
SYRIAN GENERAL INTELLIGENCE DIRECTORATE, ,Entity,"HRIT-SY, SYRIA",SDN, ,Syria
IDERAT AL-AMN AL-'AMM, ,Entity,"HRIT-SY, SYRIA",SDN, ,Syria
SYRIAN NATIONAL SECURITY BUREAU, ,Entity,SYRIA,SDN, ,Syria
BA'ATH PARTY NATIONAL SECURITY BUREAU, ,Entity,SYRIA,SDN, ,Syria
MAKTAB AL-AMN AL-QAWMI, ,Entity,SYRIA,SDN, ,Syria
SYRIAN MILITARY INTELLIGENCE, ,Entity,SYRIA,SDN, ,Syria
CHAM HOLDING,"Cham Holding Building, Daraa Highway, Sahnaya Area, P.O. Box 9525",Entity,SYRIA,SDN, ,Syria
CHAM INVESTMENT GROUP,"Cham Holding Building, Daraa Highway, Sahnaya Area, P.O. Box 9525",Entity,SYRIA,SDN, ,Syria
AL SHAM COMPANY,"Cham Holding Building, Daraa Highway, Sahnaya Area, P.O. Box 9525",Entity,SYRIA,SDN, ,Syria
SHAM HOLDING COMPANY SAL,"Cham Holding Building, Daraa Highway, Sahnaya Area, P.O. Box 9525",Entity,SYRIA,SDN, ,Syria
SHAM HOLDING,"Cham Holding Building, Daraa Highway, Sahnaya Area, P.O. Box 9525",Entity,SYRIA,SDN, ,Syria
CHAM,"Cham Holding Building, Daraa Highway, Sahnaya Area, P.O. Box 9525",Entity,SYRIA,SDN, ,Syria
AL-SHAM COMPANY,"Cham Holding Building, Daraa Highway, Sahnaya Area, P.O. Box 9525",Entity,SYRIA,SDN, ,Syria
BENA PROPERTIES,"Cham Holding Building, Daraa Highway, Sahnaya Area, P.O. Box 9525, P.O. Box 9525",Entity,SYRIA,SDN, ,Syria
BENA,"Cham Holding Building, Daraa Highway, Sahnaya Area, P.O. Box 9525, P.O. Box 9525",Entity,SYRIA,SDN, ,Syria
BANNA PROPERTIES,"Cham Holding Building, Daraa Highway, Sahnaya Area, P.O. Box 9525, P.O. Box 9525",Entity,SYRIA,SDN, ,Syria
AL MASHREQ INVESTMENT FUND, ,Entity,SYRIA,SDN, ,Syria
AL MASHREK FUND, ,Entity,SYRIA,SDN, ,Syria
AL MASHREK HOLDING, ,Entity,SYRIA,SDN, ,Syria
AL MASHRIQ INVESTMENT FUND, ,Entity,SYRIA,SDN, ,Syria
AL MASHRIQ HOLDING, ,Entity,SYRIA,SDN, ,Syria
MASHRIQ, ,Entity,SYRIA,SDN, ,Syria
POLITICAL SECURITY DIRECTORATE, ,Entity,SYRIA,SDN, ,Syria
POLITICAL SECURITY DEPARTMENT, ,Entity,SYRIA,SDN, ,Syria
IDARAT AL-'AMN AL-SIYYASI, ,Entity,SYRIA,SDN, ,Syria
HAMSHO INTERNATIONAL GROUP,"Baghdad Street, Building No. 31, P.O. Box 8254",Entity,SYRIA,SDN, ,Syria
HAMSHO GROUP INTERNATIONAL,"Baghdad Street, Building No. 31, P.O. Box 8254",Entity,SYRIA,SDN, ,Syria
HAMSHO GROUP,"Baghdad Street, Building No. 31, P.O. Box 8254",Entity,SYRIA,SDN, ,Syria
HAMSHO INTERNATIONAL,"Baghdad Street, Building No. 31, P.O. Box 8254",Entity,SYRIA,SDN, ,Syria
HAMCHO INTERNATIONAL,"Baghdad Street, Building No. 31, P.O. Box 8254",Entity,SYRIA,SDN, ,Syria
COMMERCIAL BANK OF SYRIA,"P.O. Box 933, Yousef Azmeh Square",Entity,NPWMD,SDN, ,Syria
GENERAL PETROLEUM CORPORATION,"New Sham- Building of Syrian Oil Company, PO Box 60694",Entity,SYRIA,SDN, ,Syria
GPC,"New Sham- Building of Syrian Oil Company, PO Box 60694",Entity,SYRIA,SDN, ,Syria
SYRIAN PETROLEUM COMPANY,"Dummar Province Expansion Square, Island 19, Building 32, PO Box 3378",Entity,SYRIA,SDN, ,Syria
SPC,"Dummar Province Expansion Square, Island 19, Building 32, PO Box 3378",Entity,SYRIA,SDN, ,Syria
SYTROL,"Prime Minister Building, 17 Street Nissan",Entity,"ISA, SYRIA",SDN, ,Syria
SYRIAN COMPANY FOR OIL TRANSPORT,"Banias Industrial Area, Latakia Entrance Way, P.O. Box 13",Entity,SYRIA,SDN, ,Syria
SCOT,"Banias Industrial Area, Latakia Entrance Way, P.O. Box 13",Entity,SYRIA,SDN, ,Syria
SCOTRACO,"Banias Industrial Area, Latakia Entrance Way, P.O. Box 13",Entity,SYRIA,SDN, ,Syria
SYRIAN CRUDE OIL TRANSPORTATION COMPANY,"Banias Industrial Area, Latakia Entrance Way, P.O. Box 13",Entity,SYRIA,SDN, ,Syria
SYRIAN GAS COMPANY,P.O. Box 4499,Entity,SYRIA,SDN, ,Syria
Bouthaina SHAABAN,Rawda Sq.,Individual,SYRIA,SDN, ,Syria
Buthaina SHAABAN,Rawda Sq.,Individual,SYRIA,SDN, ,Syria
REAL ESTATE BANK,"P.O. Box 2337, Insurance Bldg., Youssef Alazma Square",Entity,SYRIA,SDN, ,Syria
REAL-ESTATE BANK,"P.O. Box 2337, Insurance Bldg., Youssef Alazma Square",Entity,SYRIA,SDN, ,Syria
MILITARY HOUSING ESTABLISHMENT,"Mili House, Adra Road",Entity,SYRIA,SDN, ,Syria
GENERAL ORGANIZATION OF RADIO AND TV,"Al Oumaween Square, P.O. Box 250",Entity,SYRIA,SDN, ,Syria
SYRIAN DIRECTORATE GENERAL OF RADIO & TELEVISION EST,"Al Oumaween Square, P.O. Box 250",Entity,SYRIA,SDN, ,Syria
GENERAL RADIO AND TELEVISION CORPORATION,"Al Oumaween Square, P.O. Box 250",Entity,SYRIA,SDN, ,Syria
RADIO AND TELEVISION CORPORATION,"Al Oumaween Square, P.O. Box 250",Entity,SYRIA,SDN, ,Syria
RTV SYRIA,"Al Oumaween Square, P.O. Box 250",Entity,SYRIA,SDN, ,Syria
GORT,"Al Oumaween Square, P.O. Box 250",Entity,SYRIA,SDN, ,Syria
SYRIA INTERNATIONAL ISLAMIC BANK,"Syria International Islamic Building, Main Highway Road, Al Mazzeh Area, P.O. Box 35494",Entity,NPWMD,SDN, ,Syria
SYRIAN INTERNATIONAL ISLAMIC BANK,"Syria International Islamic Building, Main Highway Road, Al Mazzeh Area, P.O. Box 35494",Entity,NPWMD,SDN, ,Syria
SIIB,"Syria International Islamic Building, Main Highway Road, Al Mazzeh Area, P.O. Box 35494",Entity,NPWMD,SDN, ,Syria
INDUSTRIAL SOLUTIONS,"Baghdad Street 5, PO Box 6394",Entity,NPWMD,SDN, ,Syria
MECHANICAL CONSTRUCTION FACTORY,"PO Box 35202, Industrial Zone, Al-Qadam Road",Entity,NPWMD,SDN, ,Syria
SYRONICS,"Kaboon Street, PO Box 5966",Entity,NPWMD,SDN, ,Syria
SYRIAN ARAB CO. FOR ELECTRONIC INDUSTRIES,"Kaboon Street, PO Box 5966",Entity,NPWMD,SDN, ,Syria
HANDASIEH,PO Box 21120 Baramkeh,Entity,NPWMD,SDN, ,Syria
ORGANIZATION FOR ENGINEERING INDUSTRIES,PO Box 21120 Baramkeh,Entity,NPWMD,SDN, ,Syria
SYRIAN ARAB AIRLINES, ,Entity,"IFSR, IRGC, SDGT, SYRIA",SDN, ,Syria
SYRIANAIR, ,Entity,"IFSR, IRGC, SDGT, SYRIA",SDN, ,Syria
SYRIAN AIR, ,Entity,"IFSR, IRGC, SDGT, SYRIA",SDN, ,Syria
BUSINESS LAB,"Maysat Square Al Rasafi Street Bldg. 9, PO Box 7155",Entity,NPWMD,SDN, ,Syria
ARMY SUPPLY BUREAU,P.O. Box 3361,Entity,"IFSR, NPWMD, SYRIA",SDN, ,Syria
SHABIHA, ,Entity,SYRIA,SDN, ,Syria
SHABBIHAH, ,Entity,SYRIA,SDN, ,Syria
SHABBIHA, ,Entity,SYRIA,SDN, ,Syria
SHABEEHA, ,Entity,SYRIA,SDN, ,Syria
AL-SHABBIHAH, ,Entity,SYRIA,SDN, ,Syria
AL-DUNYA TELEVISION,Information Free Zone,Entity,SYRIA,SDN, ,Syria
ADDOUNIA TV,Information Free Zone,Entity,SYRIA,SDN, ,Syria
DUNIA TELEVISION,Information Free Zone,Entity,SYRIA,SDN, ,Syria
AL-DONYA TELEVISION CHANNEL,Information Free Zone,Entity,SYRIA,SDN, ,Syria
DUNIA LIMITED LIABILITY COMPANY FOR INFORMATION,Information Free Zone,Entity,SYRIA,SDN, ,Syria
AL DOUNIA,Information Free Zone,Entity,SYRIA,SDN, ,Syria
Abu Muhammad AL-JAWLANI, ,Individual,SDGT,SDN, ,Syria
AL-FATIH, ,Individual,SDGT,SDN, ,Syria
Abu Muhammad AL-GOLANI, ,Individual,SDGT,SDN, ,Syria
UKRAINIAN-MEDITERRANEAN AIRLINES,7 Shulyavska Street,Entity,"IFSR, SDGT",SDN, ,Syria
UM AIR,7 Shulyavska Street,Entity,"IFSR, SDGT",SDN, ,Syria
UKRAINSKE-TSCHERMOMORSKIE AVIALINII,7 Shulyavska Street,Entity,"IFSR, SDGT",SDN, ,Syria
BANIAS REFINERY COMPANY,"Banias Refinery Building, 26 Latkia Main Road",Entity,SYRIA,SDN, ,Syria
HOMS REFINERY COMPANY,"General Company for Homs Refinery Building, 352 Tripoli Street",Entity,SYRIA,SDN, ,Syria
GENERAL COMPANY FOR HOMS REFINERY,"General Company for Homs Refinery Building, 352 Tripoli Street",Entity,SYRIA,SDN, ,Syria
EXPERT PARTNERS,"Rukn Addin, Saladin Street, Building 5, PO Box 7006",Entity,NPWMD,SDN, ,Syria
EXPERTS PARTNERS,"Rukn Addin, Saladin Street, Building 5, PO Box 7006",Entity,NPWMD,SDN, ,Syria
MEGATRADE,"Aleppo Street, PO Box 5966",Entity,NPWMD,SDN, ,Syria
PANGATES INTERNATIONAL CORPORATION LIMITED,"P.O. Box 8177, Sharjah Airport International Free Zone",Entity,SYRIA,SDN, ,Syria
Abu Mohammed AL-ADNANI, ,Individual,SDGT,SDN, ,Syria
Taha Sobhi FALAHA, ,Individual,SDGT,SDN, ,Syria
Abu Mohammad AL-ADNANI, ,Individual,SDGT,SDN, ,Syria
Yasser Khalaf Hussein Nazal AL-RAWI, ,Individual,SDGT,SDN, ,Syria
Jaber Taha FALAH, ,Individual,SDGT,SDN, ,Syria
Abu Baker AL-KHATAB, ,Individual,SDGT,SDN, ,Syria
Abu Sadek AL-RAWI, ,Individual,SDGT,SDN, ,Syria
Taha AL-BANSHI, ,Individual,SDGT,SDN, ,Syria
Abu Mohamed AL-ADNANI, ,Individual,SDGT,SDN, ,Syria
Abu-Muhammad al-Adnani AL-SHAMI, ,Individual,SDGT,SDN, ,Syria
Said ARIF, ,Individual,SDGT,SDN, ,Syria
Said Mohamed ARIF, ,Individual,SDGT,SDN, ,Syria
Omar GHARIB, ,Individual,SDGT,SDN, ,Syria
ABDERAHMANE, ,Individual,SDGT,SDN, ,Syria
ABDERRAHMANE, ,Individual,SDGT,SDN, ,Syria
SOULEIMAN, ,Individual,SDGT,SDN, ,Syria
ABDALLAH AL-JAZAIRI, ,Individual,SDGT,SDN, ,Syria
Slimane CHABANI, ,Individual,SDGT,SDN, ,Syria
AGRICULTURAL COOPERATIVE BANK,Al Naanaa Garden,Entity,SYRIA,SDN, ,Syria
ACB,Al Naanaa Garden,Entity,SYRIA,SDN, ,Syria
AL MASRAF AL ZERAEI AL TAWENI,Al Naanaa Garden,Entity,SYRIA,SDN, ,Syria
INDUSTRIAL BANK,"Dar Al Muhanisen Building, 7th Floor, Maysaloun Street, P.O. Box 7572",Entity,SYRIA,SDN, ,Syria
SAVING BANK,Amous Square,Entity,SYRIA,SDN, ,Syria
SAVINGS BANK,Amous Square,Entity,SYRIA,SDN, ,Syria
THE GENERAL ESTABLISHMENT OF MAIL SAVING FUND,Amous Square,Entity,SYRIA,SDN, ,Syria
THE POST SAVING FUND,Amous Square,Entity,SYRIA,SDN, ,Syria
POPULAR CREDIT BANK,"Dar El-Mohandeseen- Mysaloun St., P.O. Box: 2841",Entity,SYRIA,SDN, ,Syria
PCB,"Dar El-Mohandeseen- Mysaloun St., P.O. Box: 2841",Entity,SYRIA,SDN, ,Syria
Nusret IMAMOVIC, ,Individual,SDGT,SDN, ,Syria
Nusret Sulejman IMAMOVIC, ,Individual,SDGT,SDN, ,Syria
JAISH AL-MUHAJIREEN WAL-ANSAR, ,Entity,SDGT,SDN, ,Syria
KATIBA AL-MUHAJIREEN, ,Entity,SDGT,SDN, ,Syria
JAISH AL-MUHAJIREEN WA ANSAR, ,Entity,SDGT,SDN, ,Syria
KATEEB AL MUHAJIREEN WAL ANSAR, ,Entity,SDGT,SDN, ,Syria
BRIGADE OF THE EMIGRANTS AND HELPERS, ,Entity,SDGT,SDN, ,Syria
ARMY OF THE EMIGRANTS AND HELPERS, ,Entity,SDGT,SDN, ,Syria
JAYSH AL-MUHAJIRIN WAL-ANSAR, ,Entity,SDGT,SDN, ,Syria
JAYSH AL-MUHAJIRIN AND AL-ANSAR ARMY, ,Entity,SDGT,SDN, ,Syria
AL-MUAJIRIN BRIGADE, ,Entity,SDGT,SDN, ,Syria
MUHAJIRIN AND ANSAR ARMY, ,Entity,SDGT,SDN, ,Syria
ARMY OF FOREIGN FIGHTERS AND SUPPORTERS, ,Entity,SDGT,SDN, ,Syria
Ashraf Muhammad Yusuf 'Uthman 'ABD AL-SALAM, ,Individual,SDGT,SDN, ,Syria
Ashraf Muhammad Yusif 'Uthman 'ABD-AL-SALAM, ,Individual,SDGT,SDN, ,Syria
Ashraf Muhammad Yusuf 'ABD-AL-SALAM, ,Individual,SDGT,SDN, ,Syria
Ashraf Muhammad Yusif 'ABD AL-SALAM, ,Individual,SDGT,SDN, ,Syria
Khattab, ,Individual,SDGT,SDN, ,Syria
Ibn al-Khattab, ,Individual,SDGT,SDN, ,Syria
Salim BENGHALEM, ,Individual,SDGT,SDN, ,Syria
HARAKAT SHAM AL-ISLAM, ,Entity,SDGT,SDN, ,Syria
HARAKET SHAM AL-ISLAM, ,Entity,SDGT,SDN, ,Syria
SHAM AL-ISLAM MOVEMENT, ,Entity,SDGT,SDN, ,Syria
SHAM AL-ISLAM, ,Entity,SDGT,SDN, ,Syria
ABDULKARIM GROUP,"Abu Rumaneh, Ibn Al Haytham St., Besides Indian Embassy, Building No. 7, 1st Floor, Office No. 5",Entity,SYRIA,SDN, ,Syria
ABD-AL-KARIM GROUP,"Abu Rumaneh, Ibn Al Haytham St., Besides Indian Embassy, Building No. 7, 1st Floor, Office No. 5",Entity,SYRIA,SDN, ,Syria
ALKARIM FOR TRADE AND INDUSTRY,"Abu Rumaneh, Ibn Al Haytham St., Besides Indian Embassy, Building No. 7, 1st Floor, Office No. 5",Entity,SYRIA,SDN, ,Syria
ALKARIM FOR TRADE & INDUSTRY L.L.C.,"Abu Rumaneh, Ibn Al Haytham St., Besides Indian Embassy, Building No. 7, 1st Floor, Office No. 5",Entity,SYRIA,SDN, ,Syria
MOHD. WAEL ABDULKARIM & PARTNERS CO.,"Abu Rumaneh, Ibn Al Haytham St., Besides Indian Embassy, Building No. 7, 1st Floor, Office No. 5",Entity,SYRIA,SDN, ,Syria
WAEL ABDULKARIM AND PARTNERS,"Abu Rumaneh, Ibn Al Haytham St., Besides Indian Embassy, Building No. 7, 1st Floor, Office No. 5",Entity,SYRIA,SDN, ,Syria
Denis Mamadou CUSPERT, ,Individual,SDGT,SDN, ,Syria
Deso DOGG, ,Individual,SDGT,SDN, ,Syria
Abu Talha AL-ALMANI, ,Individual,SDGT,SDN, ,Syria
Denis CUSPERT, ,Individual,SDGT,SDN, ,Syria
Abu MAMADOU, ,Individual,SDGT,SDN, ,Syria
Abou MALEEQ, ,Individual,SDGT,SDN, ,Syria
Abu MALIQ, ,Individual,SDGT,SDN, ,Syria
Abu TALHA THE GERMAN, ,Individual,SDGT,SDN, ,Syria
Abu MALIK, ,Individual,SDGT,SDN, ,Syria
Abu Maleeq AL-MUJAHEED, ,Individual,SDGT,SDN, ,Syria
Abu Talhah AL ALMANI, ,Individual,SDGT,SDN, ,Syria
SIGMA TECH COMPANY,"Fayez Mansour Street, Bldg No/35/-Floor No/2/Baramkeh, P.O. Box 34081",Entity,NPWMD,SDN, ,Syria
GENERAL DIRECTORATE OF SYRIAN PORTS,Algazaer Street,Entity,SYRIA,SDN, ,Syria
GENERAL DIRECTORATE OF PORTS,Algazaer Street,Entity,SYRIA,SDN, ,Syria
LATTAKIA PORT GENERAL COMPANY,BP 220,Entity,SYRIA,SDN, ,Syria
LATAKIA PORT GENERAL COMPANY,BP 220,Entity,SYRIA,SDN, ,Syria
TARTOUS PORT GENERAL COMPANY,Al Mina Street,Entity,SYRIA,SDN, ,Syria
SYRIAN GENERAL AUTHORITY FOR MARITIME TRANSPORT,"BP 28, Bur Sa'id Street",Entity,SYRIA,SDN, ,Syria
SYRIAN GENERAL ESTABLISHMENT FOR MARINE TRANSPORT,"BP 28, Bur Sa'id Street",Entity,SYRIA,SDN, ,Syria
SYRIAN GENERAL ORGANIZATION FOR MARITIME TRANSPORT,"BP 28, Bur Sa'id Street",Entity,SYRIA,SDN, ,Syria
SYRIAMAR,"BP 28, Bur Sa'id Street",Entity,SYRIA,SDN, ,Syria
SYRIAN SHIPPING AGENCIES COMPANY,"Port Said Street, P.O. Box 28",Entity,SYRIA,SDN, ,Syria
SHIPPING AGENCIES CO.,"Port Said Street, P.O. Box 28",Entity,SYRIA,SDN, ,Syria
SHIPCO,"Port Said Street, P.O. Box 28",Entity,SYRIA,SDN, ,Syria
SYRIAN CHAMBER OF SHIPPING,"Al Jazaeer Street, Farid Hanna Bldg, 8th Fl., P.O. Box 1731",Entity,SYRIA,SDN, ,Syria
SCOS,"Al Jazaeer Street, Farid Hanna Bldg, 8th Fl., P.O. Box 1731",Entity,SYRIA,SDN, ,Syria
THE EAGLES L.L.C.,"Plot No. 41, Airport Free Trade Zone",Entity,SYRIA,SDN, ,Syria
THE EAGLES INTERNATIONAL LLC,"Plot No. 41, Airport Free Trade Zone",Entity,SYRIA,SDN, ,Syria
Bom Su JANG, ,Individual,NPWMD,SDN, ,Syria
Pom Su JANG, ,Individual,NPWMD,SDN, ,Syria
Hyon U JANG, ,Individual,NPWMD,SDN, ,Syria
Myong Guk JON, ,Individual,NPWMD,SDN, ,Syria
Myo'ng-kuk CHO'N, ,Individual,NPWMD,SDN, ,Syria
Yong Sang JON, ,Individual,NPWMD,SDN, ,Syria
Aqsa MAHMOOD, ,Individual,SDGT,SDN, ,Syria
Umm LAYTH, ,Individual,SDGT,SDN, ,Syria
Sally-Anne Frances JONES, ,Individual,SDGT,SDN, ,Syria
Sally Anne JONES, ,Individual,SDGT,SDN, ,Syria
Sally JONES, ,Individual,SDGT,SDN, ,Syria
Umm Hussain AL-BRITANI, ,Individual,SDGT,SDN, ,Syria
Sakinah HUSSAIN, ,Individual,SDGT,SDN, ,Syria
Emilie KONIG, ,Individual,SDGT,SDN, ,Syria
Gulmurod KHALIMOV, ,Individual,SDGT,SDN, ,Syria
Boubaker Ben Habib Ben ALI HAKIM, ,Individual,SDGT,SDN, ,Syria
Boubakeur EL-HAKIM, ,Individual,SDGT,SDN, ,Syria
Boubakeur AL-HAKIM, ,Individual,SDGT,SDN, ,Syria
Boubaker EL HAKIM, ,Individual,SDGT,SDN, ,Syria
Abou al Mouqatel, ,Individual,SDGT,SDN, ,Syria
Abou Mouqatel, ,Individual,SDGT,SDN, ,Syria
Abu-Muqatil al-Tunisi, ,Individual,SDGT,SDN, ,Syria
Maxime HAUCHARD, ,Individual,SDGT,SDN, ,Syria
Abou Abdallah Al Faransi, ,Individual,SDGT,SDN, ,Syria
Shamil IZMAYLOV, ,Individual,SDGT,SDN, ,Syria
Abu Khalif, ,Individual,SDGT,SDN, ,Syria
Abu Hani, ,Individual,SDGT,SDN, ,Syria
Abu Khanif, ,Individual,SDGT,SDN, ,Syria
Abu Hanif, ,Individual,SDGT,SDN, ,Syria
Nasser MUTHANA, ,Individual,SDGT,SDN, ,Syria
Abu Muthanna al-Yemeni, ,Individual,SDGT,SDN, ,Syria
Abu Muthanna al Yemeni, ,Individual,SDGT,SDN, ,Syria
Abu Muthana Al Yemeni, ,Individual,SDGT,SDN, ,Syria
Aseel MUTHANA, ,Individual,SDGT,SDN, ,Syria
Abu Fariss, ,Individual,SDGT,SDN, ,Syria
Maghomed Maghomedzakirovich ABDURAKHMANOV, ,Individual,SDGT,SDN, ,Syria
Abu Banat, ,Individual,SDGT,SDN, ,Syria
Abu al Banat, ,Individual,SDGT,SDN, ,Syria
HESCO ENGINEERING & CONSTRUCTION CO,"Al Horani Building, Abdullah Ben Omer Street",Entity,SYRIA,SDN, ,Syria
HESCO ENGINEERING AND CONSTRUCTION COMPANY LIMITED,"Al Horani Building, Abdullah Ben Omer Street",Entity,SYRIA,SDN, ,Syria
HESCO ENG & CON. CO,"Al Horani Building, Abdullah Ben Omer Street",Entity,SYRIA,SDN, ,Syria
Yong Chol JO, ,Individual,DPRK2,SDN, ,Syria
Yong Chol CHO, ,Individual,DPRK2,SDN, ,Syria
KHALID BIN AL-WALID ARMY,Yarmouk Valley,Entity,SDGT,SDN, ,Syria
KATIBAH SHUHADA' AL-YARMOUK,Yarmouk Valley,Entity,SDGT,SDN, ,Syria
LIWA' SHUHADA' AL-YARMOUK,Yarmouk Valley,Entity,SDGT,SDN, ,Syria
YARMOUK BRIGADE,Yarmouk Valley,Entity,SDGT,SDN, ,Syria
BRIGADE OF THE YARMOUK MARTYRS,Yarmouk Valley,Entity,SDGT,SDN, ,Syria
MARTYRS OF YARMOUK,Yarmouk Valley,Entity,SDGT,SDN, ,Syria
AL YARMUK BRIGADE,Yarmouk Valley,Entity,SDGT,SDN, ,Syria
SHUHDA AL-YARMOUK,Yarmouk Valley,Entity,SDGT,SDN, ,Syria
SHOHADAA AL-YARMOUK BRIGADE,Yarmouk Valley,Entity,SDGT,SDN, ,Syria
SUHADA'A AL-YARMOUK BRIGADE,Yarmouk Valley,Entity,SDGT,SDN, ,Syria
SHUHADA AL YARMOUK BRIGADE,Yarmouk Valley,Entity,SDGT,SDN, ,Syria
YMB,Yarmouk Valley,Entity,SDGT,SDN, ,Syria
LSY,Yarmouk Valley,Entity,SDGT,SDN, ,Syria
YARMOUK MARTYRS BRIGADE,Yarmouk Valley,Entity,SDGT,SDN, ,Syria
KHALID IBN AL-WALID ARMY,Yarmouk Valley,Entity,SDGT,SDN, ,Syria
KHALID BIN-AL-WALID ARMY,Yarmouk Valley,Entity,SDGT,SDN, ,Syria
KHALID BIN AL-WALEED ARMY,Yarmouk Valley,Entity,SDGT,SDN, ,Syria
JAYSH KHALID BIN-AL-WALID,Yarmouk Valley,Entity,SDGT,SDN, ,Syria
JAISH KHALED BIN ALWALEED,Yarmouk Valley,Entity,SDGT,SDN, ,Syria
JAYSH KHALED BIN AL WALID,Yarmouk Valley,Entity,SDGT,SDN, ,Syria
ARMY OF KHALED BIN ALWALEED,Yarmouk Valley,Entity,SDGT,SDN, ,Syria
MAHROUS GROUP,Rawda Street,Entity,NPWMD,SDN, ,Syria
MAHRUS GROUP,Rawda Street,Entity,NPWMD,SDN, ,Syria
AL MAHRUS GROUP TRADING COMPANY,Rawda Street,Entity,NPWMD,SDN, ,Syria
MAHROUS TRADING INSTITUTE,Rawda Street,Entity,NPWMD,SDN, ,Syria
MAHRUS TRADING ESTABLISHMENT,Rawda Street,Entity,NPWMD,SDN, ,Syria
MAHROUS TRADING ESTABLISHMENT,Rawda Street,Entity,NPWMD,SDN, ,Syria
YONA STAR INTERNATIONAL,Damascus Airport Free Zone,Entity,SYRIA,SDN, ,Syria
YONA STAR TRADING INTERNATIONAL CO. LTD.,Damascus Airport Free Zone,Entity,SYRIA,SDN, ,Syria
YONA HOLDING,Damascus Airport Free Zone,Entity,SYRIA,SDN, ,Syria
YONA STAR,Damascus Airport Free Zone,Entity,SYRIA,SDN, ,Syria
YONA STAR COMPANY,Damascus Airport Free Zone,Entity,SYRIA,SDN, ,Syria
YONA STAR SHIPPING,Damascus Airport Free Zone,Entity,SYRIA,SDN, ,Syria
UNISTAR COMPANY,Damascus Airport Free Zone,Entity,SYRIA,SDN, ,Syria
MONETA TRANSFER AND EXCHANGE, ,Entity,SYRIA,SDN, ,Syria
MONETA MONEY TRANSFER & EXCHANGE, ,Entity,SYRIA,SDN, ,Syria
MONETA EXCHANGE COMPANY, ,Entity,SYRIA,SDN, ,Syria
MONETA MONEY EXCHANGE, ,Entity,SYRIA,SDN, ,Syria
MONETA TRANSFER & EXCHANGE, ,Entity,SYRIA,SDN, ,Syria
Omar DIABY, ,Individual,SDGT,SDN, ,Syria
Omar AL-DIABY, ,Individual,SDGT,SDN, ,Syria
Omar OMSEN, ,Individual,SDGT,SDN, ,Syria
Omar OUMSEN, ,Individual,SDGT,SDN, ,Syria
Oumar DIABY, ,Individual,SDGT,SDN, ,Syria
JUND AL-AQSA, ,Entity,SDGT,SDN, ,Syria
JAA, ,Entity,SDGT,SDN, ,Syria
THE SOLDIERS OF AQSA, ,Entity,SDGT,SDN, ,Syria
SOLDIERS OF AL-AQSA, ,Entity,SDGT,SDN, ,Syria
SARAYAT AL-QUDS, ,Entity,SDGT,SDN, ,Syria
Anas EL ABBOUBI, ,Individual,SDGT,SDN, ,Syria
Anas EL-ABBOUBI, ,Individual,SDGT,SDN, ,Syria
Anas AL-ABBOUBI, ,Individual,SDGT,SDN, ,Syria
Anas AL-ITALY, ,Individual,SDGT,SDN, ,Syria
Abu Rawaha the Italian, ,Individual,SDGT,SDN, ,Syria
Abu the Italian, ,Individual,SDGT,SDN, ,Syria
Rawaha al Itali, ,Individual,SDGT,SDN, ,Syria
Mc Khalifh, ,Individual,SDGT,SDN, ,Syria
McKhalif, ,Individual,SDGT,SDN, ,Syria
Mc Khaliph, ,Individual,SDGT,SDN, ,Syria
Anas SHAKUR, ,Individual,SDGT,SDN, ,Syria
Anas ABDU SHAKUR, ,Individual,SDGT,SDN, ,Syria
Haytham 'Ali TABATABA'I, ,Individual,SDGT,SDN, ,Syria
Abu 'Ali AL-TABATABA'I, ,Individual,SDGT,SDN, ,Syria
Abu Ali TABATABAI, ,Individual,SDGT,SDN, ,Syria
Abu Ali TABTABAI, ,Individual,SDGT,SDN, ,Syria
Ashraf Ahmad Fari' AL-'ALLAK, ,Individual,SDGT,SDN, ,Syria
Ashraf Ahmad Fari AL-ALLAL, ,Individual,SDGT,SDN, ,Syria
Ashraf Ahmad FARI', ,Individual,SDGT,SDN, ,Syria
Abu Raghad AL-URDUNI, ,Individual,SDGT,SDN, ,Syria
Abu Raghad BASHQ, ,Individual,SDGT,SDN, ,Syria
BASHIQ, ,Individual,SDGT,SDN, ,Syria
Abdul JASHARI, ,Individual,SDGT,SDN, ,Syria
Abdulj JASHARI, ,Individual,SDGT,SDN, ,Syria
Abdyl JASHARI, ,Individual,SDGT,SDN, ,Syria
Abu Qatada AL-ALBANI, ,Individual,SDGT,SDN, ,Syria
Abu-Qatadah AL-ALBANI, ,Individual,SDGT,SDN, ,Syria
Commander IRAKI, ,Individual,SDGT,SDN, ,Syria
Jamal Husayn ZAYNIYAH, ,Individual,SDGT,SDN, ,Syria
Abu-Malik AL-ANSARI, ,Individual,SDGT,SDN, ,Syria
Abu-Malik AL-SHAMI, ,Individual,SDGT,SDN, ,Syria
Abu-Malik AL-TALLI, ,Individual,SDGT,SDN, ,Syria
Rafiq SHIHADAH, ,Individual,SYRIA,SDN, ,Syria
Wafiq SHIHADAH, ,Individual,SYRIA,SDN, ,Syria
Rafiq SHIHADA, ,Individual,SYRIA,SDN, ,Syria
Rafiq SHAHADAH, ,Individual,SYRIA,SDN, ,Syria
Rafik SHEHADEH, ,Individual,SYRIA,SDN, ,Syria
Suhayl Hasan AL-HASAN, ,Individual,SYRIA,SDN, ,Syria
Suheil HASSAN, ,Individual,SYRIA,SDN, ,Syria
Muhammad Nafi BILAL, ,Individual,SYRIA,SDN, ,Syria
Muhammad BILAL, ,Individual,SYRIA,SDN, ,Syria
Yasin Ahmad DAHI, ,Individual,SYRIA,SDN, ,Syria
Muhammad Mahmud MAHALLA, ,Individual,SYRIA,SDN, ,Syria
Muhammad MAHALA, ,Individual,SYRIA,SDN, ,Syria
Muhammad Khalid RAHMUN, ,Individual,SYRIA,SDN, ,Syria
Talal Shafiq MAKHLUF, ,Individual,SYRIA,SDN, ,Syria
Talal MAKHLOUF, ,Individual,SYRIA,SDN, ,Syria
Saji Jamil DARWISH, ,Individual,SYRIA,SDN, ,Syria
SYRIAN ARAB ARMY, ,Entity,SYRIA,SDN, ,Syria
SYRIAN ARAB AIR DEFENSE FORCES, ,Entity,SYRIA,SDN, ,Syria
SYRIAN ARAB NAVY, ,Entity,SYRIA,SDN, ,Syria
SYRIAN ARAB REPUBLICAN GUARD, ,Entity,SYRIA,SDN, ,Syria
SYRIAN AIR FORCE, ,Entity,SYRIA,SDN, ,Syria
Badi MUALLA, ,Individual,SYRIA,SDN, ,Syria
Badi Sulayman MUALLA, ,Individual,SYRIA,SDN, ,Syria
Abdullah Ahmed AL-MESHEDANI, ,Individual,SDGT,SDN, ,Syria
Abdullah Ahmed AL-MASHHADANI, ,Individual,SDGT,SDN, ,Syria
Abdullah Ahmad AL-MASHHADANI, ,Individual,SDGT,SDN, ,Syria
Abu Qassim, ,Individual,SDGT,SDN, ,Syria
Abu Kassem, ,Individual,SDGT,SDN, ,Syria
Abu al-Qasem, ,Individual,SDGT,SDN, ,Syria
Basil HASSAN, ,Individual,SDGT,SDN, ,Syria
Abdelilah HIMICH, ,Individual,SDGT,SDN, ,Syria
Abu Suleyman al-Faransi, ,Individual,SDGT,SDN, ,Syria
Abu Suleyman al-Firansi, ,Individual,SDGT,SDN, ,Syria
Abu Sulaiyman al Fransi, ,Individual,SDGT,SDN, ,Syria
Abu Sulaiyman, ,Individual,SDGT,SDN, ,Syria
Abu Suleyman, ,Individual,SDGT,SDN, ,Syria
Abou Souleiman al-Firansi, ,Individual,SDGT,SDN, ,Syria
Abu Sulayman al-Faransi, ,Individual,SDGT,SDN, ,Syria
Abu Souleymane, ,Individual,SDGT,SDN, ,Syria
Abu Souleymane al-Faransi, ,Individual,SDGT,SDN, ,Syria
Abu Souleymane the Frenchman, ,Individual,SDGT,SDN, ,Syria
Abu Suleiman, ,Individual,SDGT,SDN, ,Syria
Fawaz Muhammad JUBAYR AL-RAWI, ,Individual,SDGT,SDN, ,Syria
Fawaz Muhamed JABIR AL-RAWI, ,Individual,SDGT,SDN, ,Syria
Fawwaz Muhammad JUBAYR AL-RAWI, ,Individual,SDGT,SDN, ,Syria
Fawwaz JABUR AL-RAWI, ,Individual,SDGT,SDN, ,Syria
Hajji Fouaz AL-ARWEE, ,Individual,SDGT,SDN, ,Syria
Hajj Fawaz AL-RAWI, ,Individual,SDGT,SDN, ,Syria
HANIFA MONEY EXCHANGE OFFICE, ,Entity,SDGT,SDN, ,Syria
HANIFEH EXCHANGE, ,Entity,SDGT,SDN, ,Syria
HANIFA EXCHANGE, ,Entity,SDGT,SDN, ,Syria
HANIFAH CURRENCY EXCHANGE, ,Entity,SDGT,SDN, ,Syria
HUNAIFA OFFICE, ,Entity,SDGT,SDN, ,Syria
HANIFAH EXCHANGE COMPANY, ,Entity,SDGT,SDN, ,Syria
AL-HISN,Jurmana,Entity,SYRIA,SDN, ,Syria
AL-HISN FIRM FOR SECURITY PROTECTION AND GUARD SERVICES,Jurmana,Entity,SYRIA,SDN, ,Syria
AL-HISN FIRM,Jurmana,Entity,SYRIA,SDN, ,Syria
AL-HUSN,Jurmana,Entity,SYRIA,SDN, ,Syria
AL-QASIUN,Jurmana,Entity,SYRIA,SDN, ,Syria
AL-QASIUN SECURITY SERVICES LLC,Jurmana,Entity,SYRIA,SDN, ,Syria
AL-QASIUN FIRM,Jurmana,Entity,SYRIA,SDN, ,Syria
QASIYUN SECURITY COMPANY,Jurmana,Entity,SYRIA,SDN, ,Syria
QASIYUN,Jurmana,Entity,SYRIA,SDN, ,Syria
SYRISS,"Head Office, Suite 707, Oriental Finance Building, 140 Dong Feng Xi Road",Entity,SYRIA,SDN, ,Syria
SYRISS GROUP LIMITED,"Head Office, Suite 707, Oriental Finance Building, 140 Dong Feng Xi Road",Entity,SYRIA,SDN, ,Syria
SYRISS LOGISTICS AND SERVICE COMPANY,"Head Office, Suite 707, Oriental Finance Building, 140 Dong Feng Xi Road",Entity,SYRIA,SDN, ,Syria
GUANGZHOU SYRISS LOGISTICS & SERVICES,"Head Office, Suite 707, Oriental Finance Building, 140 Dong Feng Xi Road",Entity,SYRIA,SDN, ,Syria
CHAM WINGS AIRLINES,Al Fardous Street,Entity,SYRIA,SDN, ,Syria
AJNEHAT AL SHAM,Al Fardous Street,Entity,SYRIA,SDN, ,Syria
SHAM WING AIRLINES,Al Fardous Street,Entity,SYRIA,SDN, ,Syria
CHAM WINGS,Al Fardous Street,Entity,SYRIA,SDN, ,Syria
AL-SHAM WINGS,Al Fardous Street,Entity,SYRIA,SDN, ,Syria
Bayan BITAR,PO Box 11037,Individual,NPWMD,SDN, ,Syria
Bayan AL-BITAR,PO Box 11037,Individual,NPWMD,SDN, ,Syria
Bassam Ahmad AL-HASRI, ,Individual,SDGT,SDN, ,Syria
Bassam Ahmad HUSARI, ,Individual,SDGT,SDN, ,Syria
Abu Ahmad AL-SHAMI, ,Individual,SDGT,SDN, ,Syria
Abu Ahmad AKHLAQ, ,Individual,SDGT,SDN, ,Syria
Iyad Nazmi Salih KHALIL, ,Individual,SDGT,SDN, ,Syria
Ayyad Nazmi Salih KHALIL, ,Individual,SDGT,SDN, ,Syria
Eyad Nazmi Saleh KHALIL, ,Individual,SDGT,SDN, ,Syria
Iyad AL-TOUBASI, ,Individual,SDGT,SDN, ,Syria
Iyad AL-TUBASI, ,Individual,SDGT,SDN, ,Syria
Abu AL-DARDA', ,Individual,SDGT,SDN, ,Syria
Abu-Julaybib AL-URDUNI, ,Individual,SDGT,SDN, ,Syria
ABU-JULAYBIB, ,Individual,SDGT,SDN, ,Syria
Alexanda Amon KOTEY, ,Individual,SDGT,SDN, ,Syria
Alexanda KOTEY, ,Individual,SDGT,SDN, ,Syria
Allexanda KOTEY, ,Individual,SDGT,SDN, ,Syria
Alexander KOTEY, ,Individual,SDGT,SDN, ,Syria
Alexe KOTEY, ,Individual,SDGT,SDN, ,Syria
Alex KOTEY, ,Individual,SDGT,SDN, ,Syria
Abu SALIH, ,Individual,SDGT,SDN, ,Syria
Abu-Salih AL-BARITANI, ,Individual,SDGT,SDN, ,Syria
Khaled SHARROUF, ,Individual,SDGT,SDN, ,Syria
Abu ZARQAWI, ,Individual,SDGT,SDN, ,Syria
Abu ZARQAWI AL AUSTR, ,Individual,SDGT,SDN, ,Syria
Abu ZARQAWI AUSTRALI, ,Individual,SDGT,SDN, ,Syria
Bachrumsyah Mennor USMAN, ,Individual,SDGT,SDN, ,Syria
BACHRUMSYAH, ,Individual,SDGT,SDN, ,Syria
BAHRUMSYAH, ,Individual,SDGT,SDN, ,Syria
BACHRUMSHAH, ,Individual,SDGT,SDN, ,Syria
Bahrum SYAH, ,Individual,SDGT,SDN, ,Syria
Abu MUHAMMAD AL-ANDUNISIY, ,Individual,SDGT,SDN, ,Syria
Abu MUHAMMAD AL-INDONESI, ,Individual,SDGT,SDN, ,Syria
Abu MUHAMMAD AL-INDUNISI, ,Individual,SDGT,SDN, ,Syria
Abu IBRAHIM, ,Individual,SDGT,SDN, ,Syria
Abu SHABRINA, ,Individual,SDGT,SDN, ,Syria
Neil Christopher PRAKASH, ,Individual,SDGT,SDN, ,Syria
Abu KHALED AL-CAMBODI, ,Individual,SDGT,SDN, ,Syria
ORGANIZATION FOR TECHNOLOGICAL INDUSTRIES,Sham Algadida OTip Box,Entity,NPWMD,SDN, ,Syria
THE ORGANIZATION FOR TECHNICAL INDUSTRIES,Sham Algadida OTip Box,Entity,NPWMD,SDN, ,Syria
METALLIC MANUFACTURING FACTORY,"29 May Street, Damascus-Al-Sabe E Bahrat Square, P.O. Box 12184",Entity,NPWMD,SDN, ,Syria
Muhammad Bahrun Naim Anggih TAMTOMO, ,Individual,SDGT,SDN, ,Syria
Bahrun NAIM, ,Individual,SDGT,SDN, ,Syria
Anggih TAMTOMO, ,Individual,SDGT,SDN, ,Syria
Abu RAYYAN, ,Individual,SDGT,SDN, ,Syria
Abu RAYAN, ,Individual,SDGT,SDN, ,Syria
Abu AISYAH, ,Individual,SDGT,SDN, ,Syria
Muhammad Wanndy Bin Mohamed JEDI, ,Individual,SDGT,SDN, ,Syria
Muhamad Wanndy bin Muhamad JEDI, ,Individual,SDGT,SDN, ,Syria
Muhamad Wanndy Muhamad JEDI, ,Individual,SDGT,SDN, ,Syria
Muhamad Wanndy Mohamad JEDI, ,Individual,SDGT,SDN, ,Syria
Muhamad WANNDY, ,Individual,SDGT,SDN, ,Syria
Abu Hamzah AL-FATEH, ,Individual,SDGT,SDN, ,Syria
Abu Sayyaf AL-MALIZI, ,Individual,SDGT,SDN, ,Syria
El Shafee ELSHEIKH, ,Individual,SDGT,SDN, ,Syria
Shaf, ,Individual,SDGT,SDN, ,Syria
Shafee, ,Individual,SDGT,SDN, ,Syria
Mark John TAYLOR, ,Individual,SDGT,SDN, ,Syria
Mark TAYLOR, ,Individual,SDGT,SDN, ,Syria
Mohammad DANIEL, ,Individual,SDGT,SDN, ,Syria
Muhammad DANIEL, ,Individual,SDGT,SDN, ,Syria
Abu Abdul Rahman, ,Individual,SDGT,SDN, ,Syria
Mark John AL-RAHMAN, ,Individual,SDGT,SDN, ,Syria
Shane Dominic CRAWFORD, ,Individual,SDGT,SDN, ,Syria
Asadullah, ,Individual,SDGT,SDN, ,Syria
Abu Sa'd at-Trinidadi, ,Individual,SDGT,SDN, ,Syria
Shane Asadullah CRAWFORD, ,Individual,SDGT,SDN, ,Syria
Asad, ,Individual,SDGT,SDN, ,Syria
Tarek SAKR, ,Individual,SDGT,SDN, ,Syria
Farah Mohamed SHIRDON, ,Individual,SDGT,SDN, ,Syria
Farah SHIRDON, ,Individual,SDGT,SDN, ,Syria
Abu Usamah, ,Individual,SDGT,SDN, ,Syria
Abu Usamah Somali, ,Individual,SDGT,SDN, ,Syria
Abu Usama al Somali, ,Individual,SDGT,SDN, ,Syria
Abu Usamah as-Somali, ,Individual,SDGT,SDN, ,Syria
Mubarak Mohammed A ALOTAIBI, ,Individual,SDGT,SDN, ,Syria
ABU GHAYTH, ,Individual,SDGT,SDN, ,Syria
Waqqas AL-JAZRAWI, ,Individual,SDGT,SDN, ,Syria
Ahmad HAMDAN, ,Individual,SYRIA,SDN, ,Syria
Ghassan SAFTALI, ,Individual,SYRIA,SDN, ,Syria
Haytham Ahmad AL-HURANI, ,Individual,SYRIA,SDN, ,Syria
Ahmad 'ALI, ,Individual,SYRIA,SDN, ,Syria
Muhammad AL-IBRAHIM, ,Individual,SYRIA,SDN, ,Syria
Bilal HASAN, ,Individual,SYRIA,SDN, ,Syria
Ali DARWISH, ,Individual,SYRIA,SDN, ,Syria
Siwumar MUHANNA, ,Individual,SYRIA,SDN, ,Syria
Badr RASHID, ,Individual,SYRIA,SDN, ,Syria
Ayham ISMA'IL, ,Individual,SYRIA,SDN, ,Syria
Mazin 'ALYA, ,Individual,SYRIA,SDN, ,Syria
Muhammad Samir AL-FAQIR, ,Individual,SYRIA,SDN, ,Syria
Iman AL-TAWWAKHI, ,Individual,SYRIA,SDN, ,Syria
Ridwan 'Ali AL-JIBAWI, ,Individual,SYRIA,SDN, ,Syria
Samar Shakir JAWISH, ,Individual,SYRIA,SDN, ,Syria
Hiyam JIRJIS, ,Individual,SYRIA,SDN, ,Syria
Salma AL-JABI, ,Individual,SYRIA,SDN, ,Syria
Rim Nadir AL-TAQI, ,Individual,SYRIA,SDN, ,Syria
Hana AL-'AZBAH, ,Individual,SYRIA,SDN, ,Syria
As'ad HASAN, ,Individual,SYRIA,SDN, ,Syria
Safwan AL-AKHRAS, ,Individual,SYRIA,SDN, ,Syria
Ammar HASAN, ,Individual,SYRIA,SDN, ,Syria
Samiya BABA, ,Individual,SYRIA,SDN, ,Syria
Amin HUDBAH, ,Individual,SYRIA,SDN, ,Syria
Yumna Marwan al-Sayyid Sulayman AL-ATASI, ,Individual,SYRIA,SDN, ,Syria
Tamam AL-DARWISH, ,Individual,SYRIA,SDN, ,Syria
Abir 'Abd-al-Karim KHAYMI, ,Individual,SYRIA,SDN, ,Syria
Nariman AL-DAWUD, ,Individual,SYRIA,SDN, ,Syria
Ridwan Hasan 'ALLUSH, ,Individual,SYRIA,SDN, ,Syria
Sayyar 'ABDALLAH, ,Individual,SYRIA,SDN, ,Syria
Fayiz MUSTAFA, ,Individual,SYRIA,SDN, ,Syria
Ridwan AL-KHATIB, ,Individual,SYRIA,SDN, ,Syria
Rashid AYYUBI, ,Individual,SYRIA,SDN, ,Syria
Isa NASR, ,Individual,SYRIA,SDN, ,Syria
Saba NASIF, ,Individual,SYRIA,SDN, ,Syria
Wafa' NAJJAR, ,Individual,SYRIA,SDN, ,Syria
Ghayth AL-SHAWWA, ,Individual,SYRIA,SDN, ,Syria
Muhammad Riyad HIMSI, ,Individual,SYRIA,SDN, ,Syria
Saba AL-TABBAL, ,Individual,SYRIA,SDN, ,Syria
Rim 'ABBAS, ,Individual,SYRIA,SDN, ,Syria
Muhammad SALLUM, ,Individual,SYRIA,SDN, ,Syria
Jumanah AL-SASI, ,Individual,SYRIA,SDN, ,Syria
Hassan AL-RAYS, ,Individual,SYRIA,SDN, ,Syria
Nidal AL-SA'ID, ,Individual,SYRIA,SDN, ,Syria
Yunus SA'UD, ,Individual,SYRIA,SDN, ,Syria
Sa'id SINDID, ,Individual,SYRIA,SDN, ,Syria
Muhammad Sayyah NASR, ,Individual,SYRIA,SDN, ,Syria
'Ali HUSAYN, ,Individual,SYRIA,SDN, ,Syria
Rula KIWAN, ,Individual,SYRIA,SDN, ,Syria
Ziyad 'AQQAD, ,Individual,SYRIA,SDN, ,Syria
Muhammad Zuhayr AL-MUDALLAL, ,Individual,SYRIA,SDN, ,Syria
Adnan AL-JUBBAH, ,Individual,SYRIA,SDN, ,Syria
Diyab AL-SHAYKH, ,Individual,SYRIA,SDN, ,Syria
Fadiyah ZA'RURAH, ,Individual,SYRIA,SDN, ,Syria
Hala SIRHAN, ,Individual,SYRIA,SDN, ,Syria
Muzayyin AL-DAGHISTANI, ,Individual,SYRIA,SDN, ,Syria
Khalil MANSUR, ,Individual,SYRIA,SDN, ,Syria
Zuhayr RABAH, ,Individual,SYRIA,SDN, ,Syria
Sa'id SA'ID, ,Individual,SYRIA,SDN, ,Syria
Muhammad Akram AL-BURSHAH, ,Individual,SYRIA,SDN, ,Syria
Ahmad ZARIFAH, ,Individual,SYRIA,SDN, ,Syria
Yahya 'ABD-AL-JALIL, ,Individual,SYRIA,SDN, ,Syria
Zakariya AL-'ASALI, ,Individual,SYRIA,SDN, ,Syria
Maysa' QATTAN, ,Individual,SYRIA,SDN, ,Syria
Lu'ay DA'UD, ,Individual,SYRIA,SDN, ,Syria
Mashhur AL-HUSAYN, ,Individual,SYRIA,SDN, ,Syria
Muhammad Sa'id AL-HAKIM, ,Individual,SYRIA,SDN, ,Syria
Akram SULAYMAN, ,Individual,SYRIA,SDN, ,Syria
Muhammad Ghassan TALLUJ, ,Individual,SYRIA,SDN, ,Syria
Firiyal QATISH, ,Individual,SYRIA,SDN, ,Syria
Muhammad Hisham Fu'ad YUSUF, ,Individual,SYRIA,SDN, ,Syria
Sa'id FARMAND, ,Individual,SYRIA,SDN, ,Syria
Muhammad HUSAYN, ,Individual,SYRIA,SDN, ,Syria
Muhammad Khayr SUKHAYTAH, ,Individual,SYRIA,SDN, ,Syria
Muhammad BIZRAH, ,Individual,SYRIA,SDN, ,Syria
Fayiz BUZ-AL-JUDDI, ,Individual,SYRIA,SDN, ,Syria
Muna KHABIYYAH, ,Individual,SYRIA,SDN, ,Syria
Muhsin YUSUF, ,Individual,SYRIA,SDN, ,Syria
Yusuf AL-HATUM, ,Individual,SYRIA,SDN, ,Syria
Rajab DAYYUB, ,Individual,SYRIA,SDN, ,Syria
Ayman AL-DALATI, ,Individual,SYRIA,SDN, ,Syria
Basil AL-HALABI, ,Individual,SYRIA,SDN, ,Syria
Mahmud ZANBU'AH, ,Individual,SYRIA,SDN, ,Syria
Abd-al-Salam AL-RASLAN, ,Individual,SYRIA,SDN, ,Syria
Muhammad HAWWAT, ,Individual,SYRIA,SDN, ,Syria
Nawras AL-ID, ,Individual,SYRIA,SDN, ,Syria
Mahmud RAHHAL, ,Individual,SYRIA,SDN, ,Syria
Salih AL-'ALI, ,Individual,SYRIA,SDN, ,Syria
Ahd AL-MASRI, ,Individual,SYRIA,SDN, ,Syria
Amin MAJRUD, ,Individual,SYRIA,SDN, ,Syria
Salim DUMIT, ,Individual,SYRIA,SDN, ,Syria
Hikmat 'ABDU, ,Individual,SYRIA,SDN, ,Syria
Ahmad DAHIR, ,Individual,SYRIA,SDN, ,Syria
Iyad SALIM, ,Individual,SYRIA,SDN, ,Syria
Haytham ASMAR, ,Individual,SYRIA,SDN, ,Syria
Musa AL-HARIRI, ,Individual,SYRIA,SDN, ,Syria
Farhan MAHFUD, ,Individual,SYRIA,SDN, ,Syria
Ayman AHMAD, ,Individual,SYRIA,SDN, ,Syria
Tha'ir DAYYUB, ,Individual,SYRIA,SDN, ,Syria
Isma'il 'ALI, ,Individual,SYRIA,SDN, ,Syria
Muzhir SHARBA, ,Individual,SYRIA,SDN, ,Syria
Ma'n GHANIM, ,Individual,SYRIA,SDN, ,Syria
Misbah MIRDASH, ,Individual,SYRIA,SDN, ,Syria
Faysal BU'AYTI, ,Individual,SYRIA,SDN, ,Syria
Zakariya AL-'ALI, ,Individual,SYRIA,SDN, ,Syria
Taysir SULAYMAN, ,Individual,SYRIA,SDN, ,Syria
Lu'ay FU'ANI, ,Individual,SYRIA,SDN, ,Syria
Hanan HUSAYN, ,Individual,SYRIA,SDN, ,Syria
Hamid JUM'AH, ,Individual,SYRIA,SDN, ,Syria
Sulsubayla AL-JANAN, ,Individual,SYRIA,SDN, ,Syria
Yusuf MA'TUQ, ,Individual,SYRIA,SDN, ,Syria
Rana BUNDUQJI, ,Individual,SYRIA,SDN, ,Syria
Rana SAQR, ,Individual,SYRIA,SDN, ,Syria
Husam-al-Din JALAL, ,Individual,SYRIA,SDN, ,Syria
Samir AL-SHA'IR, ,Individual,SYRIA,SDN, ,Syria
Majd SA'ID, ,Individual,SYRIA,SDN, ,Syria
Ruba DUWAYR, ,Individual,SYRIA,SDN, ,Syria
Muhammad SALMAN, ,Individual,SYRIA,SDN, ,Syria
Ayham Hajj MUSTAFA, ,Individual,SYRIA,SDN, ,Syria
Susan LAYLA, ,Individual,SYRIA,SDN, ,Syria
Rahf AL-MASRI, ,Individual,SYRIA,SDN, ,Syria
Ghusn al-Zuhur AL-FAWAKHIRI, ,Individual,SYRIA,SDN, ,Syria
Mustafa ZAYDAN, ,Individual,SYRIA,SDN, ,Syria
Shadi SALMAN, ,Individual,SYRIA,SDN, ,Syria
Anas AL-WADI, ,Individual,SYRIA,SDN, ,Syria
Muhammad Haytham 'ABD-AL-SAMAD, ,Individual,SYRIA,SDN, ,Syria
Ruwaydah SA'ADAH, ,Individual,SYRIA,SDN, ,Syria
Farhub FADUL, ,Individual,SYRIA,SDN, ,Syria
Muhammad Iyad AL-NA'IMI, ,Individual,SYRIA,SDN, ,Syria
Muhammad Nasir SABBAGH, ,Individual,SYRIA,SDN, ,Syria
Mahmubd AL-HARZRURI, ,Individual,SYRIA,SDN, ,Syria
Ibrahim Sa'd Zayn-al-'Abidin JAZBAH, ,Individual,SYRIA,SDN, ,Syria
Qasim AL-NAJJAR, ,Individual,SYRIA,SDN, ,Syria
Muhammad Nazmi 'Ulwani DABBAGH, ,Individual,SYRIA,SDN, ,Syria
Abdallah 'ABDU, ,Individual,SYRIA,SDN, ,Syria
Ali ASWAD, ,Individual,SYRIA,SDN, ,Syria
Sa'dallah 'Atif LABABIDI, ,Individual,SYRIA,SDN, ,Syria
Jamal Zaydan SHAHT, ,Individual,SYRIA,SDN, ,Syria
Muhammad Jalal HILALI, ,Individual,SYRIA,SDN, ,Syria
Muhammad AL-RAHHAL, ,Individual,SYRIA,SDN, ,Syria
Amir MUSHRIF, ,Individual,SYRIA,SDN, ,Syria
Muhammad Nadim Subhi ZIHAR, ,Individual,SYRIA,SDN, ,Syria
'Abd-al-'Azim AL-BAKKUR, ,Individual,SYRIA,SDN, ,Syria
Ahmad DAWARAH, ,Individual,SYRIA,SDN, ,Syria
Imad Isma'il BASHA, ,Individual,SYRIA,SDN, ,Syria
Abd-al-Rahman BASAL, ,Individual,SYRIA,SDN, ,Syria
Ahd BITAR, ,Individual,SYRIA,SDN, ,Syria
Faysal MUHAMMAD, ,Individual,SYRIA,SDN, ,Syria
Samih ANIS, ,Individual,SYRIA,SDN, ,Syria
Imad NUR-AL-DIN, ,Individual,SYRIA,SDN, ,Syria
Isa KHIDR, ,Individual,SYRIA,SDN, ,Syria
Umar HIJAZI, ,Individual,SYRIA,SDN, ,Syria
Jamal 'Ali AL-AQRA', ,Individual,SYRIA,SDN, ,Syria
Ziyad Ramadan LULAH, ,Individual,SYRIA,SDN, ,Syria
Ahmad SABUNI, ,Individual,SYRIA,SDN, ,Syria
Hasan AHMAD, ,Individual,SYRIA,SDN, ,Syria
Muhammad AL-SHAYKH, ,Individual,SYRIA,SDN, ,Syria
Khalid Zaki QANBAR, ,Individual,SYRIA,SDN, ,Syria
Ahmad SALIM, ,Individual,SYRIA,SDN, ,Syria
As'ad 'Adnan HALLAQ, ,Individual,SYRIA,SDN, ,Syria
Haytham SHUNATI, ,Individual,SYRIA,SDN, ,Syria
Wahid HUSAYN, ,Individual,SYRIA,SDN, ,Syria
Mustafa Dib RABI', ,Individual,SYRIA,SDN, ,Syria
Faysal KHALUF, ,Individual,SYRIA,SDN, ,Syria
Hannan JAHHAR, ,Individual,SYRIA,SDN, ,Syria
'Ali Hajj MUHAMMAD, ,Individual,SYRIA,SDN, ,Syria
Fadi AL-RAHYAH, ,Individual,SYRIA,SDN, ,Syria
Muhammad 'ABDALLAH, ,Individual,SYRIA,SDN, ,Syria
Muhammad Mu'ammar QURJU, ,Individual,SYRIA,SDN, ,Syria
Muhammad HAMANDUSH, ,Individual,SYRIA,SDN, ,Syria
Abdallah JUNDIYAH, ,Individual,SYRIA,SDN, ,Syria
Abd-al-Salam MA'RUF, ,Individual,SYRIA,SDN, ,Syria
Muhammad SA'DU, ,Individual,SYRIA,SDN, ,Syria
Ahmad ASWAD, ,Individual,SYRIA,SDN, ,Syria
Fu'ad 'AZIZI, ,Individual,SYRIA,SDN, ,Syria
Muhammad Ayman Nasir-al-Din SALIM, ,Individual,SYRIA,SDN, ,Syria
Hudu' Nayif HAMSHU, ,Individual,SYRIA,SDN, ,Syria
Muhammad Ridwan QUDAYMATI, ,Individual,SYRIA,SDN, ,Syria
Muhammad Nasir MUHAYIRI, ,Individual,SYRIA,SDN, ,Syria
Hikmat 'ABBUD, ,Individual,SYRIA,SDN, ,Syria
Sinan SAQR, ,Individual,SYRIA,SDN, ,Syria
Fu'ad 'Abd-al-Qadir IBRAHIM, ,Individual,SYRIA,SDN, ,Syria
Husayn Rida JAWISH, ,Individual,SYRIA,SDN, ,Syria
Ahmad NAJIB, ,Individual,SYRIA,SDN, ,Syria
Muhammad AL-MUHAMMAD, ,Individual,SYRIA,SDN, ,Syria
Ibrahim IDRIS, ,Individual,SYRIA,SDN, ,Syria
Muhammad 'ARAFAT, ,Individual,SYRIA,SDN, ,Syria
Ammar DAYRI, ,Individual,SYRIA,SDN, ,Syria
Bassam WARDAH, ,Individual,SYRIA,SDN, ,Syria
Mus'id AL-'UBAYSI, ,Individual,SYRIA,SDN, ,Syria
Muhammad Fawzi HAJJI, ,Individual,SYRIA,SDN, ,Syria
Husam 'Adbd-al-Barr AL-FAKHURI, ,Individual,SYRIA,SDN, ,Syria
Qasim TABAQ, ,Individual,SYRIA,SDN, ,Syria
Muhammad 'Azzam SHI'AR, ,Individual,SYRIA,SDN, ,Syria
Abdallah HAFIZ, ,Individual,SYRIA,SDN, ,Syria
Abd-al-'Aziz 'ABD-AL-QADIR, ,Individual,SYRIA,SDN, ,Syria
Samir 'ALI, ,Individual,SYRIA,SDN, ,Syria
Ibrahim AL-KHUWAYLID, ,Individual,SYRIA,SDN, ,Syria
'Abd-al-Salam SHURAYQI, ,Individual,SYRIA,SDN, ,Syria
Muhammad al-Khalid KHASHAFI, ,Individual,SYRIA,SDN, ,Syria
'Abd-al-Hakim SHURUF, ,Individual,SYRIA,SDN, ,Syria
Zakariya 'Ali AL-ISMA'IL, ,Individual,SYRIA,SDN, ,Syria
'Abdu Tahir AL-MATAR, ,Individual,SYRIA,SDN, ,Syria
Mashhur DIB, ,Individual,SYRIA,SDN, ,Syria
Akram AL-QUTMAH, ,Individual,SYRIA,SDN, ,Syria
Muhammad Wa'il TURAYSI, ,Individual,SYRIA,SDN, ,Syria
Ahmad HAMAWI, ,Individual,SYRIA,SDN, ,Syria
Samir al-Ahmad AL-YUSUF, ,Individual,SYRIA,SDN, ,Syria
Muhammad 'ALI, ,Individual,SYRIA,SDN, ,Syria
Basil SHA'BAN, ,Individual,SYRIA,SDN, ,Syria
Muhammad Amin NAJJAR, ,Individual,SYRIA,SDN, ,Syria
Rashid Rashid NI'MA, ,Individual,SYRIA,SDN, ,Syria
Ahmad 'ABD-AL-WAHHAB, ,Individual,SYRIA,SDN, ,Syria
Sabir Khayr MUSATTIT, ,Individual,SYRIA,SDN, ,Syria
Riyad AL-AHMAD, ,Individual,SYRIA,SDN, ,Syria
Husayn-Ahmad AL-BAYKU, ,Individual,SYRIA,SDN, ,Syria
Jalal-al-Din 'Adil JIJAH, ,Individual,SYRIA,SDN, ,Syria
Hadil SHUAYHANAH, ,Individual,SYRIA,SDN, ,Syria
Malik 'Adil KARIM, ,Individual,SYRIA,SDN, ,Syria
Ahmad KHALALU, ,Individual,SYRIA,SDN, ,Syria
Nisrin Bubhi 'ID, ,Individual,SYRIA,SDN, ,Syria
Muhammad HAITANI, ,Individual,SYRIA,SDN, ,Syria
Diya' WAFA'I, ,Individual,SYRIA,SDN, ,Syria
Nur-al-Din BAWADUQJI, ,Individual,SYRIA,SDN, ,Syria
Usamah Ramadan MALA'IKAH, ,Individual,SYRIA,SDN, ,Syria
Firas MUSA, ,Individual,SYRIA,SDN, ,Syria
Khalid AL-MAHMUD, ,Individual,SYRIA,SDN, ,Syria
Anas 'Adil MIRKAN, ,Individual,SYRIA,SDN, ,Syria
Husam-al-Din Walid KALALAH, ,Individual,SYRIA,SDN, ,Syria
Wasim AL-SA'ID, ,Individual,SYRIA,SDN, ,Syria
Muhammad HARIRI, ,Individual,SYRIA,SDN, ,Syria
'Abd-al-Latif KITU', ,Individual,SYRIA,SDN, ,Syria
Firas Hajj SALIM, ,Individual,SYRIA,SDN, ,Syria
Husam a-Sahykh TAHA, ,Individual,SYRIA,SDN, ,Syria
Jawdat NA'SANI, ,Individual,SYRIA,SDN, ,Syria
Khalid AL-BAKUR, ,Individual,SYRIA,SDN, ,Syria
Suhayr AL-HUSAYN, ,Individual,SYRIA,SDN, ,Syria
Rana 'ULAYSHAH, ,Individual,SYRIA,SDN, ,Syria
Muhsin AL-FIRAS, ,Individual,SYRIA,SDN, ,Syria
Isma'il AL-SHURAYQI, ,Individual,SYRIA,SDN, ,Syria
'Ali IBRAHIM, ,Individual,SYRIA,SDN, ,Syria
Ammar Fu'ad AL-ISMA'IL, ,Individual,SYRIA,SDN, ,Syria
Nasim 'AWDAH, ,Individual,SYRIA,SDN, ,Syria
Ahmad al-Hasan AL-SILMU, ,Individual,SYRIA,SDN, ,Syria
Ali IBRAHIM, ,Individual,SYRIA,SDN, ,Syria
Ahmad AL-'ABD, ,Individual,SYRIA,SDN, ,Syria
Muhammad 'ALI, ,Individual,SYRIA,SDN, ,Syria
'Ala'-al-Din JUKHDAR, ,Individual,SYRIA,SDN, ,Syria
Bashar SA'ADAT, ,Individual,SYRIA,SDN, ,Syria
Murad AS'AD, ,Individual,SYRIA,SDN, ,Syria
Khalid al-Hajj Muhammad AL-'AYSH, ,Individual,SYRIA,SDN, ,Syria
Ahd JADDU', ,Individual,SYRIA,SDN, ,Syria
Hasan KHADDUR, ,Individual,SYRIA,SDN, ,Syria
Salma MUKHAYBIR, ,Individual,SYRIA,SDN, ,Syria
Jihad-al-Din QURJU, ,Individual,SYRIA,SDN, ,Syria
'Abd-al-Nasir Ibbi ZAMR, ,Individual,SYRIA,SDN, ,Syria
Muhammad 'Arif al-Hasan AL-KHUDAYR, ,Individual,SYRIA,SDN, ,Syria
Ali JUMUL, ,Individual,SYRIA,SDN, ,Syria
Abdallah AL-HASAN, ,Individual,SYRIA,SDN, ,Syria
Wasim SALMAN, ,Individual,SYRIA,SDN, ,Syria
Dayma SULAYMAN, ,Individual,SYRIA,SDN, ,Syria
Ahmad Nadir Ibrahim BASHA, ,Individual,SYRIA,SDN, ,Syria
Ibrahim MUSTAFA, ,Individual,SYRIA,SDN, ,Syria
Baha' AL-LAYIQ, ,Individual,SYRIA,SDN, ,Syria
Jamilah TAHA, ,Individual,SYRIA,SDN, ,Syria
Hala FARAJ, ,Individual,SYRIA,SDN, ,Syria
Aminah AL-MUKAHHAL, ,Individual,SYRIA,SDN, ,Syria
Hasan Muhammad ZAYD, ,Individual,SYRIA,SDN, ,Syria
Milad MAWAS, ,Individual,SYRIA,SDN, ,Syria
Ahmad 'ABUD, ,Individual,SYRIA,SDN, ,Syria
Nawar MUTAWIJ, ,Individual,SYRIA,SDN, ,Syria
Muhammed Bin-Muhammed Faris QUWAYDIR, ,Individual,NPWMD,SDN, ,Syria
Muhammad KWEIDER, ,Individual,NPWMD,SDN, ,Syria
Muhammad QUAYDIR, ,Individual,NPWMD,SDN, ,Syria
Muhammad KWEITER, ,Individual,NPWMD,SDN, ,Syria
Samir QASSAR, ,Individual,NPWMD,SDN, ,Syria
SYRIAN COMPANY FOR INFORMATION TECHNOLOGY,P.O. Box 11037,Entity,NPWMD,SDN, ,Syria
SCIT,P.O. Box 11037,Entity,NPWMD,SDN, ,Syria
AL-BUSTAN CHARITY,", Mazza",Entity,SYRIA,SDN, ,Syria
JAMIAT AL-BUSTAN AL-KHAYRIYAH CHARITY,", Mazza",Entity,SYRIA,SDN, ,Syria
AL-BUSTAN CHARITY ASSOCIATION,", Mazza",Entity,SYRIA,SDN, ,Syria
AL-BUSTAN CHARITY FOUNDATION,", Mazza",Entity,SYRIA,SDN, ,Syria
AL-BUSTAN CHARITY SOCIETY,", Mazza",Entity,SYRIA,SDN, ,Syria
AL-BUSTAN ORGANIZATION,", Mazza",Entity,SYRIA,SDN, ,Syria
AL-BUSTAN ASSOCIATION,", Mazza",Entity,SYRIA,SDN, ,Syria
AL JAMAIYAH AL BUSTAN,", Mazza",Entity,SYRIA,SDN, ,Syria
Samir Sakhir DARWISH,", Mezzah",Individual,SYRIA,SDN, ,Syria
Iyad MAKHLUF, ,Individual,SYRIA,SDN, ,Syria
Iyad MAKHLOUF, ,Individual,SYRIA,SDN, ,Syria
Eyad MAKHLOUF, ,Individual,SYRIA,SDN, ,Syria
Ihab MAKHLUF, ,Individual,SYRIA,SDN, ,Syria
Ihab MAKHLOUF, ,Individual,SYRIA,SDN, ,Syria
Ehab MAKHLOUF, ,Individual,SYRIA,SDN, ,Syria
Iehab MAKHLOUF, ,Individual,SYRIA,SDN, ,Syria
CHAM ISLAMIC BANK,Al-Najmeh Square,Entity,SYRIA,SDN, ,Syria
AL-CHAM ISLAMIC BANK,Al-Najmeh Square,Entity,SYRIA,SDN, ,Syria
CHAM BANK,Al-Najmeh Square,Entity,SYRIA,SDN, ,Syria
Muhammad ABBAS, ,Individual,SYRIA,SDN, ,Syria
Mohammad Hassan ABBAS, ,Individual,SYRIA,SDN, ,Syria
Mohammad Hasan ABBAS, ,Individual,SYRIA,SDN, ,Syria
AL-AJNIHAH, ,Entity,SYRIA,SDN, ,Syria
AJJNEHA, ,Entity,SYRIA,SDN, ,Syria
AL-AJNIHAH PRIVATE JOINT STOCK CORPORATION, ,Entity,SYRIA,SDN, ,Syria
AL-AGNEHA COMPANY, ,Entity,SYRIA,SDN, ,Syria
KOREA COMPUTER CENTER, ,Entity,DPRK3,SDN, ,Syria
KOREA COMPUTER COMPANY, ,Entity,DPRK3,SDN, ,Syria
CHOSON COMPUTER CENTER, ,Entity,DPRK3,SDN, ,Syria
CHUNG SUN COMPUTER CENTER, ,Entity,DPRK3,SDN, ,Syria
Oussama Ahmad ATAR, ,Individual,SDGT,SDN, ,Syria
Oussama ATAR, ,Individual,SDGT,SDN, ,Syria
Usama ATTAR, ,Individual,SDGT,SDN, ,Syria
Usama ATAR, ,Individual,SDGT,SDN, ,Syria
Mohammad Shafi ARMAR, ,Individual,SDGT,SDN, ,Syria
Shafi ARMAR, ,Individual,SDGT,SDN, ,Syria
Mohammed Shafi ARMAR, ,Individual,SDGT,SDN, ,Syria
Safi ARMAR, ,Individual,SDGT,SDN, ,Syria
Yusuf al-Hindi, ,Individual,SDGT,SDN, ,Syria
Yousuf-Al Hindi, ,Individual,SDGT,SDN, ,Syria
Yousouf al-Hindi, ,Individual,SDGT,SDN, ,Syria
Anjan Bhai, ,Individual,SDGT,SDN, ,Syria
Chote Maula, ,Individual,SDGT,SDN, ,Syria
Malik Ruslanovish BARKHANOEV, ,Individual,SDGT,SDN, ,Syria
Saifuddin INGUSHI, ,Individual,SDGT,SDN, ,Syria
Sayfuddin INGUSHI, ,Individual,SDGT,SDN, ,Syria
Ahmad ALKHALD, ,Individual,SDGT,SDN, ,Syria
Yassine NOURE, ,Individual,SDGT,SDN, ,Syria
Mohammed Nawar Mohammed ALQADHI, ,Individual,SDGT,SDN, ,Syria
Abdelatif GAINI, ,Individual,SDGT,SDN, ,Syria
Siddhartha DHAR, ,Individual,SDGT,SDN, ,Syria
Abu RUMAYSAH, ,Individual,SDGT,SDN, ,Syria
Abu DHAR, ,Individual,SDGT,SDN, ,Syria
Saiful ISLAM, ,Individual,SDGT,SDN, ,Syria
Jihadi SID, ,Individual,SDGT,SDN, ,Syria
Abu Rumaysah AL BRITANI, ,Individual,SDGT,SDN, ,Syria
Siddartha DHAR, ,Individual,SDGT,SDN, ,Syria
Yunus Emre SAKARYA, ,Individual,SDGT,SDN, ,Syria
Younes AL-HAIEBI, ,Individual,SDGT,SDN, ,Syria
Yunus AL-ALMANI, ,Individual,SDGT,SDN, ,Syria
Joe ASPERMAN, ,Individual,SDGT,SDN, ,Syria
KATIBAT AL-IMAM AL-BUKHARI, ,Entity,SDGT,SDN, ,Syria
IMAM BUKHORI JAMAAT, ,Entity,SDGT,SDN, ,Syria
IMAM BUKHARI BATTALION, ,Entity,SDGT,SDN, ,Syria
IMAM BUKHARI JAMAAT, ,Entity,SDGT,SDN, ,Syria
IMAM AL-BUKHARI BATTALION, ,Entity,SDGT,SDN, ,Syria
IBB, ,Entity,SDGT,SDN, ,Syria
IMAM AL-BUKHORIY BRIGADE, ,Entity,SDGT,SDN, ,Syria
KATIBATUL IMOM AL-BUXORIY, ,Entity,SDGT,SDN, ,Syria
KIB, ,Entity,SDGT,SDN, ,Syria
IMOM BUXORIY KATIBASI, ,Entity,SDGT,SDN, ,Syria
BARAKAT TRANSNATIONAL CRIMINAL ORGANIZATION, ,Entity,TCO,SDN, ,Syria
NASIF BARAKAT ALIEN SMUGGLING ORGANIZATION, ,Entity,TCO,SDN, ,Syria
Nasif BARAKAT,Fahel,Individual,TCO,SDN, ,Syria
Nassif BARKAT,Fahel,Individual,TCO,SDN, ,Syria
Nassif BARAKAT,Fahel,Individual,TCO,SDN, ,Syria
Nasif BARKAT,Fahel,Individual,TCO,SDN, ,Syria
Abu TARIF,Fahel,Individual,TCO,SDN, ,Syria
Nassif ABOUTARIF,Fahel,Individual,TCO,SDN, ,Syria
Nasif Gergers BARAKAT ALVAHILH,Fahel,Individual,TCO,SDN, ,Syria
Nasif Jarjis BARAKAT AL FAHILIH,Fahel,Individual,TCO,SDN, ,Syria
Muhammad QASIR, ,Individual,SDGT,SDN, ,Syria
Muhammad Jafar QASIR, ,Individual,SDGT,SDN, ,Syria
Mohammed Jaafar KASSIR, ,Individual,SDGT,SDN, ,Syria
Shaykh SALAH, ,Individual,SDGT,SDN, ,Syria
FADI, ,Individual,SDGT,SDN, ,Syria
MAJID, ,Individual,SDGT,SDN, ,Syria
EYNAKI, ,Individual,SDGT,SDN, ,Syria
Hossein GHOLI, ,Individual,SDGT,SDN, ,Syria
ELECTRONICS KATRANGI TRADING,"1st Floor, Hujij Building, Korniche Street, P.O. Box 817 No. 3",Entity,NPWMD,SDN, ,Syria
ELECTRONIC KATRANGI GROUP,"1st Floor, Hujij Building, Korniche Street, P.O. Box 817 No. 3",Entity,NPWMD,SDN, ,Syria
EKT ELECTRONICS,"1st Floor, Hujij Building, Korniche Street, P.O. Box 817 No. 3",Entity,NPWMD,SDN, ,Syria
KATRANGI TRADING,"1st Floor, Hujij Building, Korniche Street, P.O. Box 817 No. 3",Entity,NPWMD,SDN, ,Syria
KATRANJI LABS,"1st Floor, Hujij Building, Korniche Street, P.O. Box 817 No. 3",Entity,NPWMD,SDN, ,Syria
EKT (KATRANGI BROS),"1st Floor, Hujij Building, Korniche Street, P.O. Box 817 No. 3",Entity,NPWMD,SDN, ,Syria
KATRANGI ELECTRONICS,"1st Floor, Hujij Building, Korniche Street, P.O. Box 817 No. 3",Entity,NPWMD,SDN, ,Syria
ELECTRONIC SYSTEM GROUP,"1st Floor, Hujij Building, Korniche Street, P.O. Box 817 No. 3",Entity,NPWMD,SDN, ,Syria
AL AMIR ELECTRONICS,"1st Floor, Hujij Building, Korniche Street, P.O. Box 817 No. 3",Entity,NPWMD,SDN, ,Syria
AL-AMIR ELECTRONICS,"1st Floor, Hujij Building, Korniche Street, P.O. Box 817 No. 3",Entity,NPWMD,SDN, ,Syria
AMIRCO ELECTRONICS,"1st Floor, Hujij Building, Korniche Street, P.O. Box 817 No. 3",Entity,NPWMD,SDN, ,Syria
KATRANGI FOR ELECTRONICS INDUSTRIES,"1st Floor, Hujij Building, Korniche Street, P.O. Box 817 No. 3",Entity,NPWMD,SDN, ,Syria
ALAMIR ELECTRONICS,"1st Floor, Hujij Building, Korniche Street, P.O. Box 817 No. 3",Entity,NPWMD,SDN, ,Syria
NKTRONICS,"1st Floor, Hujij Building, Korniche Street, P.O. Box 817 No. 3",Entity,NPWMD,SDN, ,Syria
SMART PEGASUS,"1st Floor, Hujij Building, Korniche Street, P.O. Box 817 No. 3",Entity,NPWMD,SDN, ,Syria
SMART GREEN POWER,"1st Floor, Hujij Building, Korniche Street, P.O. Box 817 No. 3",Entity,NPWMD,SDN, ,Syria
LUMIERE ELYSEES,"1st Floor, Hujij Building, Korniche Street, P.O. Box 817 No. 3",Entity,NPWMD,SDN, ,Syria
EKT,"1st Floor, Hujij Building, Korniche Street, P.O. Box 817 No. 3",Entity,NPWMD,SDN, ,Syria
ESG,"1st Floor, Hujij Building, Korniche Street, P.O. Box 817 No. 3",Entity,NPWMD,SDN, ,Syria
E.K.T.,"1st Floor, Hujij Building, Korniche Street, P.O. Box 817 No. 3",Entity,NPWMD,SDN, ,Syria
E.K.T. (KATRANGI BROS.),"1st Floor, Hujij Building, Korniche Street, P.O. Box 817 No. 3",Entity,NPWMD,SDN, ,Syria
EKT KATRANGI BROTHERS,"1st Floor, Hujij Building, Korniche Street, P.O. Box 817 No. 3",Entity,NPWMD,SDN, ,Syria
GOLDEN STAR CO,"Al Awqaf building, 5th floor, Victoria Bridge",Entity,NPWMD,SDN, ,Syria
GOLDEN STAR TRADING & INTERNATIONAL FREIGHT,"Al Awqaf building, 5th floor, Victoria Bridge",Entity,NPWMD,SDN, ,Syria
GOLDEN STAR INTERNATIONAL FREIGHT LIMITED,"Al Awqaf building, 5th floor, Victoria Bridge",Entity,NPWMD,SDN, ,Syria
SHAREKAT GOLDEN STAR,"Al Awqaf building, 5th floor, Victoria Bridge",Entity,NPWMD,SDN, ,Syria
KASSOUMA FZC,"Al Awqaf building, 5th floor, Victoria Bridge",Entity,NPWMD,SDN, ,Syria
GOLDEN STAR TRADING INTERNATIONAL FREIGHT,"Al Awqaf building, 5th floor, Victoria Bridge",Entity,NPWMD,SDN, ,Syria
SMART LOGISTICS TRADING & INTERNATIONAL FREIGHT,"Al Awqaf building, 5th floor, Victoria Bridge",Entity,NPWMD,SDN, ,Syria
SMART LOGISTICS OFFSHORE,"Al Awqaf building, 5th floor, Victoria Bridge",Entity,NPWMD,SDN, ,Syria
SMART LOGISTICS F.S.S.A.L,"Al Awqaf building, 5th floor, Victoria Bridge",Entity,NPWMD,SDN, ,Syria
GOLDEN STAR TRADING AND INTERNATIONAL FREIGHT,"Al Awqaf building, 5th floor, Victoria Bridge",Entity,NPWMD,SDN, ,Syria
SMART LOGISTICS TRADING AND INTERNATIONAL FREIGHT,"Al Awqaf building, 5th floor, Victoria Bridge",Entity,NPWMD,SDN, ,Syria
Mohamad Rafi UDIN, ,Individual,SDGT,SDN, ,Syria
Mohd Rafi UDIN, ,Individual,SDGT,SDN, ,Syria
Rafi UDIN, ,Individual,SDGT,SDN, ,Syria
Abu Awn AL-MALISI, ,Individual,SDGT,SDN, ,Syria
Mohammed Karim Yusop FAIZ, ,Individual,SDGT,SDN, ,Syria
Mohd Karim Yusop FAIZ, ,Individual,SDGT,SDN, ,Syria
Mohammed Yusop Karin FAIZ, ,Individual,SDGT,SDN, ,Syria
Mohammad Yusuf Karim FAIZ, ,Individual,SDGT,SDN, ,Syria
Abu-Walid AL-INDUNISI, ,Individual,SDGT,SDN, ,Syria
Abu Walid AL-INDONESI, ,Individual,SDGT,SDN, ,Syria
Muhmmad SAIFUDDIN, ,Individual,SDGT,SDN, ,Syria
Mohammad Reza Lahaman KIRAM, ,Individual,SDGT,SDN, ,Syria
Mohd Reza KIRAM, ,Individual,SDGT,SDN, ,Syria
Abu Abdul Rahman AL-FILIPINI, ,Individual,SDGT,SDN, ,Syria
Adnan AL-ALI, ,Individual,SYRIA,SDN, ,Syria
Adnan AL ALI, ,Individual,SYRIA,SDN, ,Syria
'Adnan AL-'ALI, ,Individual,SYRIA,SDN, ,Syria
AL-QATIRJI COMPANY,Mazzah,Entity,SYRIA,SDN, ,Syria
AL-SHAM AND AL-DARWISH COMPANY,Mazzah,Entity,SYRIA,SDN, ,Syria
KHATIRJI GROUP,Mazzah,Entity,SYRIA,SDN, ,Syria
Emraan ALI, ,Individual,SDGT,SDN, ,Syria
Hajji 'ABD AL-NASIR, ,Individual,SDGT,SDN, ,Syria
Hajji ABDELNASSER, ,Individual,SDGT,SDN, ,Syria
Hajji ABD AL-NASR, ,Individual,SDGT,SDN, ,Syria
Taha AL-KHUWAYT, ,Individual,SDGT,SDN, ,Syria
Mhd Amer ALCHWIKI,"71 Linton Road, Acton",Individual,"IFSR, IRGC, SDGT, SYRIA",SDN, ,Syria
Amer ALCHWIKI,"71 Linton Road, Acton",Individual,"IFSR, IRGC, SDGT, SYRIA",SDN, ,Syria
Mohammad Amer CHWIKI,"71 Linton Road, Acton",Individual,"IFSR, IRGC, SDGT, SYRIA",SDN, ,Syria
Amer Mhd ALCHWIKI,"71 Linton Road, Acton",Individual,"IFSR, IRGC, SDGT, SYRIA",SDN, ,Syria
Mohammad Amer SHWEIKI,"71 Linton Road, Acton",Individual,"IFSR, IRGC, SDGT, SYRIA",SDN, ,Syria
Mohamad Amer ALCHWIKI,"71 Linton Road, Acton",Individual,"IFSR, IRGC, SDGT, SYRIA",SDN, ,Syria
Mohamad Amer SHUWAYKI,"71 Linton Road, Acton",Individual,"IFSR, IRGC, SDGT, SYRIA",SDN, ,Syria
Muhammad 'Amir Muhammad Akram AL-SHUWAYKI,"71 Linton Road, Acton",Individual,"IFSR, IRGC, SDGT, SYRIA",SDN, ,Syria
Mohamad Amer AL-SHWEIKI,"71 Linton Road, Acton",Individual,"IFSR, IRGC, SDGT, SYRIA",SDN, ,Syria
Muhammad Omar AL-SHWEIKI,"71 Linton Road, Acton",Individual,"IFSR, IRGC, SDGT, SYRIA",SDN, ,Syria
Mohamad Amer Mohamad Akram AL CHWIKI,"71 Linton Road, Acton",Individual,"IFSR, IRGC, SDGT, SYRIA",SDN, ,Syria
Mhd Amer ALSHWIKI,"71 Linton Road, Acton",Individual,"IFSR, IRGC, SDGT, SYRIA",SDN, ,Syria
FATEMIYOUN DIVISION, ,Entity,"IFSR, IRAN-HR, IRGC, SDGT",SDN, ,Syria
FATEMIYOUN BATTALION, ,Entity,"IFSR, IRAN-HR, IRGC, SDGT",SDN, ,Syria
FATEMIOUN BRIGADE, ,Entity,"IFSR, IRAN-HR, IRGC, SDGT",SDN, ,Syria
FATEMIOUN MILITARY DIVISION, ,Entity,"IFSR, IRAN-HR, IRGC, SDGT",SDN, ,Syria
FATEMIYOUN FORCE, ,Entity,"IFSR, IRAN-HR, IRGC, SDGT",SDN, ,Syria
FATEMIYOUN, ,Entity,"IFSR, IRAN-HR, IRGC, SDGT",SDN, ,Syria
LIWA FATEMIYOUN, ,Entity,"IFSR, IRAN-HR, IRGC, SDGT",SDN, ,Syria
FATEMIYYUN, ,Entity,"IFSR, IRAN-HR, IRGC, SDGT",SDN, ,Syria
ZAYNABIYOUN BRIGADE, ,Entity,"IFSR, IRAN-HR, IRGC, SDGT",SDN, ,Syria
LIWA ZAYNABIYOUN, ,Entity,"IFSR, IRAN-HR, IRGC, SDGT",SDN, ,Syria
ZEYNABIYUN BRIGADE, ,Entity,"IFSR, IRAN-HR, IRGC, SDGT",SDN, ,Syria
ZEYNABIYYUN BRIGADE, ,Entity,"IFSR, IRAN-HR, IRGC, SDGT",SDN, ,Syria
ZEYNABIYYUN, ,Entity,"IFSR, IRAN-HR, IRGC, SDGT",SDN, ,Syria
