Ayadi Chafiq BIN MUHAMMAD,Helene Meyer Ring 10-1415-80809,Individual,SDGT,SDN, ,Tunisia
Ben Muhammad AYADI SHAFIQ,Helene Meyer Ring 10-1415-80809,Individual,SDGT,SDN, ,Tunisia
Ben Muhammad AYADI CHAFIK,Helene Meyer Ring 10-1415-80809,Individual,SDGT,SDN, ,Tunisia
Ben Muhammad AIADI,Helene Meyer Ring 10-1415-80809,Individual,SDGT,SDN, ,Tunisia
Ben Muhammad AIADY,Helene Meyer Ring 10-1415-80809,Individual,SDGT,SDN, ,Tunisia
Nabil Ben Mohamed Ben Ali BEN ATTIA, ,Individual,SDGT,SDN, ,Tunisia
ANSAR AL-SHARI'A IN TUNISIA, ,Entity,"FTO, SDGT",SDN, ,Tunisia
AL-QAYRAWAN MEDIA FOUNDATION, ,Entity,"FTO, SDGT",SDN, ,Tunisia
SUPPORTERS OF ISLAMIC LAW, ,Entity,"FTO, SDGT",SDN, ,Tunisia
ANSAR AL-SHARIA IN TUNISIA, ,Entity,"FTO, SDGT",SDN, ,Tunisia
ANSAR AL-SHARI'AH, ,Entity,"FTO, SDGT",SDN, ,Tunisia
ANSAR AL-SHARI'AH IN TUNISIA, ,Entity,"FTO, SDGT",SDN, ,Tunisia
ANSAR AL-SHARIA, ,Entity,"FTO, SDGT",SDN, ,Tunisia
Wanas AL-FAQIH, ,Individual,SDGT,SDN, ,Tunisia
JUND AL-KHILAFAH IN TUNISIA, ,Entity,SDGT,SDN, ,Tunisia
ISIS-TUNISIA, ,Entity,SDGT,SDN, ,Tunisia
ISIS-TUNISIA PROVINCE, ,Entity,SDGT,SDN, ,Tunisia
SOLDIERS OF THE CALIPHATE, ,Entity,SDGT,SDN, ,Tunisia
JUND AL-KHILAFA, ,Entity,SDGT,SDN, ,Tunisia
JUND AL KHILAFAH, ,Entity,SDGT,SDN, ,Tunisia
JUND AL-KHILAFAH FI TUNIS, ,Entity,SDGT,SDN, ,Tunisia
SOLDIERS OF THE CALIPHATE IN TUNISIA, ,Entity,SDGT,SDN, ,Tunisia
TALA I JUND AL-KHILAFAH, ,Entity,SDGT,SDN, ,Tunisia
VANGUARDS OF THE SOLDIERS OF THE CALIPHATE, ,Entity,SDGT,SDN, ,Tunisia
DAESH TUNISIA, ,Entity,SDGT,SDN, ,Tunisia
AJNAD, ,Entity,SDGT,SDN, ,Tunisia
