INC. BARAKAAT NORTH AMERICA,925 Washington St.,Entity,SDGT,SDN, ,United States
HOLY LAND FOUNDATION FOR RELIEF AND DEVELOPMENT,"525 International Parkway, Suite 509",Entity,"SDGT, SDT",SDN, ,United States
OCCUPIED LAND FUND,"525 International Parkway, Suite 509",Entity,"SDGT, SDT",SDN, ,United States
S.A. DE C.V. DISTRIBUIDORA IMPERIAL DE BAJA CALIFORNIA,"Blvd. Agua Caliente 1381, Colonia Revolucion",Entity,SDNTK,SDN, ,United States
DISTRIBUIDORA IMPERIAL,"Blvd. Agua Caliente 1381, Colonia Revolucion",Entity,SDNTK,SDN, ,United States
DIBC,"Blvd. Agua Caliente 1381, Colonia Revolucion",Entity,SDNTK,SDN, ,United States
Gilberto MIJARES TRANCOSO,"Calle Luis Echeverria 6329-B, Infonavit Presidentes",Individual,SDNTK,SDN, ,United States
INC. GLOBAL RELIEF FOUNDATION,P.O. Box 1406,Entity,SDGT,SDN, ,United States
BENEVOLENCE INTERNATIONAL FOUNDATION,"8820 Mobile Avenue, 1A",Entity,SDGT,SDN, ,United States
AL BIR AL DAWALIA,"8820 Mobile Avenue, 1A",Entity,SDGT,SDN, ,United States
BIF,"8820 Mobile Avenue, 1A",Entity,SDGT,SDN, ,United States
BIF-USA,"8820 Mobile Avenue, 1A",Entity,SDGT,SDN, ,United States
MEZHDUNARODNYJ BLAGOTVORITEL'NYJ FOND,"8820 Mobile Avenue, 1A",Entity,SDGT,SDN, ,United States
HAVANATUR S.A.,"Gerardo Medina No. 633, e/Avenue Borregos y Carretera de Vinales",Entity,CUBA,SDN, ,United States
S.A. HAVANATUR,"Gerardo Medina No. 633, e/Avenue Borregos y Carretera de Vinales",Entity,CUBA,SDN, ,United States
AERO CONTINENTE S.A,"Jr. Francisco Bolognesi 125, Piso 16, Miraflores",Entity,SDNTK,SDN, ,United States
AEROCONTINENTE S.A.,"Jr. Francisco Bolognesi 125, Piso 16, Miraflores",Entity,SDNTK,SDN, ,United States
AERO CONTINENT S.A.,"Jr. Francisco Bolognesi 125, Piso 16, Miraflores",Entity,SDNTK,SDN, ,United States
NUEVO CONTINENTE S.A.,"Jr. Francisco Bolognesi 125, Piso 16, Miraflores",Entity,SDNTK,SDN, ,United States
NUEVOCONTINENTE S.A.,"Jr. Francisco Bolognesi 125, Piso 16, Miraflores",Entity,SDNTK,SDN, ,United States
WWW.AEROCONTINENTE.COM,"Jr. Francisco Bolognesi 125, Piso 16, Miraflores",Entity,SDNTK,SDN, ,United States
WWW.AEROCONTINENTE.COM.PE,"Jr. Francisco Bolognesi 125, Piso 16, Miraflores",Entity,SDNTK,SDN, ,United States
WWW.NUEVOCONTINENTE.COM.PE,"Jr. Francisco Bolognesi 125, Piso 16, Miraflores",Entity,SDNTK,SDN, ,United States
IAC INTERNATIONAL INC., ,Entity,SDNTK,SDN, ,United States
INTERNATIONAL AIRLINE CONSULTING, ,Entity,SDNTK,SDN, ,United States
I A C INTERNATIONAL INC., ,Entity,SDNTK,SDN, ,United States
AERO CONTINENTE (USA) INC., ,Entity,SDNTK,SDN, ,United States
INC. AERO CONTINENTE, ,Entity,SDNTK,SDN, ,United States
CARGO AIRCRAFT LEASING CORP., ,Entity,SDNTK,SDN, ,United States
INC. INTERNATIONAL PACIFIC TRADING, ,Entity,SDNTK,SDN, ,United States
Saalim NAMAN,"P.O. Box 39, Fletchamstead Highway",Individual,IRAQ2,SDN, ,United States
Sam NAMAN,"P.O. Box 39, Fletchamstead Highway",Individual,IRAQ2,SDN, ,United States
ISLAMIC AFRICAN RELIEF AGENCY,"201 E. Cherry Street, Suite D",Entity,SDGT,SDN, ,United States
IARA,"201 E. Cherry Street, Suite D",Entity,SDGT,SDN, ,United States
ISLAMIC RELIEF AGENCY,"201 E. Cherry Street, Suite D",Entity,SDGT,SDN, ,United States
AL-WAKALA AL-ISLAMIYA L'IL-IGHATHA,"201 E. Cherry Street, Suite D",Entity,SDGT,SDN, ,United States
ISLAMIC AMERICAN RELIEF AGENCY,"201 E. Cherry Street, Suite D",Entity,SDGT,SDN, ,United States
ISRA,"201 E. Cherry Street, Suite D",Entity,SDGT,SDN, ,United States
AL-WAKALA AL-ISLAMIYA AL-AFRIKIA L'IL-IGHATHA,"201 E. Cherry Street, Suite D",Entity,SDGT,SDN, ,United States
Miguel Angel ARRIOLA MARQUEZ,Calle Mina No. 15,Individual,SDNTK,SDN, ,United States
Miguel Angel ARREOLA MARQUEZ,Calle Mina No. 15,Individual,SDNTK,SDN, ,United States
Oscar Arturo ARRIOLA MARQUEZ,Avenida Sexta No. 68,Individual,SDNTK,SDN, ,United States
Oscar Arturo ARREOLA MARQUEZ,Avenida Sexta No. 68,Individual,SDNTK,SDN, ,United States
Jorge Arturo LICON MUNOZ, ,Individual,SDNTK,SDN, ,United States
INC. GOODWILL CHARITABLE ORGANIZATION,13106 Warren Ave. Suite #4,Entity,SDGT,SDN, ,United States
EDUCATIONAL DEVELOPMENT ASSOCIATION,13106 Warren Ave. Suite #4,Entity,SDGT,SDN, ,United States
AL-SHAHID SOCIAL ASSOCIATION,13106 Warren Ave. Suite #4,Entity,SDGT,SDN, ,United States
Daniel Alberto MORA RICARDO,c/o SOCIEDAD SUPERDEPORTES LTDA.,Individual,SDNT,SDN, ,United States
TAMILS REHABILITATION ORGANISATION,"Kandasamy Koviladi, Kandy Road (A9 Road)",Entity,SDGT,SDN, ,United States
TAMILS REHABILITATION ORGANIZATION,"Kandasamy Koviladi, Kandy Road (A9 Road)",Entity,SDGT,SDN, ,United States
TAMIL REHABILITATION ORGANIZATION,"Kandasamy Koviladi, Kandy Road (A9 Road)",Entity,SDGT,SDN, ,United States
WHITE PIGEON,"Kandasamy Koviladi, Kandy Road (A9 Road)",Entity,SDGT,SDN, ,United States
WHITEPIGEON,"Kandasamy Koviladi, Kandy Road (A9 Road)",Entity,SDGT,SDN, ,United States
ORGANISATION DE REHABILITATION TAMOULE,"Kandasamy Koviladi, Kandy Road (A9 Road)",Entity,SDGT,SDN, ,United States
ORGANIZZAZIONE PER LA RIABILITAZIONE DEI TAMIL,"Kandasamy Koviladi, Kandy Road (A9 Road)",Entity,SDGT,SDN, ,United States
ORGANISATION PRE LA REHABILITATION TAMIL,"Kandasamy Koviladi, Kandy Road (A9 Road)",Entity,SDGT,SDN, ,United States
TAMIL REHABILITERINGS ORGANISASJONEN,"Kandasamy Koviladi, Kandy Road (A9 Road)",Entity,SDGT,SDN, ,United States
TAMILSK REHABILITERINGS ORGANISASJON,"Kandasamy Koviladi, Kandy Road (A9 Road)",Entity,SDGT,SDN, ,United States
TAMILISCHE REHABILITATION ORGANISATION,"Kandasamy Koviladi, Kandy Road (A9 Road)",Entity,SDGT,SDN, ,United States
TRO,"Kandasamy Koviladi, Kandy Road (A9 Road)",Entity,SDGT,SDN, ,United States
ORT FRANCE,"Kandasamy Koviladi, Kandy Road (A9 Road)",Entity,SDGT,SDN, ,United States
TRO ITALIA,"Kandasamy Koviladi, Kandy Road (A9 Road)",Entity,SDGT,SDN, ,United States
TRO NORGE,"Kandasamy Koviladi, Kandy Road (A9 Road)",Entity,SDGT,SDN, ,United States
TRO DANMARK,"Kandasamy Koviladi, Kandy Road (A9 Road)",Entity,SDGT,SDN, ,United States
TRO SCHWEIZ,"Kandasamy Koviladi, Kandy Road (A9 Road)",Entity,SDGT,SDN, ,United States
SRI LANKA TSUNAMI RELIEF FUND -- COLOMBO,"Kandasamy Koviladi, Kandy Road (A9 Road)",Entity,SDGT,SDN, ,United States
INC. BELNEFTEKHIM USA,"13 Branch St., # 213",Entity,BELARUS,SDN, ,United States
Blanca Margarita CAZARES SALAZAR,Calle G. Robles No. 152,Individual,SDNTK,SDN, ,United States
Blanca CAZARES MESA,Calle G. Robles No. 152,Individual,SDNTK,SDN, ,United States
Blanca CAZARES,Calle G. Robles No. 152,Individual,SDNTK,SDN, ,United States
Blanca CAZAREZ MESA,Calle G. Robles No. 152,Individual,SDNTK,SDN, ,United States
Chiquis CAZAREZ,Calle G. Robles No. 152,Individual,SDNTK,SDN, ,United States
Chiquis CAZAREZ SALAZAR,Calle G. Robles No. 152,Individual,SDNTK,SDN, ,United States
Blanca Margarita CAZAREZ SALAZAR DE MEZA,Calle G. Robles No. 152,Individual,SDNTK,SDN, ,United States
Blanca Margarita GASTELLUM CAZARES,Calle G. Robles No. 152,Individual,SDNTK,SDN, ,United States
Blanca Margarita CAZARES GASTELLUM,Calle G. Robles No. 152,Individual,SDNTK,SDN, ,United States
Blanca Margarita GASTELUM CAZAREZ DE MEZA,Calle G. Robles No. 152,Individual,SDNTK,SDN, ,United States
Blanca Margarita CAZARES DE MEZA,Calle G. Robles No. 152,Individual,SDNTK,SDN, ,United States
Blanca Margarita GASTELLUM,Calle G. Robles No. 152,Individual,SDNTK,SDN, ,United States
Blanca Margarita CAZAREZ SALAZAR,Calle G. Robles No. 152,Individual,SDNTK,SDN, ,United States
Blanca CAZARES GASTELUM,Calle G. Robles No. 152,Individual,SDNTK,SDN, ,United States
INC. MASTERS INTERNATIONAL,1905 S. Florida Avenue,Entity,ZIMBABWE,SDN, ,United States
TAMIL FOUNDATION,517 E. Oldtown Road,Entity,SDGT,SDN, ,United States
LLC LA HACIENDA (USA), ,Entity,SDNTK,SDN, ,United States
LLC (USA) RUNNING BROOK, ,Entity,SDNTK,SDN, ,United States
Luis RODRIGUEZ OLIVERA,Plaza Pabellion,Individual,SDNTK,SDN, ,United States
Luis Fernando MORFAN RODRIGUEZ,Plaza Pabellion,Individual,SDNTK,SDN, ,United States
Luis RODRIGUEZ MORFIN,Plaza Pabellion,Individual,SDNTK,SDN, ,United States
Luis Fernando RODRIGUEZ OLIVERA,Plaza Pabellion,Individual,SDNTK,SDN, ,United States
Manssor ARBABSIAR,805 Cisco Valley CV,Individual,"IFSR, IRGC, SDGT",SDN, ,United States
Mansour ARBABSIAR,805 Cisco Valley CV,Individual,"IFSR, IRGC, SDGT",SDN, ,United States
MS-13, ,Entity,TCO,SDN, ,United States
MARA SALVATRUCHA, ,Entity,TCO,SDN, ,United States
ALTAF KHANANI MONEY LAUNDERING ORGANIZATION, ,Entity,TCO,SDN, ,United States
Yankel Antonio ROSENTHAL COELLO,"Contiguo Rio Santa Ana, Lote Residencial Fina Vieja",Individual,SDNTK,SDN, ,United States
U.S.A. INVERCIONES CONTINENTAL, ,Entity,SDNTK,SDN, ,United States
INC SHELIMAR REAL ESTATE HOLDINGS II, ,Entity,SDNTK,SDN, ,United States
INC SHELIMAR REAL ESTATE HOLDINGS III, ,Entity,SDNTK,SDN, ,United States
1425 BRICKELL AVE 63-F LLC,1425 Brickell Ave 63-F,Entity,SDNTK,SDN, ,United States
LLC 1425 BRICKELL AVENUE UNIT 46B,1425 Brickell Avenue Unit 46B,Entity,SDNTK,SDN, ,United States
1425 BRICKELL AVENUE 64E LLC,1425 Brickell Avenue 64E,Entity,SDNTK,SDN, ,United States
AGUSTA GRAND I LLC,80 SW 8th Street Suite 2000,Entity,SDNTK,SDN, ,United States
200G PSA HOLDINGS LLC,80 SW 8th Street Suite 2000,Entity,SDNTK,SDN, ,United States
N200VR,"80 SW 8th Street, Suite 2000",Aircraft,SDNTK,SDN, ,United States
THIEVES-IN-LAW, ,Entity,TCO,SDN, ,United States
THIEVES-WITHIN-THE-LAW, ,Entity,TCO,SDN, ,United States
THIEVES PROFESSING THE CODE, ,Entity,TCO,SDN, ,United States
THIEF-IN-LAW, ,Entity,TCO,SDN, ,United States
VORY V ZAKONYE, ,Entity,TCO,SDN, ,United States
VORY-V-ZAKONE, ,Entity,TCO,SDN, ,United States
VORY V ZAKONI, ,Entity,TCO,SDN, ,United States
VOR V ZAKONYE, ,Entity,TCO,SDN, ,United States
VOR-V-ZAKONE, ,Entity,TCO,SDN, ,United States
VOR-ZAKONNIK, ,Entity,TCO,SDN, ,United States
KANONIERI KURDEBI, ,Entity,TCO,SDN, ,United States
KANONIERI QURDEBI, ,Entity,TCO,SDN, ,United States
KANONIERI QURDI, ,Entity,TCO,SDN, ,United States
RAMKIANI QURDI, ,Entity,TCO,SDN, ,United States
RAMKIANI QURDEBI, ,Entity,TCO,SDN, ,United States
SINIE, ,Entity,TCO,SDN, ,United States
ZAKONNIK, ,Entity,TCO,SDN, ,United States
Rafael Alfredo SARRIA DIAZ, ,Individual,VENEZUELA,SDN, ,United States
Rafael A SARRIA-DIAZ, ,Individual,VENEZUELA,SDN, ,United States
Rafael SARRIA, ,Individual,VENEZUELA,SDN, ,United States
SAI ADVISORS INC.,5599 NW 23rd Avenue,Entity,VENEZUELA,SDN, ,United States
NOOR PLANTATION INVESTMENTS LLC,5599 NW 23rd Avenue,Entity,VENEZUELA,SDN, ,United States
11420 CORP.,5599 NW 23rd Avenue,Entity,VENEZUELA,SDN, ,United States
BANK MELLI IRAN,Ferdowsi Avenue - PO Box 11365-171,Entity,"IFSR, IRAN, SDGT",SDN, ,United States
BANK MELLI,Ferdowsi Avenue - PO Box 11365-171,Entity,"IFSR, IRAN, SDGT",SDN, ,United States
MELLI BANK,Ferdowsi Avenue - PO Box 11365-171,Entity,"IFSR, IRAN, SDGT",SDN, ,United States
NATIONAL BANK OF IRAN,Ferdowsi Avenue - PO Box 11365-171,Entity,"IFSR, IRAN, SDGT",SDN, ,United States
BMI,Ferdowsi Avenue - PO Box 11365-171,Entity,"IFSR, IRAN, SDGT",SDN, ,United States
Raul GORRIN BELISARIO,"4100 Salzedo Street, Apt. 1010",Individual,VENEZUELA-EO13850,SDN, ,United States
Raul Antonio GORRIN BELISARIO,"4100 Salzedo Street, Apt. 1010",Individual,VENEZUELA-EO13850,SDN, ,United States
Raul Antonio GORRIN,"4100 Salzedo Street, Apt. 1010",Individual,VENEZUELA-EO13850,SDN, ,United States
Raul A GORRIN,"4100 Salzedo Street, Apt. 1010",Individual,VENEZUELA-EO13850,SDN, ,United States
Raul GORRIN,"4100 Salzedo Street, Apt. 1010",Individual,VENEZUELA-EO13850,SDN, ,United States
Raul Antonio De La Santisima Trinidad GORRIN BELISARIO,"4100 Salzedo Street, Apt. 1010",Individual,VENEZUELA-EO13850,SDN, ,United States
Raul Antonio De La Santisima GORRIN-BELISARIO,"4100 Salzedo Street, Apt. 1010",Individual,VENEZUELA-EO13850,SDN, ,United States
Gustavo Adolfo PERDOMO ROSALES,"4100 Salzedo St., Unit 804",Individual,VENEZUELA-EO13850,SDN, ,United States
Gustavo PERDOMO-ROSALES,"4100 Salzedo St., Unit 804",Individual,VENEZUELA-EO13850,SDN, ,United States
Gustavo A PERDOMO,"4100 Salzedo St., Unit 804",Individual,VENEZUELA-EO13850,SDN, ,United States
Gustavo A PERDOMO ROSALES,"4100 Salzedo St., Unit 804",Individual,VENEZUELA-EO13850,SDN, ,United States
Gustavo PERDOMO,"4100 Salzedo St., Unit 804",Individual,VENEZUELA-EO13850,SDN, ,United States
Gustavo Adolfo PERDOMO,"4100 Salzedo St., Unit 804",Individual,VENEZUELA-EO13850,SDN, ,United States
CORP. RIM GROUP INVESTMENTS,"4100 Salzedo Street, Apt 1010",Entity,VENEZUELA-EO13850,SDN, ,United States
RIM GROUP INVESTMENTS I CORP.,"4100 Salzedo Street, Apt 1010",Entity,VENEZUELA-EO13850,SDN, ,United States
RIM GROUP INVESTMENTS II CORP.,"4100 Salzedo Street, Apt 1010",Entity,VENEZUELA-EO13850,SDN, ,United States
RIM GROUP INVESTMENTS III CORP.,"4100 Salzedo Street, Apt 1010",Entity,VENEZUELA-EO13850,SDN, ,United States
CORP. MAGUS HOLDINGS USA,"4100 Salzedo St., Unit 804",Entity,VENEZUELA-EO13850,SDN, ,United States
MAGUS HOLDING LLC,"4100 Salzedo St., Unit 804",Entity,VENEZUELA-EO13850,SDN, ,United States
CORP. MAGUS HOLDING II,"4100 Salzedo St., Unit 804",Entity,VENEZUELA-EO13850,SDN, ,United States
CORPOMEDIOS LLC,"4100 Salzedo Street, Unit 804",Entity,VENEZUELA-EO13850,SDN, ,United States
CORP. RIM GROUP PROPERTIES OF NEW YORK,"4100 Salzedo St., Unit 1010",Entity,VENEZUELA-EO13850,SDN, ,United States
RIM GROUP PROPERTIES OF NEW YORK II CORP.,"675 Third Avenue, 29th FL.",Entity,VENEZUELA-EO13850,SDN, ,United States
TINDAYA PROPERTIES HOLDING USA CORP.,"675 Third Avenue, 29th Floor",Entity,VENEZUELA-EO13850,SDN, ,United States
TINDAYA PROPERTIES OF NEW YORK CORP.,155 SW 25th Road,Entity,VENEZUELA-EO13850,SDN, ,United States
TINDAYA PROPERTIES OF NEW YORK II CORP.,"675 Third Avenue, 29th Floor",Entity,VENEZUELA-EO13850,SDN, ,United States
CORP. GLOBOVISION TELE CA,"4100 Salzedo Street, Unit 804",Entity,VENEZUELA-EO13850,SDN, ,United States
CONSTELLO NO. 1 CORPORATION,"4100 Salzedo Street, Unit 804",Entity,VENEZUELA-EO13850,SDN, ,United States
INC. POSH 8 DYNAMIC,"18555 Collins Avenue, Unit 4401",Entity,VENEZUELA-EO13850,SDN, ,United States
POTRICO CORP., ,Entity,VENEZUELA-EO13850,SDN, ,United States
Maria Alexandra PERDOMO ROSALES,144 Isla Dorada Blvd.,Individual,VENEZUELA-EO13850,SDN, ,United States
Maria Alexandra PERDOMO,144 Isla Dorada Blvd.,Individual,VENEZUELA-EO13850,SDN, ,United States
Maria PERDOMO-ROSALES,144 Isla Dorada Blvd.,Individual,VENEZUELA-EO13850,SDN, ,United States
Maria A DE PERDOMO,144 Isla Dorada Blvd.,Individual,VENEZUELA-EO13850,SDN, ,United States
Maria Alejandra DE PERDOMO,144 Isla Dorada Blvd.,Individual,VENEZUELA-EO13850,SDN, ,United States
Mayela Antonina TARASCIO-PEREZ,"4100 Salzedo St., Unit 804",Individual,VENEZUELA-EO13850,SDN, ,United States
Mayela TARASCIO-PEREZ,"4100 Salzedo St., Unit 804",Individual,VENEZUELA-EO13850,SDN, ,United States
Mayela TARASCIO,"4100 Salzedo St., Unit 804",Individual,VENEZUELA-EO13850,SDN, ,United States
Mayela T DE PERDOMO,"4100 Salzedo St., Unit 804",Individual,VENEZUELA-EO13850,SDN, ,United States
Mayela A TARASCIO DE PERDOMO,"4100 Salzedo St., Unit 804",Individual,VENEZUELA-EO13850,SDN, ,United States
Mayela Antonina TARASCIO DE PERDOMO,"4100 Salzedo St., Unit 804",Individual,VENEZUELA-EO13850,SDN, ,United States
Mayela Tarascio DE PERDOMO,"4100 Salzedo St., Unit 804",Individual,VENEZUELA-EO13850,SDN, ,United States
INC. PLANET 2 REACHING, ,Entity,VENEZUELA-EO13850,SDN, ,United States
