Tohir YULDASHEV, ,Individual,SDGT,SDN, ,Uzbekistan
Takhir YULDASHEV, ,Individual,SDGT,SDN, ,Uzbekistan
Najmiddin Kamolitdinovich JALOLOV,"S. Jalilov Street 14, Khartu, Andijan region",Individual,SDGT,SDN, ,Uzbekistan
Nazhmiddin Kamoldinovich ZHALOLOV,"S. Jalilov Street 14, Khartu, Andijan region",Individual,SDGT,SDN, ,Uzbekistan
Nazhmidin Kamoldinovich ZHALOLOV,"S. Jalilov Street 14, Khartu, Andijan region",Individual,SDGT,SDN, ,Uzbekistan
Nazhmiddin ZHALALOV,"S. Jalilov Street 14, Khartu, Andijan region",Individual,SDGT,SDN, ,Uzbekistan
Najmiddin JALALOV,"S. Jalilov Street 14, Khartu, Andijan region",Individual,SDGT,SDN, ,Uzbekistan
Najmiddin JALOLOV,"S. Jalilov Street 14, Khartu, Andijan region",Individual,SDGT,SDN, ,Uzbekistan
Nazhmiddin ZHALOLOV,"S. Jalilov Street 14, Khartu, Andijan region",Individual,SDGT,SDN, ,Uzbekistan
Nazhmuddin Kamoldinovich ZHALOLOV,"S. Jalilov Street 14, Khartu, Andijan region",Individual,SDGT,SDN, ,Uzbekistan
ABU YAHYA MUHAMMAD FATIH,"S. Jalilov Street 14, Khartu, Andijan region",Individual,SDGT,SDN, ,Uzbekistan
ABDURAKHMON,"S. Jalilov Street 14, Khartu, Andijan region",Individual,SDGT,SDN, ,Uzbekistan
YAKH'YO,"S. Jalilov Street 14, Khartu, Andijan region",Individual,SDGT,SDN, ,Uzbekistan
YAHYO,"S. Jalilov Street 14, Khartu, Andijan region",Individual,SDGT,SDN, ,Uzbekistan
Najmiddin Kamilidinovich ZHANOV,"S. Jalilov Street 14, Khartu, Andijan region",Individual,SDGT,SDN, ,Uzbekistan
Suhayl Fatilloevich BURANOV,"Massiv Kara-su-6, Building 12, Apartment 59",Individual,SDGT,SDN, ,Uzbekistan
Suhail Fatilloyevich BURANOV,"Massiv Kara-su-6, Building 12, Apartment 59",Individual,SDGT,SDN, ,Uzbekistan
Sukhail Fatilloevich BURANOV,"Massiv Kara-su-6, Building 12, Apartment 59",Individual,SDGT,SDN, ,Uzbekistan
Suhail BURANOV,"Massiv Kara-su-6, Building 12, Apartment 59",Individual,SDGT,SDN, ,Uzbekistan
Mansur BURANOV,"Massiv Kara-su-6, Building 12, Apartment 59",Individual,SDGT,SDN, ,Uzbekistan
Sohail MANSUR,"Massiv Kara-su-6, Building 12, Apartment 59",Individual,SDGT,SDN, ,Uzbekistan
Suhail MANSUR,"Massiv Kara-su-6, Building 12, Apartment 59",Individual,SDGT,SDN, ,Uzbekistan
ABU HUZAIFA,"Massiv Kara-su-6, Building 12, Apartment 59",Individual,SDGT,SDN, ,Uzbekistan
GURGEN HOUSE FZCO,"130 A, Ulitsa Klara Tsetkina",Entity,TCO,SDN, ,Uzbekistan
GURGEN HOUSE OOO,"130 A, Ulitsa Klara Tsetkina",Entity,TCO,SDN, ,Uzbekistan
GURGEN HOUSE TOO,"130 A, Ulitsa Klara Tsetkina",Entity,TCO,SDN, ,Uzbekistan
GURGEN HOUSE CO LTD,"130 A, Ulitsa Klara Tsetkina",Entity,TCO,SDN, ,Uzbekistan
GURGEN HOUSE LLC,"130 A, Ulitsa Klara Tsetkina",Entity,TCO,SDN, ,Uzbekistan
GOURGEN HOUSE LTD,"130 A, Ulitsa Klara Tsetkina",Entity,TCO,SDN, ,Uzbekistan
Gulnara KARIMOVA, ,Individual,GLOMAG,SDN, ,Uzbekistan
Googoosha, ,Individual,GLOMAG,SDN, ,Uzbekistan
Goulnara KARIMOVA, ,Individual,GLOMAG,SDN, ,Uzbekistan
Goulnora Islamovna KARIMOVA, ,Individual,GLOMAG,SDN, ,Uzbekistan
