Song Il CHOE, ,Individual,NPWMD,SDN, ,Vietnam
Jung Jong KIM, ,Individual,NPWMD,SDN, ,Vietnam
Chung Chong KIM, ,Individual,NPWMD,SDN, ,Vietnam
Yong Su KIM, ,Individual,DPRK2,SDN, ,Vietnam
Yo'ng-su KIM, ,Individual,DPRK2,SDN, ,Vietnam
Tong-ho KIM, ,Individual,DPRK3,SDN, ,Vietnam
Min Chol KIM, ,Individual,DPRK2,SDN, ,Vietnam
