NAGELFAR TRADE AND INVEST LIMITED,"Trident Chambers, Road Town, PO Box 146",Entity,UKRAINE-EO13662,Non-SDN, ,"Virgin Islands, British"
NAGELFAR TRADE & INVEST LIMITED,"Trident Chambers, Road Town, PO Box 146",Entity,UKRAINE-EO13662,Non-SDN, ,"Virgin Islands, British"
BOM FINANCE LTD,"2nd Floor Vanterpool Plaza, Wickhams Cay 1",Entity,UKRAINE-EO13662,Non-SDN, ,"Virgin Islands, British"
MFAA HOLDINGS LIMITED,281 Waterfront Drive,Entity,SDNTK,SDN, ,"Virgin Islands, British"
CAPRIKAT LIMITED,"Akara Building, 24 Castro Street, Wickhams Cay 1, P.O. Box 3136",Entity,GLOMAG,SDN, ,"Virgin Islands, British"
FOXWHELP LIMITED,"Akara Building, 24 Castro Street, Wickhams Cay 1, P.O. Box 3136",Entity,GLOMAG,SDN, ,"Virgin Islands, British"
LORA ENTERPRISES LIMITED, ,Entity,GLOMAG,SDN, ,"Virgin Islands, British"
ZUPPA HOLDINGS LIMITED, ,Entity,GLOMAG,SDN, ,"Virgin Islands, British"
ORAMA PROPERTIES LTD,"Palm Grove House, P.O. Box 438",Entity,GLOMAG,SDN, ,"Virgin Islands, British"
DGI MINING LTD,"Palm Grove House, P.O. Box 438",Entity,GLOMAG,SDN, ,"Virgin Islands, British"
B-FINANCE LTD,"Vanterpool Plaza, 2nd Floor, Wickhams Cay",Entity,"UKRAINE-EO13661, UKRAINE-EO13662",SDN, ,"Virgin Islands, British"
IRON MOUNTAIN ENTERPRISES LIMITED, ,Entity,GLOMAG,SDN, ,"Virgin Islands, British"
IMEL, ,Entity,GLOMAG,SDN, ,"Virgin Islands, British"
IRON MOUNTAIN ENTREPRISES, ,Entity,GLOMAG,SDN, ,"Virgin Islands, British"
SANZETTA INVESTMENTS LIMITED, ,Entity,GLOMAG,SDN, ,"Virgin Islands, British"
ALMERINA PROPERTIES LIMITED, ,Entity,GLOMAG,SDN, ,"Virgin Islands, British"
ALMERINA INVESTMENTS, ,Entity,GLOMAG,SDN, ,"Virgin Islands, British"
QUIANA TRADING LIMITED, ,Entity,VENEZUELA,SDN, ,"Virgin Islands, British"
QUIANA TRADING LTD., ,Entity,VENEZUELA,SDN, ,"Virgin Islands, British"
Lupe Maritza ZEVALLOS GONZALES,c/o AERO CONTINENTE S.A.,Individual,SDNTK,SDN, ,"Virgin Islands, British"
BRECO (SOUTH AFRICA) LTD,"Cumbrae House, Market Street",Entity,ZIMBABWE,SDN, ,"Virgin Islands, British"
TREMALT LTD, ,Entity,ZIMBABWE,SDN, ,"Virgin Islands, British"
TREMALT LIMITED, ,Entity,ZIMBABWE,SDN, ,"Virgin Islands, British"
Sara Marilyn ZEVALLOS GONZALES,c/o EMPRESA EDITORA CONTINENTE PRESS S.A.,Individual,SDNTK,SDN, ,"Virgin Islands, British"
LA CROSSE GROUP INC,"Vanterpool Plaza, 2nd Floor, Wickhams Cay 1, Road Town",Entity,SDNTK,SDN, ,"Virgin Islands, British"
PETROPARS LTD.,"No. 35, Farhang Blvd., Saadat Abad",Entity,IRAN,SDN, ,"Virgin Islands, British"
PETROPARS LIMITED,"No. 35, Farhang Blvd., Saadat Abad",Entity,IRAN,SDN, ,"Virgin Islands, British"
PPL,"No. 35, Farhang Blvd., Saadat Abad",Entity,IRAN,SDN, ,"Virgin Islands, British"
OVLAS TRADING S.A.,"Al Salia Building, Embassy Street, Bir Hassan",Entity,SDGT,SDN, ,"Virgin Islands, British"
OVLAS TRADING S.A.L.,"Al Salia Building, Embassy Street, Bir Hassan",Entity,SDGT,SDN, ,"Virgin Islands, British"
DREX TECHNOLOGIES S.A., ,Entity,SYRIA,SDN, ,"Virgin Islands, British"
DREX TECHNOLOGIES, ,Entity,SYRIA,SDN, ,"Virgin Islands, British"
DCB FINANCE LIMITED,"Akara Building, 24 de Castro Street, Wickhams Cay I, Road Town",Entity,NPWMD,SDN, ,"Virgin Islands, British"
SOUTHPORT MANAGEMENT SERVICES LIMITED,"De Castro Street 24, Akara Building, Wickhams Cay 1",Entity,UKRAINE-EO13661,SDN, ,"Virgin Islands, British"
SENAT SHIPPING LIMITED,"36-02 A, Suntec Tower, 9, Temasek Boulevard",Entity,DPRK,SDN, ,"Virgin Islands, British"
SENAT SHIPPING AND TRADING PRIVATE LIMITED,"36-02 A, Suntec Tower, 9, Temasek Boulevard",Entity,DPRK,SDN, ,"Virgin Islands, British"
SENAT SHIPPING & TRADING PTE LTD,"36-02 A, Suntec Tower, 9, Temasek Boulevard",Entity,DPRK,SDN, ,"Virgin Islands, British"
SENAT SHIPPING AND TRADING LTD,"36-02 A, Suntec Tower, 9, Temasek Boulevard",Entity,DPRK,SDN, ,"Virgin Islands, British"
SENAT SHIPPING AGENCY LTD,"36-02 A, Suntec Tower, 9, Temasek Boulevard",Entity,DPRK,SDN, ,"Virgin Islands, British"
LTD SHELIMAR INVESTMENTS,"Vanterpool Plaza 2nd Floor, Wickhams Cay",Entity,SDNTK,SDN, ,"Virgin Islands, British"
LTD DESLAND OVERSEAS,"3rd Floor, Geneva Place, Waterfront Drive",Entity,SDNTK,SDN, ,"Virgin Islands, British"
LTD PREYDEN INVESTMENTS,"3rd Floor, Geneva Place, Waterfront Drive",Entity,SDNTK,SDN, ,"Virgin Islands, British"
LTS HOLDING LIMITED,Rue du Conseil-General 20,Entity,UKRAINE-EO13661,SDN, ,"Virgin Islands, British"
IPP-INTERNATIONAL PETROLEUM PRODUCTS LTD.,Rue du Conseil-General 20,Entity,UKRAINE-EO13661,SDN, ,"Virgin Islands, British"
FENTEX PROPERTIES LTD., ,Entity,UKRAINE-EO13661,SDN, ,"Virgin Islands, British"
